xof 0303txt 0032

Material lambert1 {
	 0.400000; 0.400000; 0.400000; 1.000000;;
	 0.000000;
	 0.000000; 0.000000; 0.000000;;
	 0.000000; 0.000000; 0.000000;;
}
Material lambert2 {
	 0.800000; 0.800000; 0.800000; 1.000000;;
	 0.000000;
	 0.000000; 0.000000; 0.000000;;
	 0.000000; 0.000000; 0.000000;;
	TextureFileName {".\\ARROW_DIF_01.tga";}
}
Frame ARROW {
	FrameTransformMatrix {
		1.000000,0.000000,-0.000000,0.000000,0.000000,1.000000,-0.000000,0.000000,-0.000000,-0.000000,1.000000,0.000000,0.000000,0.000000,-0.000000,1.000000;;
	}
	Mesh ARROWShape {
		134;
		 0.077396;  0.030314;  0.500000;,
		-0.077396;  0.030314;  0.500000;,
		-0.077396;  0.090955;  0.500000;,
		 0.077396;  0.090955;  0.500000;,
		-0.077396;  0.030314;  0.500000;,
		-0.077396;  0.030314; -0.171825;,
		-0.077396;  0.090955; -0.171825;,
		-0.077396;  0.090955;  0.500000;,
		 0.077396;  0.030314; -0.171825;,
		 0.077396;  0.030314;  0.500000;,
		 0.077396;  0.090955;  0.500000;,
		 0.077396;  0.090955; -0.171825;,
		-0.077396;  0.030314; -0.171825;,
		-0.244444;  0.030314; -0.171825;,
		-0.244444;  0.090955; -0.171825;,
		-0.077396;  0.090955; -0.171825;,
		-0.244444;  0.030314; -0.171825;,
		-0.000000;  0.030314; -0.493988;,
		-0.000000;  0.090955; -0.493988;,
		-0.244444;  0.090955; -0.171825;,
		-0.000000;  0.030314; -0.493988;,
		 0.244444;  0.030314; -0.171825;,
		 0.244444;  0.090955; -0.171825;,
		-0.000000;  0.090955; -0.493988;,
		 0.244444;  0.030314; -0.171825;,
		 0.077396;  0.030314; -0.171825;,
		 0.077396;  0.090955; -0.171825;,
		 0.244444;  0.090955; -0.171825;,
		 0.047082;  0.000000; -0.171825;,
		 0.070315;  0.000000; -0.201300;,
		 0.007081;  0.000000; -0.464512;,
		-0.007081;  0.000000; -0.464512;,
		-0.070315;  0.000000; -0.201300;,
		-0.047082;  0.000000; -0.171825;,
		 0.070315;  0.121269; -0.201300;,
		 0.047082;  0.121269; -0.171825;,
		-0.047082;  0.121269; -0.171825;,
		-0.070315;  0.121269; -0.201300;,
		-0.007081;  0.121269; -0.464512;,
		 0.007081;  0.121269; -0.464512;,
		-0.007081;  0.000000; -0.464512;,
		-0.183390;  0.000000; -0.202139;,
		-0.070315;  0.000000; -0.201300;,
		-0.047082;  0.000000; -0.171825;,
		-0.047082; -0.000000;  0.469686;,
		 0.047082; -0.000000;  0.469686;,
		 0.047082;  0.000000; -0.171825;,
		 0.070315;  0.000000; -0.201300;,
		 0.183390;  0.000000; -0.202139;,
		 0.007081;  0.000000; -0.464512;,
		 0.047082;  0.121269; -0.171825;,
		 0.047082;  0.121269;  0.469686;,
		-0.047082;  0.121269;  0.469686;,
		-0.047082;  0.121269; -0.171825;,
		-0.070315;  0.121269; -0.201300;,
		-0.183390;  0.121269; -0.202139;,
		-0.007081;  0.121269; -0.464512;,
		 0.007081;  0.121269; -0.464512;,
		 0.183390;  0.121269; -0.202139;,
		 0.070315;  0.121269; -0.201300;,
		-0.007081;  0.000000; -0.464512;,
		-0.000000;  0.030314; -0.493988;,
		-0.244444;  0.030314; -0.171825;,
		-0.183390;  0.000000; -0.202139;,
		-0.000000;  0.030314; -0.493988;,
		 0.007081;  0.000000; -0.464512;,
		 0.183390;  0.000000; -0.202139;,
		 0.244444;  0.030314; -0.171825;,
		-0.183390;  0.000000; -0.202139;,
		-0.244444;  0.030314; -0.171825;,
		-0.077396;  0.030314; -0.171825;,
		-0.070315;  0.000000; -0.201300;,
		-0.047082; -0.000000;  0.469686;,
		-0.077396;  0.030314;  0.500000;,
		 0.077396;  0.030314;  0.500000;,
		 0.047082; -0.000000;  0.469686;,
		-0.077396;  0.030314;  0.500000;,
		-0.047082; -0.000000;  0.469686;,
		-0.047082;  0.000000; -0.171825;,
		-0.077396;  0.030314; -0.171825;,
		 0.047082; -0.000000;  0.469686;,
		 0.077396;  0.030314;  0.500000;,
		 0.077396;  0.030314; -0.171825;,
		 0.047082;  0.000000; -0.171825;,
		 0.244444;  0.030314; -0.171825;,
		 0.183390;  0.000000; -0.202139;,
		 0.070315;  0.000000; -0.201300;,
		 0.077396;  0.030314; -0.171825;,
		-0.047082;  0.121269;  0.469686;,
		-0.077396;  0.090955;  0.500000;,
		-0.077396;  0.090955; -0.171825;,
		-0.047082;  0.121269; -0.171825;,
		-0.077396;  0.090955;  0.500000;,
		-0.047082;  0.121269;  0.469686;,
		 0.047082;  0.121269;  0.469686;,
		 0.077396;  0.090955;  0.500000;,
		 0.077396;  0.090955;  0.500000;,
		 0.047082;  0.121269;  0.469686;,
		 0.047082;  0.121269; -0.171825;,
		 0.077396;  0.090955; -0.171825;,
		-0.070315;  0.121269; -0.201300;,
		-0.077396;  0.090955; -0.171825;,
		-0.244444;  0.090955; -0.171825;,
		-0.183390;  0.121269; -0.202139;,
		 0.077396;  0.090955; -0.171825;,
		 0.070315;  0.121269; -0.201300;,
		 0.183390;  0.121269; -0.202139;,
		 0.244444;  0.090955; -0.171825;,
		-0.183390;  0.121269; -0.202139;,
		-0.244444;  0.090955; -0.171825;,
		-0.000000;  0.090955; -0.493988;,
		-0.007081;  0.121269; -0.464512;,
		 0.007081;  0.121269; -0.464512;,
		-0.000000;  0.090955; -0.493988;,
		 0.244444;  0.090955; -0.171825;,
		 0.183390;  0.121269; -0.202139;,
		-0.000000;  0.030314; -0.493988;,
		-0.007081;  0.000000; -0.464512;,
		 0.007081;  0.000000; -0.464512;,
		-0.077396;  0.030314; -0.171825;,
		-0.047082;  0.000000; -0.171825;,
		-0.070315;  0.000000; -0.201300;,
		 0.077396;  0.030314; -0.171825;,
		 0.070315;  0.000000; -0.201300;,
		 0.047082;  0.000000; -0.171825;,
		-0.070315;  0.121269; -0.201300;,
		-0.047082;  0.121269; -0.171825;,
		-0.077396;  0.090955; -0.171825;,
		 0.077396;  0.090955; -0.171825;,
		 0.047082;  0.121269; -0.171825;,
		 0.070315;  0.121269; -0.201300;,
		 0.007081;  0.121269; -0.464512;,
		-0.007081;  0.121269; -0.464512;,
		-0.000000;  0.090955; -0.493988;;
		35;
		4;3,2,1,0;,
		4;7,6,5,4;,
		4;11,10,9,8;,
		4;15,14,13,12;,
		4;19,18,17,16;,
		4;23,22,21,20;,
		4;27,26,25,24;,
		6;33,32,31,30,29,28;,
		6;39,38,37,36,35,34;,
		3;42,41,40;,
		4;46,45,44,43;,
		3;49,48,47;,
		4;53,52,51,50;,
		3;56,55,54;,
		3;59,58,57;,
		4;63,62,61,60;,
		4;67,66,65,64;,
		4;71,70,69,68;,
		4;75,74,73,72;,
		4;79,78,77,76;,
		4;83,82,81,80;,
		4;87,86,85,84;,
		4;91,90,89,88;,
		4;95,94,93,92;,
		4;99,98,97,96;,
		4;103,102,101,100;,
		4;107,106,105,104;,
		4;111,110,109,108;,
		4;115,114,113,112;,
		3;118,117,116;,
		3;121,120,119;,
		3;124,123,122;,
		3;127,126,125;,
		3;130,129,128;,
		3;133,132,131;;
		MeshNormals {
			100;
			 0.707107, 0.000000, 0.707107;,
			-0.707107, 0.000000, 0.707107;,
			-0.707107, 0.000000, 0.707107;,
			 0.707107, 0.000000, 0.707107;,
			-0.707107, 0.000000, 0.707107;,
			-0.707107, 0.000000, 0.707107;,
			 0.707107, 0.000000, 0.707107;,
			 0.707107, 0.000000, 0.707107;,
			-0.895672, 0.000000, 0.444715;,
			-0.895672, 0.000000, 0.444715;,
			 0.000000, 0.000000,-1.000000;,
			 0.000000, 0.000000,-1.000000;,
			 0.895672, 0.000000, 0.444715;,
			 0.895672, 0.000000, 0.444715;,
			 0.000000,-1.000000,-0.000000;,
			 0.000000,-1.000000,-0.000000;,
			 0.000000,-1.000000,-0.000000;,
			 0.000000,-1.000000,-0.000000;,
			 0.000000,-1.000000,-0.000000;,
			 0.000000,-1.000000,-0.000000;,
			 0.000000, 1.000000,-0.000000;,
			 0.000000, 1.000000, 0.000000;,
			 0.000000, 1.000000, 0.000000;,
			-0.000000, 1.000000,-0.000000;,
			-0.000000, 1.000000,-0.000000;,
			 0.000000, 1.000000,-0.000000;,
			 0.000000,-1.000000,-0.000000;,
			 0.000000,-1.000000,-0.000000;,
			 0.000000,-1.000000,-0.000000;,
			 0.000000,-1.000000,-0.000000;,
			 0.000000, 1.000000,-0.000000;,
			 0.000000, 1.000000,-0.000000;,
			-0.000000, 1.000000,-0.000000;,
			 0.000000, 1.000000,-0.000000;,
			-0.660388,-0.581316,-0.475352;,
			-0.660388,-0.581316,-0.475352;,
			-0.660388,-0.581316,-0.475352;,
			-0.660388,-0.581316,-0.475352;,
			 0.660388,-0.581316,-0.475352;,
			 0.660388,-0.581316,-0.475352;,
			 0.660388,-0.581316,-0.475352;,
			 0.660388,-0.581316,-0.475352;,
			-0.002128,-0.703375, 0.710816;,
			-0.002128,-0.703375, 0.710816;,
			-0.002128,-0.703375, 0.710816;,
			-0.002128,-0.703375, 0.710816;,
			 0.000000,-0.707107, 0.707107;,
			 0.000000,-0.707107, 0.707107;,
			 0.000000,-0.707107, 0.707107;,
			 0.000000,-0.707107, 0.707107;,
			-0.707106,-0.707107,-0.000000;,
			-0.707106,-0.707107,-0.000000;,
			-0.684377,-0.684378, 0.251505;,
			-0.684377,-0.684378, 0.251505;,
			 0.707106,-0.707107,-0.000000;,
			 0.707106,-0.707107,-0.000000;,
			 0.684377,-0.684378, 0.251505;,
			 0.684377,-0.684378, 0.251505;,
			 0.002128,-0.703375, 0.710816;,
			 0.002128,-0.703375, 0.710816;,
			 0.002128,-0.703375, 0.710816;,
			 0.002128,-0.703375, 0.710816;,
			-0.707106, 0.707107,-0.000000;,
			-0.707106, 0.707107,-0.000000;,
			-0.684377, 0.684378, 0.251505;,
			-0.684377, 0.684378, 0.251505;,
			 0.000000, 0.707107, 0.707107;,
			 0.000000, 0.707107, 0.707107;,
			 0.000000, 0.707107, 0.707107;,
			 0.000000, 0.707107, 0.707107;,
			 0.707106, 0.707107,-0.000000;,
			 0.707106, 0.707107,-0.000000;,
			 0.684377, 0.684378, 0.251505;,
			 0.684377, 0.684378, 0.251505;,
			-0.002128, 0.703375, 0.710816;,
			-0.002128, 0.703375, 0.710816;,
			-0.002128, 0.703375, 0.710816;,
			-0.002128, 0.703375, 0.710816;,
			 0.002128, 0.703375, 0.710816;,
			 0.002128, 0.703375, 0.710816;,
			 0.002128, 0.703375, 0.710816;,
			 0.002128, 0.703375, 0.710816;,
			-0.660388, 0.581316,-0.475352;,
			-0.660388, 0.581316,-0.475352;,
			-0.660388, 0.581316,-0.475352;,
			-0.660388, 0.581316,-0.475352;,
			 0.660388, 0.581316,-0.475352;,
			 0.660388, 0.581316,-0.475352;,
			 0.660388, 0.581316,-0.475352;,
			 0.660388, 0.581316,-0.475352;,
			 0.000000,-0.697120,-0.716955;,
			 0.000000,-0.697120,-0.716955;,
			 0.000000,-0.697120,-0.716955;,
			-0.617651,-0.617651, 0.486841;,
			 0.617651,-0.617651, 0.486841;,
			-0.617651, 0.617651, 0.486841;,
			 0.617651, 0.617651, 0.486841;,
			 0.000000, 0.697120,-0.716954;,
			 0.000000, 0.697120,-0.716954;,
			 0.000000, 0.697120,-0.716954;;
			35;
			4;3,2,1,0;,
			4;2,5,4,1;,
			4;7,3,0,6;,
			4;5,9,8,4;,
			4;9,11,10,8;,
			4;11,13,12,10;,
			4;13,7,6,12;,
			6;19,18,17,16,15,14;,
			6;25,24,23,22,21,20;,
			3;18,26,17;,
			4;14,28,27,19;,
			3;16,29,15;,
			4;22,31,30,21;,
			3;24,32,23;,
			3;20,33,25;,
			4;37,36,35,34;,
			4;41,40,39,38;,
			4;45,44,43,42;,
			4;49,48,47,46;,
			4;53,52,51,50;,
			4;57,56,55,54;,
			4;61,60,59,58;,
			4;65,64,63,62;,
			4;69,68,67,66;,
			4;73,72,71,70;,
			4;77,76,75,74;,
			4;81,80,79,78;,
			4;85,84,83,82;,
			4;89,88,87,86;,
			3;92,91,90;,
			3;93,52,53;,
			3;57,94,56;,
			3;64,65,95;,
			3;96,72,73;,
			3;99,98,97;;
		}
		MeshTextureCoords {
			134;
			 0.341690;-0.000000;,
			 0.341690;-0.000000;,
			 0.341690;-0.000000;,
			 0.341690;-0.000000;,
			 0.341690;-0.000000;,
			 0.341690;-0.671825;,
			 0.341690;-0.671825;,
			 0.341690;-0.000000;,
			 0.341690;-0.671825;,
			 0.341690;-0.000000;,
			 0.341690;-0.000000;,
			 0.341690;-0.671825;,
			 0.341690;-0.671825;,
			 0.000000;-0.671825;,
			 0.000000;-0.671825;,
			 0.341690;-0.671825;,
			 0.000000;-0.671825;,
			 0.496139;-1.000000;,
			 0.496139;-1.000000;,
			 0.000000;-0.671825;,
			 0.496139;-1.000000;,
			 0.000000;-0.671825;,
			 0.000000;-0.671825;,
			 0.496139;-1.000000;,
			 0.000000;-0.671825;,
			 0.341690;-0.671825;,
			 0.341690;-0.671825;,
			 0.000000;-0.671825;,
			 0.341690;-0.671825;,
			 0.355821;-0.701850;,
			 0.482008;-0.969974;,
			 0.482008;-0.969974;,
			 0.355821;-0.701850;,
			 0.341690;-0.671825;,
			 0.355821;-0.701850;,
			 0.341690;-0.671825;,
			 0.341690;-0.671825;,
			 0.355821;-0.701850;,
			 0.482008;-0.969974;,
			 0.482008;-0.969974;,
			 0.482008;-0.969974;,
			 0.124520;-0.702705;,
			 0.355821;-0.701850;,
			 0.341690;-0.671825;,
			 0.341690;-0.030314;,
			 0.341690;-0.030314;,
			 0.341690;-0.671825;,
			 0.355821;-0.701850;,
			 0.124520;-0.702705;,
			 0.482008;-0.969974;,
			 0.341690;-0.671825;,
			 0.341690;-0.030314;,
			 0.341690;-0.030314;,
			 0.341690;-0.671825;,
			 0.355821;-0.701850;,
			 0.124520;-0.702705;,
			 0.482008;-0.969974;,
			 0.482008;-0.969974;,
			 0.124520;-0.702705;,
			 0.355821;-0.701850;,
			 0.482008;-0.969974;,
			 0.496139;-1.000000;,
			 0.000000;-0.671825;,
			 0.124520;-0.702705;,
			 0.496139;-1.000000;,
			 0.482008;-0.969974;,
			 0.124520;-0.702705;,
			 0.000000;-0.671825;,
			 0.124520;-0.702705;,
			 0.000000;-0.671825;,
			 0.341690;-0.671825;,
			 0.355821;-0.701850;,
			 0.341690;-0.030314;,
			 0.341690;-0.000000;,
			 0.341690;-0.000000;,
			 0.341690;-0.030314;,
			 0.341690;-0.000000;,
			 0.341690;-0.030314;,
			 0.341690;-0.671825;,
			 0.341690;-0.671825;,
			 0.341690;-0.030314;,
			 0.341690;-0.000000;,
			 0.341690;-0.671825;,
			 0.341690;-0.671825;,
			 0.000000;-0.671825;,
			 0.124520;-0.702705;,
			 0.355821;-0.701850;,
			 0.341690;-0.671825;,
			 0.341690;-0.030314;,
			 0.341690;-0.000000;,
			 0.341690;-0.671825;,
			 0.341690;-0.671825;,
			 0.341690;-0.000000;,
			 0.341690;-0.030314;,
			 0.341690;-0.030314;,
			 0.341690;-0.000000;,
			 0.341690;-0.000000;,
			 0.341690;-0.030314;,
			 0.341690;-0.671825;,
			 0.341690;-0.671825;,
			 0.355821;-0.701850;,
			 0.341690;-0.671825;,
			 0.000000;-0.671825;,
			 0.124520;-0.702705;,
			 0.341690;-0.671825;,
			 0.355821;-0.701850;,
			 0.124520;-0.702705;,
			 0.000000;-0.671825;,
			 0.124520;-0.702705;,
			 0.000000;-0.671825;,
			 0.496139;-1.000000;,
			 0.482008;-0.969974;,
			 0.482008;-0.969974;,
			 0.496139;-1.000000;,
			 0.000000;-0.671825;,
			 0.124520;-0.702705;,
			 0.496139;-1.000000;,
			 0.482008;-0.969974;,
			 0.482008;-0.969974;,
			 0.341690;-0.671825;,
			 0.341690;-0.671825;,
			 0.355821;-0.701850;,
			 0.341690;-0.671825;,
			 0.355821;-0.701850;,
			 0.341690;-0.671825;,
			 0.355821;-0.701850;,
			 0.341690;-0.671825;,
			 0.341690;-0.671825;,
			 0.341690;-0.671825;,
			 0.341690;-0.671825;,
			 0.355821;-0.701850;,
			 0.471041;-0.946673;,
			 0.482008;-0.969974;,
			 0.496139;-1.000000;;
		}
		MeshVertexColors {
			134;
			0; 1.000000; 1.000000; 1.000000; 1.000000;;,
			1; 1.000000; 1.000000; 1.000000; 1.000000;;,
			2; 1.000000; 1.000000; 1.000000; 1.000000;;,
			3; 1.000000; 1.000000; 1.000000; 1.000000;;,
			4; 1.000000; 1.000000; 1.000000; 1.000000;;,
			5; 1.000000; 1.000000; 1.000000; 1.000000;;,
			6; 1.000000; 1.000000; 1.000000; 1.000000;;,
			7; 1.000000; 1.000000; 1.000000; 1.000000;;,
			8; 1.000000; 1.000000; 1.000000; 1.000000;;,
			9; 1.000000; 1.000000; 1.000000; 1.000000;;,
			10; 1.000000; 1.000000; 1.000000; 1.000000;;,
			11; 1.000000; 1.000000; 1.000000; 1.000000;;,
			12; 1.000000; 1.000000; 1.000000; 1.000000;;,
			13; 1.000000; 1.000000; 1.000000; 1.000000;;,
			14; 1.000000; 1.000000; 1.000000; 1.000000;;,
			15; 1.000000; 1.000000; 1.000000; 1.000000;;,
			16; 1.000000; 1.000000; 1.000000; 1.000000;;,
			17; 1.000000; 1.000000; 1.000000; 1.000000;;,
			18; 1.000000; 1.000000; 1.000000; 1.000000;;,
			19; 1.000000; 1.000000; 1.000000; 1.000000;;,
			20; 1.000000; 1.000000; 1.000000; 1.000000;;,
			21; 1.000000; 1.000000; 1.000000; 1.000000;;,
			22; 1.000000; 1.000000; 1.000000; 1.000000;;,
			23; 1.000000; 1.000000; 1.000000; 1.000000;;,
			24; 1.000000; 1.000000; 1.000000; 1.000000;;,
			25; 1.000000; 1.000000; 1.000000; 1.000000;;,
			26; 1.000000; 1.000000; 1.000000; 1.000000;;,
			27; 1.000000; 1.000000; 1.000000; 1.000000;;,
			28; 1.000000; 1.000000; 1.000000; 1.000000;;,
			29; 1.000000; 1.000000; 1.000000; 1.000000;;,
			30; 1.000000; 1.000000; 1.000000; 1.000000;;,
			31; 1.000000; 1.000000; 1.000000; 1.000000;;,
			32; 1.000000; 1.000000; 1.000000; 1.000000;;,
			33; 1.000000; 1.000000; 1.000000; 1.000000;;,
			34; 1.000000; 1.000000; 1.000000; 1.000000;;,
			35; 1.000000; 1.000000; 1.000000; 1.000000;;,
			36; 1.000000; 1.000000; 1.000000; 1.000000;;,
			37; 1.000000; 1.000000; 1.000000; 1.000000;;,
			38; 1.000000; 1.000000; 1.000000; 1.000000;;,
			39; 1.000000; 1.000000; 1.000000; 1.000000;;,
			40; 1.000000; 1.000000; 1.000000; 1.000000;;,
			41; 1.000000; 1.000000; 1.000000; 1.000000;;,
			42; 1.000000; 1.000000; 1.000000; 1.000000;;,
			43; 1.000000; 1.000000; 1.000000; 1.000000;;,
			44; 1.000000; 1.000000; 1.000000; 1.000000;;,
			45; 1.000000; 1.000000; 1.000000; 1.000000;;,
			46; 1.000000; 1.000000; 1.000000; 1.000000;;,
			47; 1.000000; 1.000000; 1.000000; 1.000000;;,
			48; 1.000000; 1.000000; 1.000000; 1.000000;;,
			49; 1.000000; 1.000000; 1.000000; 1.000000;;,
			50; 1.000000; 1.000000; 1.000000; 1.000000;;,
			51; 1.000000; 1.000000; 1.000000; 1.000000;;,
			52; 1.000000; 1.000000; 1.000000; 1.000000;;,
			53; 1.000000; 1.000000; 1.000000; 1.000000;;,
			54; 1.000000; 1.000000; 1.000000; 1.000000;;,
			55; 1.000000; 1.000000; 1.000000; 1.000000;;,
			56; 1.000000; 1.000000; 1.000000; 1.000000;;,
			57; 1.000000; 1.000000; 1.000000; 1.000000;;,
			58; 1.000000; 1.000000; 1.000000; 1.000000;;,
			59; 1.000000; 1.000000; 1.000000; 1.000000;;,
			60; 1.000000; 1.000000; 1.000000; 1.000000;;,
			61; 1.000000; 1.000000; 1.000000; 1.000000;;,
			62; 1.000000; 1.000000; 1.000000; 1.000000;;,
			63; 1.000000; 1.000000; 1.000000; 1.000000;;,
			64; 1.000000; 1.000000; 1.000000; 1.000000;;,
			65; 1.000000; 1.000000; 1.000000; 1.000000;;,
			66; 1.000000; 1.000000; 1.000000; 1.000000;;,
			67; 1.000000; 1.000000; 1.000000; 1.000000;;,
			68; 1.000000; 1.000000; 1.000000; 1.000000;;,
			69; 1.000000; 1.000000; 1.000000; 1.000000;;,
			70; 1.000000; 1.000000; 1.000000; 1.000000;;,
			71; 1.000000; 1.000000; 1.000000; 1.000000;;,
			72; 1.000000; 1.000000; 1.000000; 1.000000;;,
			73; 1.000000; 1.000000; 1.000000; 1.000000;;,
			74; 1.000000; 1.000000; 1.000000; 1.000000;;,
			75; 1.000000; 1.000000; 1.000000; 1.000000;;,
			76; 1.000000; 1.000000; 1.000000; 1.000000;;,
			77; 1.000000; 1.000000; 1.000000; 1.000000;;,
			78; 1.000000; 1.000000; 1.000000; 1.000000;;,
			79; 1.000000; 1.000000; 1.000000; 1.000000;;,
			80; 1.000000; 1.000000; 1.000000; 1.000000;;,
			81; 1.000000; 1.000000; 1.000000; 1.000000;;,
			82; 1.000000; 1.000000; 1.000000; 1.000000;;,
			83; 1.000000; 1.000000; 1.000000; 1.000000;;,
			84; 1.000000; 1.000000; 1.000000; 1.000000;;,
			85; 1.000000; 1.000000; 1.000000; 1.000000;;,
			86; 1.000000; 1.000000; 1.000000; 1.000000;;,
			87; 1.000000; 1.000000; 1.000000; 1.000000;;,
			88; 1.000000; 1.000000; 1.000000; 1.000000;;,
			89; 1.000000; 1.000000; 1.000000; 1.000000;;,
			90; 1.000000; 1.000000; 1.000000; 1.000000;;,
			91; 1.000000; 1.000000; 1.000000; 1.000000;;,
			92; 1.000000; 1.000000; 1.000000; 1.000000;;,
			93; 1.000000; 1.000000; 1.000000; 1.000000;;,
			94; 1.000000; 1.000000; 1.000000; 1.000000;;,
			95; 1.000000; 1.000000; 1.000000; 1.000000;;,
			96; 1.000000; 1.000000; 1.000000; 1.000000;;,
			97; 1.000000; 1.000000; 1.000000; 1.000000;;,
			98; 1.000000; 1.000000; 1.000000; 1.000000;;,
			99; 1.000000; 1.000000; 1.000000; 1.000000;;,
			100; 1.000000; 1.000000; 1.000000; 1.000000;;,
			101; 1.000000; 1.000000; 1.000000; 1.000000;;,
			102; 1.000000; 1.000000; 1.000000; 1.000000;;,
			103; 1.000000; 1.000000; 1.000000; 1.000000;;,
			104; 1.000000; 1.000000; 1.000000; 1.000000;;,
			105; 1.000000; 1.000000; 1.000000; 1.000000;;,
			106; 1.000000; 1.000000; 1.000000; 1.000000;;,
			107; 1.000000; 1.000000; 1.000000; 1.000000;;,
			108; 1.000000; 1.000000; 1.000000; 1.000000;;,
			109; 1.000000; 1.000000; 1.000000; 1.000000;;,
			110; 1.000000; 1.000000; 1.000000; 1.000000;;,
			111; 1.000000; 1.000000; 1.000000; 1.000000;;,
			112; 1.000000; 1.000000; 1.000000; 1.000000;;,
			113; 1.000000; 1.000000; 1.000000; 1.000000;;,
			114; 1.000000; 1.000000; 1.000000; 1.000000;;,
			115; 1.000000; 1.000000; 1.000000; 1.000000;;,
			116; 1.000000; 1.000000; 1.000000; 1.000000;;,
			117; 1.000000; 1.000000; 1.000000; 1.000000;;,
			118; 1.000000; 1.000000; 1.000000; 1.000000;;,
			119; 1.000000; 1.000000; 1.000000; 1.000000;;,
			120; 1.000000; 1.000000; 1.000000; 1.000000;;,
			121; 1.000000; 1.000000; 1.000000; 1.000000;;,
			122; 1.000000; 1.000000; 1.000000; 1.000000;;,
			123; 1.000000; 1.000000; 1.000000; 1.000000;;,
			124; 1.000000; 1.000000; 1.000000; 1.000000;;,
			125; 1.000000; 1.000000; 1.000000; 1.000000;;,
			126; 1.000000; 1.000000; 1.000000; 1.000000;;,
			127; 1.000000; 1.000000; 1.000000; 1.000000;;,
			128; 1.000000; 1.000000; 1.000000; 1.000000;;,
			129; 1.000000; 1.000000; 1.000000; 1.000000;;,
			130; 1.000000; 1.000000; 1.000000; 1.000000;;,
			131; 1.000000; 1.000000; 1.000000; 1.000000;;,
			132; 1.000000; 1.000000; 1.000000; 1.000000;;,
			133; 1.000000; 1.000000; 1.000000; 1.000000;;;
		}
		MeshMaterialList {
			1;
			35;
			0,
			0,
			0,
			0,
			0,
			0,
			0,
			0,
			0,
			0,
			0,
			0,
			0,
			0,
			0,
			0,
			0,
			0,
			0,
			0,
			0,
			0,
			0,
			0,
			0,
			0,
			0,
			0,
			0,
			0,
			0,
			0,
			0,
			0,
			0;
			{lambert2}
		}
		VertexDuplicationIndices {
			134;
			34;
			0,
			1,
			2,
			3,
			1,
			5,
			6,
			2,
			8,
			0,
			3,
			11,
			5,
			13,
			14,
			6,
			13,
			17,
			18,
			14,
			17,
			21,
			22,
			18,
			21,
			8,
			11,
			22,
			28,
			29,
			30,
			31,
			32,
			33,
			34,
			35,
			36,
			37,
			38,
			39,
			31,
			41,
			32,
			33,
			44,
			45,
			28,
			29,
			48,
			30,
			35,
			51,
			52,
			36,
			37,
			55,
			38,
			39,
			58,
			34,
			31,
			17,
			13,
			41,
			17,
			30,
			48,
			21,
			41,
			13,
			5,
			32,
			44,
			1,
			0,
			45,
			1,
			44,
			33,
			5,
			45,
			0,
			8,
			28,
			21,
			48,
			29,
			8,
			52,
			2,
			6,
			36,
			2,
			52,
			51,
			3,
			3,
			51,
			35,
			11,
			37,
			6,
			14,
			55,
			11,
			34,
			58,
			22,
			55,
			14,
			18,
			38,
			39,
			18,
			22,
			58,
			17,
			31,
			30,
			5,
			33,
			32,
			8,
			29,
			28,
			37,
			36,
			6,
			11,
			35,
			34,
			39,
			38,
			18;
		}
		DeclData {
			2;
			2;0;6;0;,
			2;0;7;0;;
			804;
			3148188327,
			1065352788,
			1000704111,
			1060438981,
			1005198054,
			3207922628,
			3178465240,
			1065293802,
			3178465283,
			1060397274,
			1034695635,
			1060397273,
			1000704679,
			3212836436,
			1000704111,
			3207922629,
			3152681702,
			3207922628,
			1030981592,
			3212777450,
			3178465283,
			3207880922,
			3182179283,
			1060397273,
			3178465240,
			1065293802,
			3178465283,
			1060397274,
			1034695635,
			1060397273,
			3148187873,
			1065352788,
			3148187873,
			1060438982,
			1005197814,
			1060438980,
			1029363780,
			3212788903,
			1029363780,
			3207889019,
			3181035300,
			3207889017,
			1000704679,
			3212836436,
			1000704111,
			3207922629,
			3152681702,
			3207922628,
			3176847429,
			1065305255,
			1029363781,
			1060405371,
			1033551653,
			3207889017,
			3148188327,
			1065352788,
			1000704111,
			1060438981,
			1005198054,
			3207922628,
			1030981592,
			3212777450,
			3178465283,
			3207880922,
			3182179283,
			1060397273,
			1000704224,
			3212836436,
			3148187872,
			3207922630,
			3152681462,
			1060438980,
			3148187873,
			1065352788,
			3148187873,
			1060438982,
			1005197814,
			1060438980,
			3178828616,
			1065195631,
			3187331862,
			1054969402,
			1040975146,
			1063461739,
			1016110156,
			3212823643,
			1024565015,
			3202581452,
			3173160341,
			3211074689,
			1029363780,
			3212788903,
			1029363780,
			3207889019,
			3181035300,
			3207889017,
			3178828616,
			1065195631,
			3187331862,
			1054969402,
			1040975146,
			1063461739,
			1019358951,
			1065348503,
			2147483648,
			3212832151,
			1019358951,
			2147483648,
			3166842599,
			3212832151,
			2147483648,
			1065348503,
			3166842599,
			2147483648,
			1016110156,
			3212823643,
			1024565015,
			3202581452,
			3173160341,
			3211074689,
			1019358951,
			1065348503,
			2147483648,
			3212832151,
			1019358951,
			2147483648,
			3163593802,
			1065339994,
			1024565013,
			1055097803,
			1025676691,
			3211074688,
			1031344969,
			3212679279,
			3187331863,
			3202453050,
			3188458795,
			1063461739,
			3166842599,
			3212832151,
			2147483648,
			1065348503,
			3166842599,
			2147483648,
			3163593802,
			1065339994,
			1024565013,
			1055097803,
			1025676691,
			3211074688,
			3176847429,
			1065305255,
			1029363781,
			1060405371,
			1033551653,
			3207889017,
			1000704224,
			3212836436,
			3148187872,
			3207922630,
			3152681462,
			1060438980,
			1031344969,
			3212679279,
			3187331863,
			3202453050,
			3188458795,
			1063461739,
			3212831024,
			584589397,
			3168280661,
			3168280661,
			2776623408,
			1065347376,
			3206416167,
			625567531,
			3209258795,
			3209258797,
			2770208553,
			1058932520,
			3212836864,
			2569525133,
			2148858626,
			2147483664,
			2776629248,
			1065353216,
			1056194314,
			2774597187,
			1063321155,
			1063321155,
			619986699,
			3203677962,
			1064703565,
			2760710396,
			1049434364,
			1049434364,
			628495949,
			3212187213,
			1060439283,
			2771715314,
			1060439283,
			1060439284,
			624231668,
			3207922932,
			3212129891,
			864081705,
			1049825293,
			3197308941,
			3015217303,
			3212129892,
			3211721707,
			2957711239,
			1052216507,
			3199700155,
			822359769,
			3211721708,
			1064218429,
			2957823778,
			1052318244,
			3199801892,
			2969832557,
			1064218430,
			1062454720,
			3002567300,
			3205485999,
			1058002351,
			869820807,
			1062454721,
			1065353216,
			856476665,
			2808818473,
			461373441,
			869649255,
			1065353216,
			3203677958,
			870153110,
			1063321155,
			3210804804,
			2996861017,
			3203677959,
			1056194314,
			2774597187,
			1063321155,
			1063321155,
			619986699,
			3203677962,
			1065353216,
			2570374424,
			859098392,
			859098392,
			629145600,
			3212836864,
			1064703565,
			2760710396,
			1049434364,
			1049434364,
			628495949,
			3212187213,
			1060439283,
			2771715314,
			1060439283,
			1060439284,
			624231668,
			3207922932,
			1061271532,
			623336447,
			3207027711,
			3207027713,
			625063918,
			3208755182,
			0,
			629145600,
			3212836864,
			3212836864,
			0,
			2147483648,
			3212831024,
			584589397,
			3168280661,
			3168280661,
			2776623408,
			1065347376,
			3212836864,
			2600035411,
			887384418,
			3034868066,
			629145600,
			3212836864,
			3212836864,
			2598660450,
			887384418,
			3034868067,
			629145600,
			3212836864,
			3212836864,
			2600035411,
			887384418,
			3034868066,
			629145600,
			3212836864,
			3211721707,
			2957711239,
			1052216507,
			3199700155,
			822359769,
			3211721708,
			3208755180,
			2989303927,
			3207027711,
			1059544065,
			2991091252,
			3208755182,
			0,
			2995023706,
			3212836864,
			1065353216,
			0,
			0,
			1064218429,
			2957823778,
			1052318244,
			3199801892,
			2969832557,
			1064218430,
			1065353216,
			856476666,
			3015247414,
			3015247414,
			3017132903,
			3212836864,
			1065353216,
			864865273,
			3015247414,
			3015247412,
			3026896474,
			3212836864,
			1065353216,
			856476666,
			3015247414,
			3015247414,
			3017132903,
			3212836864,
			3203677958,
			870153110,
			1063321155,
			3210804804,
			2996861017,
			3203677959,
			3212836864,
			864865294,
			890660528,
			3038144176,
			3026896471,
			3212836864,
			3212129891,
			864081705,
			1049825293,
			3197308941,
			3015217303,
			3212129892,
			1058577703,
			3209326687,
			1041116803,
			1055508782,
			1044662602,
			3210635190,
			1059432353,
			3208839182,
			1023757519,
			1052971743,
			1049787434,
			3210810068,
			1060126978,
			3208163304,
			3180858297,
			1050246264,
			1052814061,
			3210767522,
			1059432353,
			3208839182,
			1023757519,
			1052971743,
			1049787434,
			3210810068,
			3206916001,
			3208839182,
			1023757519,
			3200455391,
			1049787434,
			3210810068,
			3206061352,
			3209326687,
			1041116803,
			3202992430,
			1044662604,
			3210635190,
			3206916001,
			3208839182,
			1023757519,
			3200455391,
			1049787434,
			3210810068,
			3207610626,
			3208163304,
			3180858297,
			3197729912,
			1052814061,
			3210767522,
			1065353118,
			3143641312,
			3117214567,
			3140573799,
			3207985074,
			3207860375,
			1065353178,
			3133419935,
			986071540,
			3011936257,
			3207985185,
			3207860348,
			1065353118,
			3143641312,
			3117214567,
			3140573799,
			3207985074,
			3207860375,
			1065352933,
			3148815425,
			3138804680,
			3148962229,
			3207984875,
			3207860314,
			3205745982,
			1058262327,
			1058262332,
			1062274539,
			1053885934,
			1053885941,
			1065123032,
			3186561130,
			3186561139,
			3190360893,
			3207760163,
			3207760169,
			3205745982,
			3205745975,
			3205745980,
			3209758187,
			1053885934,
			1053885941,
			3212606680,
			1039077482,
			1039077491,
			1042877245,
			1060276515,
			1060276521,
			1058262334,
			3205745976,
			3205745979,
			1053885937,
			3201369575,
			1062274540,
			1051094519,
			3198578160,
			3210959056,
			3206595124,
			1059111468,
			3203096041,
			3207724209,
			1057109445,
			3204579819,
			3194021688,
			1057340705,
			1062399064,
			1041733300,
			3203380447,
			3210675057,
			3208037603,
			1057953813,
			3201821686,
			1051791339,
			1051791331,
			3210693488,
			3206407339,
			3206407331,
			3204081492,
			1058262334,
			1058262328,
			3205745979,
			1053885937,
			1053885927,
			1062274540,
			1060791111,
			1059027169,
			3197270859,
			3173008148,
			3200385256,
			3211571943,
			1052745065,
			1059074381,
			1060057950,
			1059074383,
			1052745054,
			3207541600,
			3212836826,
			3133419935,
			986071540,
			864452609,
			3207985185,
			3207860348,
			3212836765,
			3143640147,
			3117205370,
			993088515,
			3207985074,
			3207860374,
			3212836582,
			3148814262,
			3138802381,
			1001476945,
			3207984875,
			3207860314,
			3212836765,
			3143640147,
			3117205370,
			993088515,
			3207985074,
			3207860374,
			3197869205,
			3197869197,
			1063724390,
			3206771182,
			3206771173,
			3202093418,
			3205745982,
			3205745974,
			1058262331,
			1053885938,
			1053885927,
			1062274539,
			3206510824,
			3208274753,
			1049787210,
			3200385258,
			3173008060,
			3211571942,
			3200228715,
			3206558028,
			1060057950,
			3206558034,
			3200228697,
			3207541599,
			1058262334,
			1058262327,
			3205745979,
			1062274538,
			3201369582,
			1053885941,
			1065123032,
			3186561130,
			1039077490,
			3190360893,
			3207760163,
			1060276521,
			1058262334,
			3205745975,
			1058262331,
			3209758186,
			3201369582,
			1053885941,
			3212606680,
			1039077482,
			3186561138,
			1042877245,
			1060276515,
			3207760169,
			3205745982,
			1058262327,
			3205745979,
			3201369585,
			1053885927,
			1062274539,
			3198578167,
			1051094511,
			3210959056,
			1059111476,
			3206595116,
			3203096040,
			1060240563,
			3204593091,
			3204579817,
			1046538037,
			3204824352,
			1062399064,
			3189216952,
			1055896800,
			3210675057,
			1060553959,
			3205437458,
			3201821687,
			1065352933,
			1001331873,
			3138804764,
			3148962327,
			1060501227,
			3207860314,
			1065353118,
			996157834,
			3117215070,
			3140573964,
			1060501426,
			3207860375,
			1065353178,
			985936589,
			986071458,
			3016409090,
			1060501537,
			3207860348,
			1065353118,
			996157834,
			3117215070,
			3140573964,
			1060501426,
			3207860375,
			3212836765,
			996156676,
			3117205842,
			993088679,
			1060501423,
			3207860377,
			3212836582,
			1001330712,
			3138802462,
			1001477042,
			1060501224,
			3207860317,
			3212836765,
			996156676,
			3117205842,
			993088679,
			1060501423,
			3207860377,
			3212836826,
			985936604,
			986071466,
			868925442,
			1060501534,
			3207860351,
			1059432337,
			1061355545,
			1023758084,
			1052971796,
			3197271021,
			3210810068,
			1060126979,
			1060679656,
			3180858297,
			1050246263,
			3200297710,
			3210767524,
			1059432337,
			1061355545,
			1023758084,
			1052971796,
			3197271021,
			3210810068,
			1058577666,
			1061843056,
			1041117084,
			1055508876,
			3192145992,
			3210635179,
			3206061314,
			1061843055,
			1041117077,
			3202992519,
			3192145994,
			3210635179,
			3206915985,
			1061355546,
			1023758071,
			3200455440,
			3197271019,
			3210810068,
			3207610626,
			1060679657,
			3180858298,
			3197729910,
			3200297708,
			3210767524,
			3206915985,
			1061355546,
			1023758071,
			3200455440,
			3197271019,
			3210810068,
			3190367141,
			3207922930,
			1060111081,
			1065122770,
			3186788292,
			1038864919,
			1065353216,
			0,
			2147483648,
			2147483648,
			1060604503,
			3207755379,
			3190367141,
			1060439282,
			3207594729,
			3212606418,
			3186788292,
			1038864919,
			1060439287,
			3207922929,
			858469554,
			3191217113,
			3191217123,
			3212297580,
			3207724209,
			1057109445,
			3204579819,
			3194021688,
			1057340705,
			1062399064,
			3190367167,
			1060439283,
			1060111079,
			1061476184,
			3199222105,
			1057614998,
			3197963149,
			3205843536,
			3208679816,
			3207157304,
			3202356444,
			1058793718,
			3206445318,
			3025697725,
			1061752224,
			1056464010,
			1061770479,
			1053016839,
			1052745065,
			1059074381,
			1060057950,
			1059074383,
			1052745054,
			3207541600,
			1058961674,
			3007301230,
			1061752221,
			3203947664,
			3209254124,
			1053016844,
			3200228715,
			3206558028,
			1060057950,
			3206558034,
			3200228697,
			3207541599,
			1050479501,
			1058359887,
			3208679817,
			1059673659,
			1054872794,
			1058793716,
			3207922936,
			1060439279,
			2982313058,
			1043733469,
			1043733479,
			3212297578,
			1060240563,
			3204593091,
			3204579817,
			1046538037,
			3204824352,
			1062399064,
			1042883522,
			3207922930,
			1060111080,
			3208959837,
			1051738448,
			1057614994,
			3205746610,
			1058396910,
			1058125214,
			1062274094,
			1054077615,
			1053693342,
			3205746610,
			1058396910,
			1058125214,
			1062274094,
			1054077615,
			1053693342,
			3205746610,
			1058396910,
			1058125214,
			1062274094,
			1054077615,
			1053693342;
		}
	}
}
