xof 0303txt 0032

Material lambert1 {
	 0.800000; 0.800000; 0.800000; 1.000000;;
	 0.000000;
	 0.000000; 0.000000; 0.000000;;
	 0.000000; 0.000000; 0.000000;;
	TextureFileName {"CARGO_DIF_SHIELD.tga";}
}
Material lambert3 {
	 0.800000; 0.800000; 0.800000; 1.000000;;
	 0.000000;
	 0.000000; 0.000000; 0.000000;;
	 0.000000; 0.000000; 0.000000;;
	TextureFileName {"CARGO_DIF_SHIELD.tga";}
}
Frame CARGO {
	FrameTransformMatrix {
		1.000000,0.000000,-0.000000,0.000000,0.000000,1.000000,-0.000000,0.000000,-0.000000,-0.000000,1.000000,0.000000,0.000000,0.000000,-0.000000,1.000000;;
	}
	Mesh CARGOShape {
		376;
		-0.592464; -0.584344; -0.614413;,
		 0.598133; -0.531975; -0.613946;,
		 0.594007; -0.438203; -0.610851;,
		-0.596590; -0.490571; -0.611318;,
		-0.652340;  0.494880; -0.591178;,
		 0.563002;  0.548337; -0.590701;,
		 0.563138;  0.544113; -0.462532;,
		-0.652205;  0.490656; -0.463009;,
		-0.595331; -0.529821;  0.579782;,
		 0.595266; -0.477452;  0.580249;,
		 0.599391; -0.571225;  0.577155;,
		-0.591205; -0.623594;  0.576688;,
		-0.592331; -0.588482; -0.488853;,
		 0.598265; -0.536113; -0.488387;,
		 0.598133; -0.531975; -0.613946;,
		-0.592464; -0.584344; -0.614413;,
		 0.598133; -0.531975; -0.613946;,
		 0.598265; -0.536113; -0.488387;,
		 0.594139; -0.442340; -0.485292;,
		 0.594007; -0.438203; -0.610851;,
		-0.592331; -0.588482; -0.488853;,
		-0.592464; -0.584344; -0.614413;,
		-0.596590; -0.490571; -0.611318;,
		-0.596457; -0.494709; -0.485759;,
		-0.644411;  0.313537; -0.468854;,
		-0.644547;  0.317760; -0.597023;,
		-0.652340;  0.494880; -0.591178;,
		-0.652205;  0.490656; -0.463009;,
		-0.651055;  0.454814;  0.624679;,
		 0.564288;  0.508271;  0.625156;,
		 0.572081;  0.331152;  0.619311;,
		-0.643262;  0.277695;  0.618834;,
		 0.570795;  0.371218; -0.596546;,
		 0.570931;  0.366994; -0.468377;,
		 0.563138;  0.544113; -0.462532;,
		 0.563002;  0.548337; -0.590701;,
		-0.644547;  0.317760; -0.597023;,
		 0.570795;  0.371218; -0.596546;,
		 0.563002;  0.548337; -0.590701;,
		-0.652340;  0.494880; -0.591178;,
		-0.631787;  0.308286; -0.459261;,
		-0.631920;  0.312423; -0.584820;,
		-0.644547;  0.317760; -0.597023;,
		-0.644411;  0.313537; -0.468854;,
		-0.643262;  0.277695;  0.618834;,
		 0.572081;  0.331152;  0.619311;,
		 0.559935;  0.325542;  0.606747;,
		-0.630661;  0.273174;  0.606280;,
		 0.558677;  0.364792; -0.584353;,
		 0.558809;  0.360655; -0.458794;,
		 0.570931;  0.366994; -0.468377;,
		 0.570795;  0.371218; -0.596546;,
		-0.631920;  0.312423; -0.584820;,
		 0.558677;  0.364792; -0.584353;,
		 0.570795;  0.371218; -0.596546;,
		-0.644547;  0.317760; -0.597023;,
		-0.626826; -0.363609; -0.492850;,
		-0.626961; -0.359371; -0.621463;,
		-0.602489; -0.356491; -0.606893;,
		-0.602356; -0.360628; -0.481335;,
		-0.601230; -0.395740;  0.584207;,
		 0.589366; -0.343372;  0.584674;,
		 0.614039; -0.345046;  0.599093;,
		-0.625672; -0.399575;  0.598607;,
		 0.612750; -0.304842; -0.620977;,
		 0.612886; -0.309080; -0.492364;,
		 0.588240; -0.308260; -0.480867;,
		 0.588107; -0.304122; -0.606426;,
		-0.626961; -0.359371; -0.621463;,
		 0.612750; -0.304842; -0.620977;,
		 0.588107; -0.304122; -0.606426;,
		-0.602489; -0.356491; -0.606893;,
		-0.621130; -0.493051; -0.497122;,
		-0.621266; -0.488813; -0.625735;,
		-0.626961; -0.359371; -0.621463;,
		-0.626826; -0.363609; -0.492850;,
		-0.625672; -0.399575;  0.598607;,
		 0.614039; -0.345046;  0.599093;,
		 0.619735; -0.474488;  0.594822;,
		-0.619977; -0.529017;  0.594335;,
		 0.618445; -0.434284; -0.625248;,
		 0.618581; -0.438522; -0.496635;,
		 0.612886; -0.309080; -0.492364;,
		 0.612750; -0.304842; -0.620977;,
		-0.621266; -0.488813; -0.625735;,
		 0.618445; -0.434284; -0.625248;,
		 0.612750; -0.304842; -0.620977;,
		-0.626961; -0.359371; -0.621463;,
		-0.602356; -0.360628; -0.481335;,
		-0.602489; -0.356491; -0.606893;,
		-0.631920;  0.312423; -0.584820;,
		-0.631787;  0.308286; -0.459261;,
		-0.630661;  0.273174;  0.606280;,
		 0.559935;  0.325542;  0.606747;,
		 0.589366; -0.343372;  0.584674;,
		-0.601230; -0.395740;  0.584207;,
		 0.588107; -0.304122; -0.606426;,
		 0.588240; -0.308260; -0.480867;,
		 0.558809;  0.360655; -0.458794;,
		 0.558677;  0.364792; -0.584353;,
		-0.602489; -0.356491; -0.606893;,
		 0.588107; -0.304122; -0.606426;,
		 0.558677;  0.364792; -0.584353;,
		-0.631920;  0.312423; -0.584820;,
		-0.596457; -0.494709; -0.485759;,
		-0.596590; -0.490571; -0.611318;,
		-0.621266; -0.488813; -0.625735;,
		-0.621130; -0.493051; -0.497122;,
		-0.619977; -0.529017;  0.594335;,
		 0.619735; -0.474488;  0.594822;,
		 0.595266; -0.477452;  0.580249;,
		-0.595331; -0.529821;  0.579782;,
		 0.594007; -0.438203; -0.610851;,
		 0.594139; -0.442340; -0.485292;,
		 0.618581; -0.438522; -0.496635;,
		 0.618445; -0.434284; -0.625248;,
		-0.596590; -0.490571; -0.611318;,
		 0.594007; -0.438203; -0.610851;,
		 0.618445; -0.434284; -0.625248;,
		-0.621266; -0.488813; -0.625735;,
		-0.644390;  0.312860; -0.448314;,
		-0.644411;  0.313537; -0.468854;,
		-0.652205;  0.490656; -0.463009;,
		-0.651258;  0.469043; -0.452382;,
		-0.631766;  0.307623; -0.439140;,
		-0.631787;  0.308286; -0.459261;,
		-0.644411;  0.313537; -0.468854;,
		-0.644390;  0.312860; -0.448314;,
		-0.602335; -0.361291; -0.461213;,
		-0.602356; -0.360628; -0.481335;,
		-0.631787;  0.308286; -0.459261;,
		-0.631766;  0.307623; -0.439140;,
		-0.626804; -0.364288; -0.472239;,
		-0.626826; -0.363609; -0.492850;,
		-0.602356; -0.360628; -0.481335;,
		-0.602335; -0.361291; -0.461213;,
		-0.621109; -0.493730; -0.476510;,
		-0.621130; -0.493051; -0.497122;,
		-0.626826; -0.363609; -0.492850;,
		-0.626804; -0.364288; -0.472239;,
		-0.596436; -0.495372; -0.465637;,
		-0.596457; -0.494709; -0.485759;,
		-0.621130; -0.493051; -0.497122;,
		-0.621109; -0.493730; -0.476510;,
		-0.592310; -0.589145; -0.468732;,
		-0.592331; -0.588482; -0.488853;,
		-0.596457; -0.494709; -0.485759;,
		-0.596436; -0.495372; -0.465637;,
		-0.592310; -0.589145; -0.468732;,
		 0.598286; -0.536776; -0.468265;,
		 0.598265; -0.536113; -0.488387;,
		-0.592331; -0.588482; -0.488853;,
		 0.594139; -0.442340; -0.485292;,
		 0.598265; -0.536113; -0.488387;,
		 0.598286; -0.536776; -0.468265;,
		 0.594161; -0.443003; -0.465171;,
		 0.618581; -0.438522; -0.496635;,
		 0.594139; -0.442340; -0.485292;,
		 0.594161; -0.443003; -0.465171;,
		 0.618603; -0.439201; -0.476024;,
		 0.612886; -0.309080; -0.492364;,
		 0.618581; -0.438522; -0.496635;,
		 0.618603; -0.439201; -0.476024;,
		 0.612907; -0.309759; -0.471753;,
		 0.588240; -0.308260; -0.480867;,
		 0.612886; -0.309080; -0.492364;,
		 0.612907; -0.309759; -0.471753;,
		 0.588262; -0.308923; -0.460746;,
		 0.558809;  0.360655; -0.458794;,
		 0.588240; -0.308260; -0.480867;,
		 0.588262; -0.308923; -0.460746;,
		 0.558830;  0.359992; -0.438673;,
		 0.570931;  0.366994; -0.468377;,
		 0.558809;  0.360655; -0.458794;,
		 0.558830;  0.359992; -0.438673;,
		 0.570953;  0.366317; -0.447838;,
		 0.563138;  0.544113; -0.462532;,
		 0.570931;  0.366994; -0.468377;,
		 0.570953;  0.366317; -0.447838;,
		 0.564085;  0.522500; -0.451905;,
		-0.652205;  0.490656; -0.463009;,
		 0.563138;  0.544113; -0.462532;,
		 0.564085;  0.522500; -0.451905;,
		-0.651258;  0.469043; -0.452382;,
		-0.643430;  0.282936;  0.459779;,
		-0.644390;  0.312860; -0.448314;,
		-0.651258;  0.469043; -0.452382;,
		-0.650279;  0.438512;  0.474134;,
		-0.630826;  0.278308;  0.450463;,
		-0.631766;  0.307623; -0.439140;,
		-0.644390;  0.312860; -0.448314;,
		-0.643430;  0.282936;  0.459779;,
		-0.601395; -0.390606;  0.428390;,
		-0.602335; -0.361291; -0.461213;,
		-0.631766;  0.307623; -0.439140;,
		-0.630826;  0.278308;  0.450463;,
		-0.625840; -0.394316;  0.439000;,
		-0.626804; -0.364288; -0.472239;,
		-0.602335; -0.361291; -0.461213;,
		-0.601395; -0.390606;  0.428390;,
		-0.620145; -0.523757;  0.434728;,
		-0.621109; -0.493730; -0.476510;,
		-0.626804; -0.364288; -0.472239;,
		-0.625840; -0.394316;  0.439000;,
		-0.595495; -0.524686;  0.423965;,
		-0.596436; -0.495372; -0.465637;,
		-0.621109; -0.493730; -0.476510;,
		-0.620145; -0.523757;  0.434728;,
		-0.591369; -0.618459;  0.420871;,
		-0.592310; -0.589145; -0.468732;,
		-0.596436; -0.495372; -0.465637;,
		-0.595495; -0.524686;  0.423965;,
		-0.591369; -0.618459;  0.420871;,
		 0.599227; -0.566091;  0.421338;,
		 0.598286; -0.536776; -0.468265;,
		-0.592310; -0.589145; -0.468732;,
		 0.594161; -0.443003; -0.465171;,
		 0.598286; -0.536776; -0.468265;,
		 0.599227; -0.566091;  0.421338;,
		 0.595101; -0.472318;  0.424432;,
		 0.618603; -0.439201; -0.476024;,
		 0.594161; -0.443003; -0.465171;,
		 0.595101; -0.472318;  0.424432;,
		 0.619566; -0.469229;  0.435215;,
		 0.612907; -0.309759; -0.471753;,
		 0.618603; -0.439201; -0.476024;,
		 0.619566; -0.469229;  0.435215;,
		 0.613871; -0.339787;  0.439486;,
		 0.588262; -0.308923; -0.460746;,
		 0.612907; -0.309759; -0.471753;,
		 0.613871; -0.339787;  0.439486;,
		 0.589202; -0.338237;  0.428857;,
		 0.558830;  0.359992; -0.438673;,
		 0.588262; -0.308923; -0.460746;,
		 0.589202; -0.338237;  0.428857;,
		 0.559771;  0.330677;  0.450930;,
		 0.570953;  0.366317; -0.447838;,
		 0.558830;  0.359992; -0.438673;,
		 0.559771;  0.330677;  0.450930;,
		 0.571913;  0.336393;  0.460255;,
		 0.564085;  0.522500; -0.451905;,
		 0.570953;  0.366317; -0.447838;,
		 0.571913;  0.336393;  0.460255;,
		 0.565064;  0.491969;  0.474610;,
		-0.651258;  0.469043; -0.452382;,
		 0.564085;  0.522500; -0.451905;,
		 0.565064;  0.491969;  0.474610;,
		-0.650279;  0.438512;  0.474134;,
		-0.643262;  0.277695;  0.618834;,
		-0.643410;  0.282324;  0.478346;,
		-0.651203;  0.459444;  0.484191;,
		-0.651055;  0.454814;  0.624679;,
		-0.630661;  0.273174;  0.606280;,
		-0.630806;  0.277709;  0.468653;,
		-0.643410;  0.282324;  0.478346;,
		-0.643262;  0.277695;  0.618834;,
		-0.601230; -0.395740;  0.584207;,
		-0.601376; -0.391205;  0.446579;,
		-0.630806;  0.277709;  0.468653;,
		-0.630661;  0.273174;  0.606280;,
		-0.625672; -0.399575;  0.598607;,
		-0.625821; -0.394930;  0.457632;,
		-0.601376; -0.391205;  0.446579;,
		-0.601230; -0.395740;  0.584207;,
		-0.619977; -0.529017;  0.594335;,
		-0.620126; -0.524371;  0.453360;,
		-0.625821; -0.394930;  0.457632;,
		-0.625672; -0.399575;  0.598607;,
		-0.595331; -0.529821;  0.579782;,
		-0.595476; -0.525286;  0.442155;,
		-0.620126; -0.524371;  0.453360;,
		-0.619977; -0.529017;  0.594335;,
		-0.591205; -0.623594;  0.576688;,
		-0.591350; -0.619059;  0.439060;,
		-0.595476; -0.525286;  0.442155;,
		-0.595331; -0.529821;  0.579782;,
		-0.591205; -0.623594;  0.576688;,
		 0.599391; -0.571225;  0.577155;,
		 0.599246; -0.566690;  0.439527;,
		-0.591350; -0.619059;  0.439060;,
		 0.595121; -0.472917;  0.442622;,
		 0.599246; -0.566690;  0.439527;,
		 0.599391; -0.571225;  0.577155;,
		 0.595266; -0.477452;  0.580249;,
		 0.619586; -0.469843;  0.453847;,
		 0.595121; -0.472917;  0.442622;,
		 0.595266; -0.477452;  0.580249;,
		 0.619735; -0.474488;  0.594822;,
		 0.613891; -0.340401;  0.458118;,
		 0.619586; -0.469843;  0.453847;,
		 0.619735; -0.474488;  0.594822;,
		 0.614039; -0.345046;  0.599093;,
		 0.589221; -0.338836;  0.447047;,
		 0.613891; -0.340401;  0.458118;,
		 0.614039; -0.345046;  0.599093;,
		 0.589366; -0.343372;  0.584674;,
		 0.559790;  0.330078;  0.469120;,
		 0.589221; -0.338836;  0.447047;,
		 0.589366; -0.343372;  0.584674;,
		 0.559935;  0.325542;  0.606747;,
		 0.571932;  0.335782;  0.478823;,
		 0.559790;  0.330078;  0.469120;,
		 0.559935;  0.325542;  0.606747;,
		 0.572081;  0.331152;  0.619311;,
		 0.564139;  0.512901;  0.484668;,
		 0.571932;  0.335782;  0.478823;,
		 0.572081;  0.331152;  0.619311;,
		 0.564288;  0.508271;  0.625156;,
		-0.651203;  0.459444;  0.484191;,
		 0.564139;  0.512901;  0.484668;,
		 0.564288;  0.508271;  0.625156;,
		-0.651055;  0.454814;  0.624679;,
		-0.643410;  0.282324;  0.478346;,
		-0.643430;  0.282936;  0.459779;,
		-0.650279;  0.438512;  0.474134;,
		-0.651203;  0.459444;  0.484191;,
		-0.630806;  0.277709;  0.468653;,
		-0.630826;  0.278308;  0.450463;,
		-0.643430;  0.282936;  0.459779;,
		-0.643410;  0.282324;  0.478346;,
		-0.601376; -0.391205;  0.446579;,
		-0.601395; -0.390606;  0.428390;,
		-0.630826;  0.278308;  0.450463;,
		-0.630806;  0.277709;  0.468653;,
		-0.625821; -0.394930;  0.457632;,
		-0.625840; -0.394316;  0.439000;,
		-0.601395; -0.390606;  0.428390;,
		-0.601376; -0.391205;  0.446579;,
		-0.620126; -0.524371;  0.453360;,
		-0.620145; -0.523757;  0.434728;,
		-0.625840; -0.394316;  0.439000;,
		-0.625821; -0.394930;  0.457632;,
		-0.595476; -0.525286;  0.442155;,
		-0.595495; -0.524686;  0.423965;,
		-0.620145; -0.523757;  0.434728;,
		-0.620126; -0.524371;  0.453360;,
		-0.591350; -0.619059;  0.439060;,
		-0.591369; -0.618459;  0.420871;,
		-0.595495; -0.524686;  0.423965;,
		-0.595476; -0.525286;  0.442155;,
		-0.591350; -0.619059;  0.439060;,
		 0.599246; -0.566690;  0.439527;,
		 0.599227; -0.566091;  0.421338;,
		-0.591369; -0.618459;  0.420871;,
		 0.595101; -0.472318;  0.424432;,
		 0.599227; -0.566091;  0.421338;,
		 0.599246; -0.566690;  0.439527;,
		 0.595121; -0.472917;  0.442622;,
		 0.619566; -0.469229;  0.435215;,
		 0.595101; -0.472318;  0.424432;,
		 0.595121; -0.472917;  0.442622;,
		 0.619586; -0.469843;  0.453847;,
		 0.613871; -0.339787;  0.439486;,
		 0.619566; -0.469229;  0.435215;,
		 0.619586; -0.469843;  0.453847;,
		 0.613891; -0.340401;  0.458118;,
		 0.589202; -0.338237;  0.428857;,
		 0.613871; -0.339787;  0.439486;,
		 0.613891; -0.340401;  0.458118;,
		 0.589221; -0.338836;  0.447047;,
		 0.559771;  0.330677;  0.450930;,
		 0.589202; -0.338237;  0.428857;,
		 0.589221; -0.338836;  0.447047;,
		 0.559790;  0.330078;  0.469120;,
		 0.571913;  0.336393;  0.460255;,
		 0.559771;  0.330677;  0.450930;,
		 0.559790;  0.330078;  0.469120;,
		 0.571932;  0.335782;  0.478823;,
		 0.565064;  0.491969;  0.474610;,
		 0.571913;  0.336393;  0.460255;,
		 0.571932;  0.335782;  0.478823;,
		 0.564139;  0.512901;  0.484668;,
		-0.650279;  0.438512;  0.474134;,
		 0.565064;  0.491969;  0.474610;,
		 0.564139;  0.512901;  0.484668;,
		-0.651203;  0.459444;  0.484191;;
		94;
		4;3,2,1,0;,
		4;7,6,5,4;,
		4;11,10,9,8;,
		4;15,14,13,12;,
		4;19,18,17,16;,
		4;23,22,21,20;,
		4;27,26,25,24;,
		4;31,30,29,28;,
		4;35,34,33,32;,
		4;39,38,37,36;,
		4;43,42,41,40;,
		4;47,46,45,44;,
		4;51,50,49,48;,
		4;55,54,53,52;,
		4;59,58,57,56;,
		4;63,62,61,60;,
		4;67,66,65,64;,
		4;71,70,69,68;,
		4;75,74,73,72;,
		4;79,78,77,76;,
		4;83,82,81,80;,
		4;87,86,85,84;,
		4;91,90,89,88;,
		4;95,94,93,92;,
		4;99,98,97,96;,
		4;103,102,101,100;,
		4;107,106,105,104;,
		4;111,110,109,108;,
		4;115,114,113,112;,
		4;119,118,117,116;,
		4;123,122,121,120;,
		4;127,126,125,124;,
		4;131,130,129,128;,
		4;135,134,133,132;,
		4;139,138,137,136;,
		4;143,142,141,140;,
		4;147,146,145,144;,
		4;151,150,149,148;,
		4;155,154,153,152;,
		4;159,158,157,156;,
		4;163,162,161,160;,
		4;167,166,165,164;,
		4;171,170,169,168;,
		4;175,174,173,172;,
		4;179,178,177,176;,
		4;183,182,181,180;,
		4;187,186,185,184;,
		4;191,190,189,188;,
		4;195,194,193,192;,
		4;199,198,197,196;,
		4;203,202,201,200;,
		4;207,206,205,204;,
		4;211,210,209,208;,
		4;215,214,213,212;,
		4;219,218,217,216;,
		4;223,222,221,220;,
		4;227,226,225,224;,
		4;231,230,229,228;,
		4;235,234,233,232;,
		4;239,238,237,236;,
		4;243,242,241,240;,
		4;247,246,245,244;,
		4;251,250,249,248;,
		4;255,254,253,252;,
		4;259,258,257,256;,
		4;263,262,261,260;,
		4;267,266,265,264;,
		4;271,270,269,268;,
		4;275,274,273,272;,
		4;279,278,277,276;,
		4;283,282,281,280;,
		4;287,286,285,284;,
		4;291,290,289,288;,
		4;295,294,293,292;,
		4;299,298,297,296;,
		4;303,302,301,300;,
		4;307,306,305,304;,
		4;311,310,309,308;,
		4;315,314,313,312;,
		4;319,318,317,316;,
		4;323,322,321,320;,
		4;327,326,325,324;,
		4;331,330,329,328;,
		4;335,334,333,332;,
		4;339,338,337,336;,
		4;343,342,341,340;,
		4;347,346,345,344;,
		4;351,350,349,348;,
		4;355,354,353,352;,
		4;359,358,357,356;,
		4;363,362,361,360;,
		4;367,366,365,364;,
		4;371,370,369,368;,
		4;375,374,373,372;;
		MeshNormals {
			376;
			-0.001057, 0.032935,-0.999457;,
			-0.001057, 0.032935,-0.999457;,
			-0.001057, 0.032935,-0.999457;,
			-0.001057, 0.032935,-0.999457;,
			-0.043932, 0.998491, 0.032950;,
			-0.043932, 0.998491, 0.032950;,
			-0.043932, 0.998491, 0.032950;,
			-0.043932, 0.998491, 0.032950;,
			 0.001057,-0.032935, 0.999457;,
			 0.001057,-0.032935, 0.999457;,
			 0.001057,-0.032935, 0.999457;,
			 0.001057,-0.032935, 0.999457;,
			 0.043932,-0.998491,-0.032949;,
			 0.043932,-0.998491,-0.032949;,
			 0.043932,-0.998491,-0.032949;,
			 0.043932,-0.998491,-0.032949;,
			 0.999034, 0.043946, 0.000392;,
			 0.999034, 0.043946, 0.000392;,
			 0.999034, 0.043946, 0.000392;,
			 0.999034, 0.043946, 0.000392;,
			-0.999034,-0.043942,-0.000393;,
			-0.999034,-0.043942,-0.000393;,
			-0.999034,-0.043942,-0.000393;,
			-0.999034,-0.043942,-0.000393;,
			-0.999034,-0.043944,-0.000392;,
			-0.999034,-0.043944,-0.000392;,
			-0.999034,-0.043944,-0.000392;,
			-0.999034,-0.043944,-0.000392;,
			 0.001057,-0.032935, 0.999457;,
			 0.001057,-0.032935, 0.999457;,
			 0.001057,-0.032935, 0.999457;,
			 0.001057,-0.032935, 0.999457;,
			 0.999034, 0.043943, 0.000390;,
			 0.999034, 0.043943, 0.000390;,
			 0.999034, 0.043943, 0.000390;,
			 0.999034, 0.043943, 0.000390;,
			-0.001057, 0.032936,-0.999457;,
			-0.001057, 0.032936,-0.999457;,
			-0.001057, 0.032936,-0.999457;,
			-0.001057, 0.032936,-0.999457;,
			-0.364175,-0.930838,-0.030288;,
			-0.364175,-0.930838,-0.030288;,
			-0.364175,-0.930838,-0.030288;,
			-0.364175,-0.930838,-0.030288;,
			 0.040600,-0.926381, 0.374392;,
			 0.040600,-0.926381, 0.374392;,
			 0.040600,-0.926381, 0.374392;,
			 0.040600,-0.926381, 0.374392;,
			 0.444519,-0.895268,-0.029971;,
			 0.444519,-0.895268,-0.029971;,
			 0.444519,-0.895268,-0.029971;,
			 0.444519,-0.895268,-0.029971;,
			 0.039745,-0.899726,-0.434642;,
			 0.039745,-0.899726,-0.434642;,
			 0.039745,-0.899726,-0.434642;,
			 0.039745,-0.899726,-0.434642;,
			-0.136050, 0.990160, 0.032771;,
			-0.136050, 0.990160, 0.032771;,
			-0.136050, 0.990160, 0.032771;,
			-0.136050, 0.990160, 0.032771;,
			-0.043233, 0.981229, 0.187937;,
			-0.043233, 0.981229, 0.187937;,
			-0.043233, 0.981229, 0.187937;,
			-0.043233, 0.981229, 0.187937;,
			 0.048554, 0.998280, 0.032845;,
			 0.048554, 0.998280, 0.032845;,
			 0.048554, 0.998280, 0.032845;,
			 0.048554, 0.998280, 0.032845;,
			-0.043562, 0.991471,-0.122834;,
			-0.043562, 0.991471,-0.122834;,
			-0.043562, 0.991471,-0.122834;,
			-0.043562, 0.991471,-0.122834;,
			-0.999034,-0.043942,-0.000392;,
			-0.999034,-0.043942,-0.000392;,
			-0.999034,-0.043942,-0.000392;,
			-0.999034,-0.043942,-0.000392;,
			 0.001057,-0.032935, 0.999457;,
			 0.001057,-0.032935, 0.999457;,
			 0.001057,-0.032935, 0.999457;,
			 0.001057,-0.032935, 0.999457;,
			 0.999034, 0.043942, 0.000392;,
			 0.999034, 0.043942, 0.000392;,
			 0.999034, 0.043942, 0.000392;,
			 0.999034, 0.043942, 0.000392;,
			-0.001056, 0.032935,-0.999457;,
			-0.001056, 0.032935,-0.999457;,
			-0.001056, 0.032935,-0.999457;,
			-0.001056, 0.032935,-0.999457;,
			-0.999034,-0.043943,-0.000391;,
			-0.999034,-0.043943,-0.000391;,
			-0.999034,-0.043943,-0.000391;,
			-0.999034,-0.043943,-0.000391;,
			 0.001057,-0.032934, 0.999457;,
			 0.001057,-0.032934, 0.999457;,
			 0.001057,-0.032934, 0.999457;,
			 0.001057,-0.032934, 0.999457;,
			 0.999034, 0.043942, 0.000393;,
			 0.999034, 0.043942, 0.000393;,
			 0.999034, 0.043942, 0.000393;,
			 0.999034, 0.043942, 0.000393;,
			-0.001057, 0.032934,-0.999457;,
			-0.001057, 0.032934,-0.999457;,
			-0.001057, 0.032934,-0.999457;,
			-0.001057, 0.032934,-0.999457;,
			-0.051944,-0.998110,-0.032835;,
			-0.051944,-0.998110,-0.032835;,
			-0.051944,-0.998110,-0.032835;,
			-0.051944,-0.998110,-0.032835;,
			 0.043528,-0.990758, 0.128466;,
			 0.043528,-0.990758, 0.128466;,
			 0.043528,-0.990758, 0.128466;,
			 0.043528,-0.990758, 0.128466;,
			 0.139404,-0.989694,-0.032758;,
			 0.139404,-0.989694,-0.032758;,
			 0.139404,-0.989694,-0.032758;,
			 0.139404,-0.989694,-0.032758;,
			 0.043188,-0.980151,-0.193490;,
			 0.043188,-0.980151,-0.193490;,
			 0.043188,-0.980151,-0.193490;,
			 0.043188,-0.980151,-0.193490;,
			-0.999034,-0.043944,-0.000392;,
			-0.999034,-0.043944,-0.000392;,
			-0.999034,-0.043944,-0.000392;,
			-0.999034,-0.043944,-0.000392;,
			-0.364179,-0.930836,-0.030286;,
			-0.364179,-0.930836,-0.030286;,
			-0.364179,-0.930836,-0.030286;,
			-0.364179,-0.930836,-0.030286;,
			-0.999034,-0.043942,-0.000395;,
			-0.999034,-0.043942,-0.000395;,
			-0.999034,-0.043942,-0.000395;,
			-0.999034,-0.043942,-0.000395;,
			-0.136046, 0.990160, 0.032779;,
			-0.136046, 0.990160, 0.032779;,
			-0.136046, 0.990160, 0.032779;,
			-0.136046, 0.990160, 0.032779;,
			-0.999034,-0.043943,-0.000391;,
			-0.999034,-0.043943,-0.000391;,
			-0.999034,-0.043943,-0.000391;,
			-0.999034,-0.043943,-0.000391;,
			-0.051939,-0.998110,-0.032834;,
			-0.051939,-0.998110,-0.032834;,
			-0.051939,-0.998110,-0.032834;,
			-0.051939,-0.998110,-0.032834;,
			-0.999034,-0.043943,-0.000383;,
			-0.999034,-0.043943,-0.000383;,
			-0.999034,-0.043943,-0.000383;,
			-0.999034,-0.043943,-0.000383;,
			 0.043932,-0.998491,-0.032949;,
			 0.043932,-0.998491,-0.032949;,
			 0.043932,-0.998491,-0.032949;,
			 0.043932,-0.998491,-0.032949;,
			 0.999034, 0.043942, 0.000393;,
			 0.999034, 0.043942, 0.000393;,
			 0.999034, 0.043942, 0.000393;,
			 0.999034, 0.043942, 0.000393;,
			 0.139399,-0.989694,-0.032766;,
			 0.139399,-0.989694,-0.032766;,
			 0.139399,-0.989694,-0.032766;,
			 0.139399,-0.989694,-0.032766;,
			 0.999034, 0.043941, 0.000389;,
			 0.999034, 0.043941, 0.000389;,
			 0.999034, 0.043941, 0.000389;,
			 0.999034, 0.043941, 0.000389;,
			 0.048553, 0.998280, 0.032848;,
			 0.048553, 0.998280, 0.032848;,
			 0.048553, 0.998280, 0.032848;,
			 0.048553, 0.998280, 0.032848;,
			 0.999034, 0.043943, 0.000381;,
			 0.999034, 0.043943, 0.000381;,
			 0.999034, 0.043943, 0.000381;,
			 0.999034, 0.043943, 0.000381;,
			 0.444513,-0.895271,-0.029965;,
			 0.444513,-0.895271,-0.029965;,
			 0.444513,-0.895271,-0.029965;,
			 0.444513,-0.895271,-0.029965;,
			 0.999034, 0.043942, 0.000393;,
			 0.999034, 0.043942, 0.000393;,
			 0.999034, 0.043942, 0.000393;,
			 0.999034, 0.043942, 0.000393;,
			-0.019726, 0.440466, 0.897552;,
			-0.019726, 0.440466, 0.897552;,
			-0.019726, 0.440466, 0.897552;,
			-0.019726, 0.440466, 0.897552;,
			-0.999034,-0.043944,-0.000392;,
			-0.999034,-0.043944,-0.000392;,
			-0.999034,-0.043944,-0.000392;,
			-0.999034,-0.043944,-0.000392;,
			-0.364174,-0.930838,-0.030288;,
			-0.364174,-0.930838,-0.030288;,
			-0.364174,-0.930838,-0.030288;,
			-0.364174,-0.930838,-0.030288;,
			-0.999034,-0.043942,-0.000392;,
			-0.999034,-0.043942,-0.000392;,
			-0.999034,-0.043942,-0.000392;,
			-0.999034,-0.043942,-0.000392;,
			-0.136044, 0.990161, 0.032772;,
			-0.136044, 0.990161, 0.032772;,
			-0.136044, 0.990161, 0.032772;,
			-0.136044, 0.990161, 0.032772;,
			-0.999034,-0.043943,-0.000392;,
			-0.999034,-0.043943,-0.000392;,
			-0.999034,-0.043943,-0.000392;,
			-0.999034,-0.043943,-0.000392;,
			-0.051950,-0.998110,-0.032835;,
			-0.051950,-0.998110,-0.032835;,
			-0.051950,-0.998110,-0.032835;,
			-0.051950,-0.998110,-0.032835;,
			-0.999034,-0.043944,-0.000392;,
			-0.999034,-0.043944,-0.000392;,
			-0.999034,-0.043944,-0.000392;,
			-0.999034,-0.043944,-0.000392;,
			 0.043932,-0.998491,-0.032949;,
			 0.043932,-0.998491,-0.032949;,
			 0.043932,-0.998491,-0.032949;,
			 0.043932,-0.998491,-0.032949;,
			 0.999034, 0.043941, 0.000392;,
			 0.999034, 0.043941, 0.000392;,
			 0.999034, 0.043941, 0.000392;,
			 0.999034, 0.043941, 0.000392;,
			 0.139408,-0.989693,-0.032760;,
			 0.139408,-0.989693,-0.032760;,
			 0.139408,-0.989693,-0.032760;,
			 0.139408,-0.989693,-0.032760;,
			 0.999034, 0.043943, 0.000392;,
			 0.999034, 0.043943, 0.000392;,
			 0.999034, 0.043943, 0.000392;,
			 0.999034, 0.043943, 0.000392;,
			 0.048551, 0.998280, 0.032844;,
			 0.048551, 0.998280, 0.032844;,
			 0.048551, 0.998280, 0.032844;,
			 0.048551, 0.998280, 0.032844;,
			 0.999034, 0.043943, 0.000392;,
			 0.999034, 0.043943, 0.000392;,
			 0.999034, 0.043943, 0.000392;,
			 0.999034, 0.043943, 0.000392;,
			 0.444510,-0.895272,-0.029971;,
			 0.444510,-0.895272,-0.029971;,
			 0.444510,-0.895272,-0.029971;,
			 0.444510,-0.895272,-0.029971;,
			 0.999034, 0.043943, 0.000392;,
			 0.999034, 0.043943, 0.000392;,
			 0.999034, 0.043943, 0.000392;,
			 0.999034, 0.043943, 0.000392;,
			-0.043932, 0.998491, 0.032949;,
			-0.043932, 0.998491, 0.032949;,
			-0.043932, 0.998491, 0.032949;,
			-0.043932, 0.998491, 0.032949;,
			-0.999034,-0.043944,-0.000393;,
			-0.999034,-0.043944,-0.000393;,
			-0.999034,-0.043944,-0.000393;,
			-0.999034,-0.043944,-0.000393;,
			-0.364169,-0.930840,-0.030289;,
			-0.364169,-0.930840,-0.030289;,
			-0.364169,-0.930840,-0.030289;,
			-0.364169,-0.930840,-0.030289;,
			-0.999034,-0.043943,-0.000392;,
			-0.999034,-0.043943,-0.000392;,
			-0.999034,-0.043943,-0.000392;,
			-0.999034,-0.043943,-0.000392;,
			-0.136047, 0.990160, 0.032772;,
			-0.136047, 0.990160, 0.032772;,
			-0.136047, 0.990160, 0.032772;,
			-0.136047, 0.990160, 0.032772;,
			-0.999034,-0.043944,-0.000392;,
			-0.999034,-0.043944,-0.000392;,
			-0.999034,-0.043944,-0.000392;,
			-0.999034,-0.043944,-0.000392;,
			-0.051961,-0.998109,-0.032836;,
			-0.051961,-0.998109,-0.032836;,
			-0.051961,-0.998109,-0.032836;,
			-0.051961,-0.998109,-0.032836;,
			-0.999034,-0.043944,-0.000392;,
			-0.999034,-0.043944,-0.000392;,
			-0.999034,-0.043944,-0.000392;,
			-0.999034,-0.043944,-0.000392;,
			 0.043932,-0.998491,-0.032950;,
			 0.043932,-0.998491,-0.032950;,
			 0.043932,-0.998491,-0.032950;,
			 0.043932,-0.998491,-0.032950;,
			 0.999034, 0.043936, 0.000392;,
			 0.999034, 0.043936, 0.000392;,
			 0.999034, 0.043936, 0.000392;,
			 0.999034, 0.043936, 0.000392;,
			 0.139412,-0.989692,-0.032760;,
			 0.139412,-0.989692,-0.032760;,
			 0.139412,-0.989692,-0.032760;,
			 0.139412,-0.989692,-0.032760;,
			 0.999034, 0.043944, 0.000394;,
			 0.999034, 0.043944, 0.000394;,
			 0.999034, 0.043944, 0.000394;,
			 0.999034, 0.043944, 0.000394;,
			 0.048561, 0.998280, 0.032845;,
			 0.048561, 0.998280, 0.032845;,
			 0.048561, 0.998280, 0.032845;,
			 0.048561, 0.998280, 0.032845;,
			 0.999034, 0.043943, 0.000393;,
			 0.999034, 0.043943, 0.000393;,
			 0.999034, 0.043943, 0.000393;,
			 0.999034, 0.043943, 0.000393;,
			 0.444507,-0.895274,-0.029972;,
			 0.444507,-0.895274,-0.029972;,
			 0.444507,-0.895274,-0.029972;,
			 0.444507,-0.895274,-0.029972;,
			 0.999034, 0.043943, 0.000392;,
			 0.999034, 0.043943, 0.000392;,
			 0.999034, 0.043943, 0.000392;,
			 0.999034, 0.043943, 0.000392;,
			-0.043932, 0.998491, 0.032950;,
			-0.043932, 0.998491, 0.032950;,
			-0.043932, 0.998491, 0.032950;,
			-0.043932, 0.998491, 0.032950;,
			-0.999034,-0.043945,-0.000384;,
			-0.999034,-0.043945,-0.000384;,
			-0.999034,-0.043945,-0.000384;,
			-0.999034,-0.043945,-0.000384;,
			-0.364162,-0.930843,-0.030285;,
			-0.364162,-0.930843,-0.030285;,
			-0.364162,-0.930843,-0.030285;,
			-0.364162,-0.930843,-0.030285;,
			-0.999034,-0.043942,-0.000394;,
			-0.999034,-0.043942,-0.000394;,
			-0.999034,-0.043942,-0.000394;,
			-0.999034,-0.043942,-0.000394;,
			-0.136046, 0.990160, 0.032772;,
			-0.136046, 0.990160, 0.032772;,
			-0.136046, 0.990160, 0.032772;,
			-0.136046, 0.990160, 0.032772;,
			-0.999034,-0.043943,-0.000393;,
			-0.999034,-0.043943,-0.000393;,
			-0.999034,-0.043943,-0.000393;,
			-0.999034,-0.043943,-0.000393;,
			-0.051960,-0.998109,-0.032833;,
			-0.051960,-0.998109,-0.032833;,
			-0.051960,-0.998109,-0.032833;,
			-0.051960,-0.998109,-0.032833;,
			-0.999034,-0.043945,-0.000394;,
			-0.999034,-0.043945,-0.000394;,
			-0.999034,-0.043945,-0.000394;,
			-0.999034,-0.043945,-0.000394;,
			 0.043932,-0.998491,-0.032950;,
			 0.043932,-0.998491,-0.032950;,
			 0.043932,-0.998491,-0.032950;,
			 0.043932,-0.998491,-0.032950;,
			 0.999034, 0.043941, 0.000385;,
			 0.999034, 0.043941, 0.000385;,
			 0.999034, 0.043941, 0.000385;,
			 0.999034, 0.043941, 0.000385;,
			 0.139413,-0.989692,-0.032766;,
			 0.139413,-0.989692,-0.032766;,
			 0.139413,-0.989692,-0.032766;,
			 0.139413,-0.989692,-0.032766;,
			 0.999034, 0.043944, 0.000379;,
			 0.999034, 0.043944, 0.000379;,
			 0.999034, 0.043944, 0.000379;,
			 0.999034, 0.043944, 0.000379;,
			 0.048557, 0.998280, 0.032840;,
			 0.048557, 0.998280, 0.032840;,
			 0.048557, 0.998280, 0.032840;,
			 0.048557, 0.998280, 0.032840;,
			 0.999034, 0.043943, 0.000392;,
			 0.999034, 0.043943, 0.000392;,
			 0.999034, 0.043943, 0.000392;,
			 0.999034, 0.043943, 0.000392;,
			 0.444512,-0.895271,-0.029976;,
			 0.444512,-0.895271,-0.029976;,
			 0.444512,-0.895271,-0.029976;,
			 0.444512,-0.895271,-0.029976;,
			 0.999034, 0.043944, 0.000374;,
			 0.999034, 0.043944, 0.000374;,
			 0.999034, 0.043944, 0.000374;,
			 0.999034, 0.043944, 0.000374;,
			-0.018663, 0.432334,-0.901521;,
			-0.018663, 0.432334,-0.901521;,
			-0.018663, 0.432334,-0.901521;,
			-0.018663, 0.432334,-0.901521;;
			94;
			4;3,2,1,0;,
			4;7,6,5,4;,
			4;11,10,9,8;,
			4;15,14,13,12;,
			4;19,18,17,16;,
			4;23,22,21,20;,
			4;27,26,25,24;,
			4;31,30,29,28;,
			4;35,34,33,32;,
			4;39,38,37,36;,
			4;43,42,41,40;,
			4;47,46,45,44;,
			4;51,50,49,48;,
			4;55,54,53,52;,
			4;59,58,57,56;,
			4;63,62,61,60;,
			4;67,66,65,64;,
			4;71,70,69,68;,
			4;75,74,73,72;,
			4;79,78,77,76;,
			4;83,82,81,80;,
			4;87,86,85,84;,
			4;91,90,89,88;,
			4;95,94,93,92;,
			4;99,98,97,96;,
			4;103,102,101,100;,
			4;107,106,105,104;,
			4;111,110,109,108;,
			4;115,114,113,112;,
			4;119,118,117,116;,
			4;123,122,121,120;,
			4;127,126,125,124;,
			4;131,130,129,128;,
			4;135,134,133,132;,
			4;139,138,137,136;,
			4;143,142,141,140;,
			4;147,146,145,144;,
			4;151,150,149,148;,
			4;155,154,153,152;,
			4;159,158,157,156;,
			4;163,162,161,160;,
			4;167,166,165,164;,
			4;171,170,169,168;,
			4;175,174,173,172;,
			4;179,178,177,176;,
			4;183,182,181,180;,
			4;187,186,185,184;,
			4;191,190,189,188;,
			4;195,194,193,192;,
			4;199,198,197,196;,
			4;203,202,201,200;,
			4;207,206,205,204;,
			4;211,210,209,208;,
			4;215,214,213,212;,
			4;219,218,217,216;,
			4;223,222,221,220;,
			4;227,226,225,224;,
			4;231,230,229,228;,
			4;235,234,233,232;,
			4;239,238,237,236;,
			4;243,242,241,240;,
			4;247,246,245,244;,
			4;251,250,249,248;,
			4;255,254,253,252;,
			4;259,258,257,256;,
			4;263,262,261,260;,
			4;267,266,265,264;,
			4;271,270,269,268;,
			4;275,274,273,272;,
			4;279,278,277,276;,
			4;283,282,281,280;,
			4;287,286,285,284;,
			4;291,290,289,288;,
			4;295,294,293,292;,
			4;299,298,297,296;,
			4;303,302,301,300;,
			4;307,306,305,304;,
			4;311,310,309,308;,
			4;315,314,313,312;,
			4;319,318,317,316;,
			4;323,322,321,320;,
			4;327,326,325,324;,
			4;331,330,329,328;,
			4;335,334,333,332;,
			4;339,338,337,336;,
			4;343,342,341,340;,
			4;347,346,345,344;,
			4;351,350,349,348;,
			4;355,354,353,352;,
			4;359,358,357,356;,
			4;363,362,361,360;,
			4;367,366,365,364;,
			4;371,370,369,368;,
			4;375,374,373,372;;
		}
		MeshTextureCoords {
			376;
			 0.501323;-0.321518;,
			 0.981417;-0.301317;,
			 0.982532;-0.339310;,
			 0.501800;-0.358749;,
			 0.005566;-0.541986;,
			 0.480039;-0.533710;,
			 0.480435;-0.574209;,
			 0.006746;-0.582119;,
			 0.982532;-0.339310;,
			 0.501800;-0.358749;,
			 0.501323;-0.321518;,
			 0.981417;-0.301317;,
			 0.015464;-0.878712;,
			 0.483365;-0.873514;,
			 0.483799;-0.917907;,
			 0.016757;-0.922703;,
			 0.016512;-0.078140;,
			 0.071032;-0.077401;,
			 0.070912;-0.127028;,
			 0.016229;-0.127814;,
			 0.438612;-0.072420;,
			 0.488351;-0.071746;,
			 0.489483;-0.121012;,
			 0.439595;-0.121729;,
			 0.442733;-0.419568;,
			 0.493279;-0.419607;,
			 0.495123;-0.462618;,
			 0.444254;-0.462658;,
			 0.994010;-0.730558;,
			 0.506717;-0.742158;,
			 0.505940;-0.681529;,
			 0.992195;-0.668689;,
			 0.013776;-0.419233;,
			 0.069181;-0.419276;,
			 0.068321;-0.462952;,
			 0.012563;-0.462996;,
			 0.505940;-0.681529;,
			 0.992195;-0.668689;,
			 0.994010;-0.730558;,
			 0.506717;-0.742158;,
			 0.442628;-0.415919;,
			 0.493159;-0.415959;,
			 0.493279;-0.419607;,
			 0.442733;-0.419568;,
			 0.992195;-0.668689;,
			 0.505940;-0.681529;,
			 0.505889;-0.677565;,
			 0.992076;-0.664644;,
			 0.013806;-0.415585;,
			 0.069194;-0.415628;,
			 0.069181;-0.419276;,
			 0.013776;-0.419233;,
			 0.505889;-0.677565;,
			 0.992076;-0.664644;,
			 0.992195;-0.668689;,
			 0.505940;-0.681529;,
			 0.440868;-0.169697;,
			 0.490949;-0.167930;,
			 0.491101;-0.172808;,
			 0.441000;-0.174684;,
			 0.984126;-0.393633;,
			 0.502483;-0.411983;,
			 0.502419;-0.406970;,
			 0.983976;-0.388517;,
			 0.015863;-0.184692;,
			 0.070757;-0.182755;,
			 0.070741;-0.188549;,
			 0.015825;-0.190606;,
			 0.502419;-0.406970;,
			 0.983976;-0.388517;,
			 0.984126;-0.393632;,
			 0.502483;-0.411983;,
			 0.439728;-0.126749;,
			 0.489636;-0.125922;,
			 0.490949;-0.167930;,
			 0.440868;-0.169697;,
			 0.983976;-0.388517;,
			 0.502419;-0.406970;,
			 0.501865;-0.363795;,
			 0.982683;-0.344460;,
			 0.016191;-0.133767;,
			 0.070896;-0.132860;,
			 0.070757;-0.182755;,
			 0.015863;-0.184692;,
			 0.501865;-0.363795;,
			 0.982683;-0.344460;,
			 0.983976;-0.388517;,
			 0.502419;-0.406970;,
			 0.441000;-0.174684;,
			 0.491101;-0.172808;,
			 0.493159;-0.415959;,
			 0.442628;-0.415919;,
			 0.992076;-0.664644;,
			 0.505889;-0.677565;,
			 0.502483;-0.411983;,
			 0.984126;-0.393633;,
			 0.015825;-0.190606;,
			 0.070741;-0.188549;,
			 0.069194;-0.415628;,
			 0.013806;-0.415585;,
			 0.502483;-0.411983;,
			 0.984126;-0.393632;,
			 0.992076;-0.664644;,
			 0.505889;-0.677565;,
			 0.439595;-0.121729;,
			 0.489483;-0.121012;,
			 0.489636;-0.125922;,
			 0.439728;-0.126749;,
			 0.982683;-0.344460;,
			 0.501865;-0.363795;,
			 0.501800;-0.358749;,
			 0.982532;-0.339310;,
			 0.016229;-0.127814;,
			 0.070912;-0.127028;,
			 0.070896;-0.132860;,
			 0.016191;-0.133767;,
			 0.501800;-0.358749;,
			 0.982532;-0.339310;,
			 0.982683;-0.344460;,
			 0.501865;-0.363795;,
			 0.434633;-0.419561;,
			 0.442733;-0.419568;,
			 0.444254;-0.462658;,
			 0.436102;-0.462664;,
			 0.434530;-0.415913;,
			 0.442628;-0.415919;,
			 0.442733;-0.419568;,
			 0.434633;-0.419561;,
			 0.432971;-0.174984;,
			 0.441000;-0.174684;,
			 0.442628;-0.415919;,
			 0.434530;-0.415913;,
			 0.432842;-0.169980;,
			 0.440868;-0.169697;,
			 0.441000;-0.174684;,
			 0.432971;-0.174984;,
			 0.431730;-0.126881;,
			 0.439728;-0.126749;,
			 0.440868;-0.169697;,
			 0.432842;-0.169980;,
			 0.431600;-0.121844;,
			 0.439595;-0.121729;,
			 0.439728;-0.126749;,
			 0.431730;-0.126881;,
			 0.430641;-0.072528;,
			 0.438612;-0.072420;,
			 0.439595;-0.121729;,
			 0.431600;-0.121844;,
			 0.015293;-0.872899;,
			 0.483307;-0.867647;,
			 0.483365;-0.873514;,
			 0.015464;-0.878712;,
			 0.070912;-0.127028;,
			 0.071032;-0.077401;,
			 0.078237;-0.077304;,
			 0.078139;-0.126925;,
			 0.070896;-0.132860;,
			 0.070912;-0.127028;,
			 0.078139;-0.126925;,
			 0.078126;-0.132741;,
			 0.070757;-0.182755;,
			 0.070896;-0.132860;,
			 0.078126;-0.132741;,
			 0.078013;-0.182500;,
			 0.070741;-0.188549;,
			 0.070757;-0.182755;,
			 0.078013;-0.182500;,
			 0.077999;-0.188277;,
			 0.069194;-0.415628;,
			 0.070741;-0.188549;,
			 0.077999;-0.188277;,
			 0.076514;-0.415633;,
			 0.069181;-0.419276;,
			 0.069194;-0.415628;,
			 0.076514;-0.415633;,
			 0.076504;-0.419282;,
			 0.068321;-0.462952;,
			 0.069181;-0.419276;,
			 0.076504;-0.419282;,
			 0.075691;-0.462946;,
			 0.006746;-0.582119;,
			 0.480435;-0.574209;,
			 0.480499;-0.580700;,
			 0.006935;-0.588550;,
			 0.076504;-0.419282;,
			 0.434633;-0.419561;,
			 0.436102;-0.462664;,
			 0.075690;-0.462946;,
			 0.076514;-0.415633;,
			 0.434530;-0.415913;,
			 0.434633;-0.419561;,
			 0.076504;-0.419282;,
			 0.077999;-0.188277;,
			 0.432971;-0.174984;,
			 0.434530;-0.415913;,
			 0.076514;-0.415633;,
			 0.078013;-0.182499;,
			 0.432842;-0.169980;,
			 0.432971;-0.174984;,
			 0.077999;-0.188277;,
			 0.078126;-0.132741;,
			 0.431730;-0.126881;,
			 0.432842;-0.169980;,
			 0.078013;-0.182499;,
			 0.078139;-0.126925;,
			 0.431600;-0.121844;,
			 0.431730;-0.126881;,
			 0.078126;-0.132741;,
			 0.078237;-0.077304;,
			 0.430641;-0.072528;,
			 0.431600;-0.121844;,
			 0.078139;-0.126925;,
			 0.006935;-0.588550;,
			 0.480499;-0.580700;,
			 0.483307;-0.867647;,
			 0.015293;-0.872899;,
			 0.078139;-0.126925;,
			 0.078237;-0.077304;,
			 0.430641;-0.072528;,
			 0.431600;-0.121844;,
			 0.078126;-0.132741;,
			 0.078139;-0.126925;,
			 0.431600;-0.121844;,
			 0.431730;-0.126881;,
			 0.078013;-0.182500;,
			 0.078126;-0.132741;,
			 0.431730;-0.126881;,
			 0.432842;-0.169980;,
			 0.077999;-0.188277;,
			 0.078013;-0.182500;,
			 0.432842;-0.169980;,
			 0.432971;-0.174984;,
			 0.076514;-0.415633;,
			 0.077999;-0.188277;,
			 0.432971;-0.174984;,
			 0.434531;-0.415913;,
			 0.076504;-0.419282;,
			 0.076514;-0.415633;,
			 0.434531;-0.415913;,
			 0.434633;-0.419561;,
			 0.075691;-0.462946;,
			 0.076504;-0.419282;,
			 0.434633;-0.419561;,
			 0.436102;-0.462664;,
			 0.006935;-0.588550;,
			 0.480499;-0.580700;,
			 0.483307;-0.867647;,
			 0.015293;-0.872899;,
			 0.013776;-0.419233;,
			 0.069181;-0.419276;,
			 0.068321;-0.462952;,
			 0.012563;-0.462996;,
			 0.013806;-0.415585;,
			 0.069194;-0.415628;,
			 0.069181;-0.419276;,
			 0.013776;-0.419233;,
			 0.015825;-0.190606;,
			 0.070741;-0.188549;,
			 0.069194;-0.415628;,
			 0.013806;-0.415585;,
			 0.015863;-0.184692;,
			 0.070757;-0.182756;,
			 0.070741;-0.188549;,
			 0.015825;-0.190606;,
			 0.016191;-0.133767;,
			 0.070896;-0.132860;,
			 0.070757;-0.182756;,
			 0.015863;-0.184692;,
			 0.016229;-0.127814;,
			 0.070912;-0.127028;,
			 0.070896;-0.132860;,
			 0.016191;-0.133767;,
			 0.016512;-0.078140;,
			 0.071032;-0.077401;,
			 0.070912;-0.127028;,
			 0.016229;-0.127814;,
			 0.005566;-0.541986;,
			 0.480039;-0.533710;,
			 0.480435;-0.574209;,
			 0.006746;-0.582119;,
			 0.439595;-0.121729;,
			 0.438612;-0.072420;,
			 0.488351;-0.071746;,
			 0.489483;-0.121012;,
			 0.439728;-0.126749;,
			 0.439595;-0.121729;,
			 0.489483;-0.121012;,
			 0.489636;-0.125922;,
			 0.440868;-0.169697;,
			 0.439728;-0.126749;,
			 0.489636;-0.125922;,
			 0.490949;-0.167930;,
			 0.441000;-0.174684;,
			 0.440868;-0.169697;,
			 0.490949;-0.167930;,
			 0.491101;-0.172808;,
			 0.442628;-0.415919;,
			 0.441000;-0.174684;,
			 0.491101;-0.172808;,
			 0.493159;-0.415959;,
			 0.442733;-0.419568;,
			 0.442628;-0.415919;,
			 0.493159;-0.415959;,
			 0.493279;-0.419607;,
			 0.444254;-0.462658;,
			 0.442733;-0.419568;,
			 0.493279;-0.419607;,
			 0.495123;-0.462618;,
			 0.015464;-0.878713;,
			 0.483365;-0.873514;,
			 0.483799;-0.917907;,
			 0.016757;-0.922703;,
			 0.069181;-0.419276;,
			 0.076504;-0.419282;,
			 0.075690;-0.462946;,
			 0.068321;-0.462952;,
			 0.069194;-0.415628;,
			 0.076514;-0.415633;,
			 0.076504;-0.419282;,
			 0.069181;-0.419276;,
			 0.070741;-0.188549;,
			 0.077999;-0.188277;,
			 0.076514;-0.415633;,
			 0.069194;-0.415628;,
			 0.070757;-0.182756;,
			 0.078013;-0.182499;,
			 0.077999;-0.188277;,
			 0.070741;-0.188549;,
			 0.070896;-0.132860;,
			 0.078126;-0.132741;,
			 0.078013;-0.182499;,
			 0.070757;-0.182756;,
			 0.070912;-0.127028;,
			 0.078139;-0.126925;,
			 0.078126;-0.132741;,
			 0.070896;-0.132860;,
			 0.071032;-0.077401;,
			 0.078237;-0.077304;,
			 0.078139;-0.126925;,
			 0.070912;-0.127028;,
			 0.006746;-0.582119;,
			 0.480435;-0.574209;,
			 0.480499;-0.580700;,
			 0.006935;-0.588550;,
			 0.431600;-0.121844;,
			 0.430641;-0.072528;,
			 0.438612;-0.072420;,
			 0.439595;-0.121729;,
			 0.431730;-0.126881;,
			 0.431600;-0.121844;,
			 0.439595;-0.121729;,
			 0.439728;-0.126749;,
			 0.432842;-0.169980;,
			 0.431730;-0.126881;,
			 0.439728;-0.126749;,
			 0.440868;-0.169697;,
			 0.432971;-0.174984;,
			 0.432842;-0.169980;,
			 0.440868;-0.169697;,
			 0.441000;-0.174684;,
			 0.434531;-0.415913;,
			 0.432971;-0.174984;,
			 0.441000;-0.174684;,
			 0.442628;-0.415919;,
			 0.434633;-0.419561;,
			 0.434531;-0.415913;,
			 0.442628;-0.415919;,
			 0.442733;-0.419568;,
			 0.436102;-0.462664;,
			 0.434633;-0.419561;,
			 0.442733;-0.419568;,
			 0.444254;-0.462658;,
			 0.015293;-0.872899;,
			 0.483307;-0.867647;,
			 0.483365;-0.873514;,
			 0.015464;-0.878713;;
		}
		MeshVertexColors {
			376;
			0; 1.000000; 1.000000; 1.000000; 1.000000;;,
			1; 1.000000; 1.000000; 1.000000; 1.000000;;,
			2; 1.000000; 1.000000; 1.000000; 1.000000;;,
			3; 1.000000; 1.000000; 1.000000; 1.000000;;,
			4; 1.000000; 1.000000; 1.000000; 1.000000;;,
			5; 1.000000; 1.000000; 1.000000; 1.000000;;,
			6; 1.000000; 1.000000; 1.000000; 1.000000;;,
			7; 1.000000; 1.000000; 1.000000; 1.000000;;,
			8; 1.000000; 1.000000; 1.000000; 1.000000;;,
			9; 1.000000; 1.000000; 1.000000; 1.000000;;,
			10; 1.000000; 1.000000; 1.000000; 1.000000;;,
			11; 1.000000; 1.000000; 1.000000; 1.000000;;,
			12; 1.000000; 1.000000; 1.000000; 1.000000;;,
			13; 1.000000; 1.000000; 1.000000; 1.000000;;,
			14; 1.000000; 1.000000; 1.000000; 1.000000;;,
			15; 1.000000; 1.000000; 1.000000; 1.000000;;,
			16; 1.000000; 1.000000; 1.000000; 1.000000;;,
			17; 1.000000; 1.000000; 1.000000; 1.000000;;,
			18; 1.000000; 1.000000; 1.000000; 1.000000;;,
			19; 1.000000; 1.000000; 1.000000; 1.000000;;,
			20; 1.000000; 1.000000; 1.000000; 1.000000;;,
			21; 1.000000; 1.000000; 1.000000; 1.000000;;,
			22; 1.000000; 1.000000; 1.000000; 1.000000;;,
			23; 1.000000; 1.000000; 1.000000; 1.000000;;,
			24; 1.000000; 1.000000; 1.000000; 1.000000;;,
			25; 1.000000; 1.000000; 1.000000; 1.000000;;,
			26; 1.000000; 1.000000; 1.000000; 1.000000;;,
			27; 1.000000; 1.000000; 1.000000; 1.000000;;,
			28; 1.000000; 1.000000; 1.000000; 1.000000;;,
			29; 1.000000; 1.000000; 1.000000; 1.000000;;,
			30; 1.000000; 1.000000; 1.000000; 1.000000;;,
			31; 1.000000; 1.000000; 1.000000; 1.000000;;,
			32; 1.000000; 1.000000; 1.000000; 1.000000;;,
			33; 1.000000; 1.000000; 1.000000; 1.000000;;,
			34; 1.000000; 1.000000; 1.000000; 1.000000;;,
			35; 1.000000; 1.000000; 1.000000; 1.000000;;,
			36; 1.000000; 1.000000; 1.000000; 1.000000;;,
			37; 1.000000; 1.000000; 1.000000; 1.000000;;,
			38; 1.000000; 1.000000; 1.000000; 1.000000;;,
			39; 1.000000; 1.000000; 1.000000; 1.000000;;,
			40; 1.000000; 1.000000; 1.000000; 1.000000;;,
			41; 1.000000; 1.000000; 1.000000; 1.000000;;,
			42; 1.000000; 1.000000; 1.000000; 1.000000;;,
			43; 1.000000; 1.000000; 1.000000; 1.000000;;,
			44; 1.000000; 1.000000; 1.000000; 1.000000;;,
			45; 1.000000; 1.000000; 1.000000; 1.000000;;,
			46; 1.000000; 1.000000; 1.000000; 1.000000;;,
			47; 1.000000; 1.000000; 1.000000; 1.000000;;,
			48; 1.000000; 1.000000; 1.000000; 1.000000;;,
			49; 1.000000; 1.000000; 1.000000; 1.000000;;,
			50; 1.000000; 1.000000; 1.000000; 1.000000;;,
			51; 1.000000; 1.000000; 1.000000; 1.000000;;,
			52; 1.000000; 1.000000; 1.000000; 1.000000;;,
			53; 1.000000; 1.000000; 1.000000; 1.000000;;,
			54; 1.000000; 1.000000; 1.000000; 1.000000;;,
			55; 1.000000; 1.000000; 1.000000; 1.000000;;,
			56; 1.000000; 1.000000; 1.000000; 1.000000;;,
			57; 1.000000; 1.000000; 1.000000; 1.000000;;,
			58; 1.000000; 1.000000; 1.000000; 1.000000;;,
			59; 1.000000; 1.000000; 1.000000; 1.000000;;,
			60; 1.000000; 1.000000; 1.000000; 1.000000;;,
			61; 1.000000; 1.000000; 1.000000; 1.000000;;,
			62; 1.000000; 1.000000; 1.000000; 1.000000;;,
			63; 1.000000; 1.000000; 1.000000; 1.000000;;,
			64; 1.000000; 1.000000; 1.000000; 1.000000;;,
			65; 1.000000; 1.000000; 1.000000; 1.000000;;,
			66; 1.000000; 1.000000; 1.000000; 1.000000;;,
			67; 1.000000; 1.000000; 1.000000; 1.000000;;,
			68; 1.000000; 1.000000; 1.000000; 1.000000;;,
			69; 1.000000; 1.000000; 1.000000; 1.000000;;,
			70; 1.000000; 1.000000; 1.000000; 1.000000;;,
			71; 1.000000; 1.000000; 1.000000; 1.000000;;,
			72; 1.000000; 1.000000; 1.000000; 1.000000;;,
			73; 1.000000; 1.000000; 1.000000; 1.000000;;,
			74; 1.000000; 1.000000; 1.000000; 1.000000;;,
			75; 1.000000; 1.000000; 1.000000; 1.000000;;,
			76; 1.000000; 1.000000; 1.000000; 1.000000;;,
			77; 1.000000; 1.000000; 1.000000; 1.000000;;,
			78; 1.000000; 1.000000; 1.000000; 1.000000;;,
			79; 1.000000; 1.000000; 1.000000; 1.000000;;,
			80; 1.000000; 1.000000; 1.000000; 1.000000;;,
			81; 1.000000; 1.000000; 1.000000; 1.000000;;,
			82; 1.000000; 1.000000; 1.000000; 1.000000;;,
			83; 1.000000; 1.000000; 1.000000; 1.000000;;,
			84; 1.000000; 1.000000; 1.000000; 1.000000;;,
			85; 1.000000; 1.000000; 1.000000; 1.000000;;,
			86; 1.000000; 1.000000; 1.000000; 1.000000;;,
			87; 1.000000; 1.000000; 1.000000; 1.000000;;,
			88; 1.000000; 1.000000; 1.000000; 1.000000;;,
			89; 1.000000; 1.000000; 1.000000; 1.000000;;,
			90; 1.000000; 1.000000; 1.000000; 1.000000;;,
			91; 1.000000; 1.000000; 1.000000; 1.000000;;,
			92; 1.000000; 1.000000; 1.000000; 1.000000;;,
			93; 1.000000; 1.000000; 1.000000; 1.000000;;,
			94; 1.000000; 1.000000; 1.000000; 1.000000;;,
			95; 1.000000; 1.000000; 1.000000; 1.000000;;,
			96; 1.000000; 1.000000; 1.000000; 1.000000;;,
			97; 1.000000; 1.000000; 1.000000; 1.000000;;,
			98; 1.000000; 1.000000; 1.000000; 1.000000;;,
			99; 1.000000; 1.000000; 1.000000; 1.000000;;,
			100; 1.000000; 1.000000; 1.000000; 1.000000;;,
			101; 1.000000; 1.000000; 1.000000; 1.000000;;,
			102; 1.000000; 1.000000; 1.000000; 1.000000;;,
			103; 1.000000; 1.000000; 1.000000; 1.000000;;,
			104; 1.000000; 1.000000; 1.000000; 1.000000;;,
			105; 1.000000; 1.000000; 1.000000; 1.000000;;,
			106; 1.000000; 1.000000; 1.000000; 1.000000;;,
			107; 1.000000; 1.000000; 1.000000; 1.000000;;,
			108; 1.000000; 1.000000; 1.000000; 1.000000;;,
			109; 1.000000; 1.000000; 1.000000; 1.000000;;,
			110; 1.000000; 1.000000; 1.000000; 1.000000;;,
			111; 1.000000; 1.000000; 1.000000; 1.000000;;,
			112; 1.000000; 1.000000; 1.000000; 1.000000;;,
			113; 1.000000; 1.000000; 1.000000; 1.000000;;,
			114; 1.000000; 1.000000; 1.000000; 1.000000;;,
			115; 1.000000; 1.000000; 1.000000; 1.000000;;,
			116; 1.000000; 1.000000; 1.000000; 1.000000;;,
			117; 1.000000; 1.000000; 1.000000; 1.000000;;,
			118; 1.000000; 1.000000; 1.000000; 1.000000;;,
			119; 1.000000; 1.000000; 1.000000; 1.000000;;,
			120; 1.000000; 1.000000; 1.000000; 1.000000;;,
			121; 1.000000; 1.000000; 1.000000; 1.000000;;,
			122; 1.000000; 1.000000; 1.000000; 1.000000;;,
			123; 1.000000; 1.000000; 1.000000; 1.000000;;,
			124; 1.000000; 1.000000; 1.000000; 1.000000;;,
			125; 1.000000; 1.000000; 1.000000; 1.000000;;,
			126; 1.000000; 1.000000; 1.000000; 1.000000;;,
			127; 1.000000; 1.000000; 1.000000; 1.000000;;,
			128; 1.000000; 1.000000; 1.000000; 1.000000;;,
			129; 1.000000; 1.000000; 1.000000; 1.000000;;,
			130; 1.000000; 1.000000; 1.000000; 1.000000;;,
			131; 1.000000; 1.000000; 1.000000; 1.000000;;,
			132; 1.000000; 1.000000; 1.000000; 1.000000;;,
			133; 1.000000; 1.000000; 1.000000; 1.000000;;,
			134; 1.000000; 1.000000; 1.000000; 1.000000;;,
			135; 1.000000; 1.000000; 1.000000; 1.000000;;,
			136; 1.000000; 1.000000; 1.000000; 1.000000;;,
			137; 1.000000; 1.000000; 1.000000; 1.000000;;,
			138; 1.000000; 1.000000; 1.000000; 1.000000;;,
			139; 1.000000; 1.000000; 1.000000; 1.000000;;,
			140; 1.000000; 1.000000; 1.000000; 1.000000;;,
			141; 1.000000; 1.000000; 1.000000; 1.000000;;,
			142; 1.000000; 1.000000; 1.000000; 1.000000;;,
			143; 1.000000; 1.000000; 1.000000; 1.000000;;,
			144; 1.000000; 1.000000; 1.000000; 1.000000;;,
			145; 1.000000; 1.000000; 1.000000; 1.000000;;,
			146; 1.000000; 1.000000; 1.000000; 1.000000;;,
			147; 1.000000; 1.000000; 1.000000; 1.000000;;,
			148; 1.000000; 1.000000; 1.000000; 1.000000;;,
			149; 1.000000; 1.000000; 1.000000; 1.000000;;,
			150; 1.000000; 1.000000; 1.000000; 1.000000;;,
			151; 1.000000; 1.000000; 1.000000; 1.000000;;,
			152; 1.000000; 1.000000; 1.000000; 1.000000;;,
			153; 1.000000; 1.000000; 1.000000; 1.000000;;,
			154; 1.000000; 1.000000; 1.000000; 1.000000;;,
			155; 1.000000; 1.000000; 1.000000; 1.000000;;,
			156; 1.000000; 1.000000; 1.000000; 1.000000;;,
			157; 1.000000; 1.000000; 1.000000; 1.000000;;,
			158; 1.000000; 1.000000; 1.000000; 1.000000;;,
			159; 1.000000; 1.000000; 1.000000; 1.000000;;,
			160; 1.000000; 1.000000; 1.000000; 1.000000;;,
			161; 1.000000; 1.000000; 1.000000; 1.000000;;,
			162; 1.000000; 1.000000; 1.000000; 1.000000;;,
			163; 1.000000; 1.000000; 1.000000; 1.000000;;,
			164; 1.000000; 1.000000; 1.000000; 1.000000;;,
			165; 1.000000; 1.000000; 1.000000; 1.000000;;,
			166; 1.000000; 1.000000; 1.000000; 1.000000;;,
			167; 1.000000; 1.000000; 1.000000; 1.000000;;,
			168; 1.000000; 1.000000; 1.000000; 1.000000;;,
			169; 1.000000; 1.000000; 1.000000; 1.000000;;,
			170; 1.000000; 1.000000; 1.000000; 1.000000;;,
			171; 1.000000; 1.000000; 1.000000; 1.000000;;,
			172; 1.000000; 1.000000; 1.000000; 1.000000;;,
			173; 1.000000; 1.000000; 1.000000; 1.000000;;,
			174; 1.000000; 1.000000; 1.000000; 1.000000;;,
			175; 1.000000; 1.000000; 1.000000; 1.000000;;,
			176; 1.000000; 1.000000; 1.000000; 1.000000;;,
			177; 1.000000; 1.000000; 1.000000; 1.000000;;,
			178; 1.000000; 1.000000; 1.000000; 1.000000;;,
			179; 1.000000; 1.000000; 1.000000; 1.000000;;,
			180; 1.000000; 1.000000; 1.000000; 1.000000;;,
			181; 1.000000; 1.000000; 1.000000; 1.000000;;,
			182; 1.000000; 1.000000; 1.000000; 1.000000;;,
			183; 1.000000; 1.000000; 1.000000; 1.000000;;,
			184; 1.000000; 1.000000; 1.000000; 1.000000;;,
			185; 1.000000; 1.000000; 1.000000; 1.000000;;,
			186; 1.000000; 1.000000; 1.000000; 1.000000;;,
			187; 1.000000; 1.000000; 1.000000; 1.000000;;,
			188; 1.000000; 1.000000; 1.000000; 1.000000;;,
			189; 1.000000; 1.000000; 1.000000; 1.000000;;,
			190; 1.000000; 1.000000; 1.000000; 1.000000;;,
			191; 1.000000; 1.000000; 1.000000; 1.000000;;,
			192; 1.000000; 1.000000; 1.000000; 1.000000;;,
			193; 1.000000; 1.000000; 1.000000; 1.000000;;,
			194; 1.000000; 1.000000; 1.000000; 1.000000;;,
			195; 1.000000; 1.000000; 1.000000; 1.000000;;,
			196; 1.000000; 1.000000; 1.000000; 1.000000;;,
			197; 1.000000; 1.000000; 1.000000; 1.000000;;,
			198; 1.000000; 1.000000; 1.000000; 1.000000;;,
			199; 1.000000; 1.000000; 1.000000; 1.000000;;,
			200; 1.000000; 1.000000; 1.000000; 1.000000;;,
			201; 1.000000; 1.000000; 1.000000; 1.000000;;,
			202; 1.000000; 1.000000; 1.000000; 1.000000;;,
			203; 1.000000; 1.000000; 1.000000; 1.000000;;,
			204; 1.000000; 1.000000; 1.000000; 1.000000;;,
			205; 1.000000; 1.000000; 1.000000; 1.000000;;,
			206; 1.000000; 1.000000; 1.000000; 1.000000;;,
			207; 1.000000; 1.000000; 1.000000; 1.000000;;,
			208; 1.000000; 1.000000; 1.000000; 1.000000;;,
			209; 1.000000; 1.000000; 1.000000; 1.000000;;,
			210; 1.000000; 1.000000; 1.000000; 1.000000;;,
			211; 1.000000; 1.000000; 1.000000; 1.000000;;,
			212; 1.000000; 1.000000; 1.000000; 1.000000;;,
			213; 1.000000; 1.000000; 1.000000; 1.000000;;,
			214; 1.000000; 1.000000; 1.000000; 1.000000;;,
			215; 1.000000; 1.000000; 1.000000; 1.000000;;,
			216; 1.000000; 1.000000; 1.000000; 1.000000;;,
			217; 1.000000; 1.000000; 1.000000; 1.000000;;,
			218; 1.000000; 1.000000; 1.000000; 1.000000;;,
			219; 1.000000; 1.000000; 1.000000; 1.000000;;,
			220; 1.000000; 1.000000; 1.000000; 1.000000;;,
			221; 1.000000; 1.000000; 1.000000; 1.000000;;,
			222; 1.000000; 1.000000; 1.000000; 1.000000;;,
			223; 1.000000; 1.000000; 1.000000; 1.000000;;,
			224; 1.000000; 1.000000; 1.000000; 1.000000;;,
			225; 1.000000; 1.000000; 1.000000; 1.000000;;,
			226; 1.000000; 1.000000; 1.000000; 1.000000;;,
			227; 1.000000; 1.000000; 1.000000; 1.000000;;,
			228; 1.000000; 1.000000; 1.000000; 1.000000;;,
			229; 1.000000; 1.000000; 1.000000; 1.000000;;,
			230; 1.000000; 1.000000; 1.000000; 1.000000;;,
			231; 1.000000; 1.000000; 1.000000; 1.000000;;,
			232; 1.000000; 1.000000; 1.000000; 1.000000;;,
			233; 1.000000; 1.000000; 1.000000; 1.000000;;,
			234; 1.000000; 1.000000; 1.000000; 1.000000;;,
			235; 1.000000; 1.000000; 1.000000; 1.000000;;,
			236; 1.000000; 1.000000; 1.000000; 1.000000;;,
			237; 1.000000; 1.000000; 1.000000; 1.000000;;,
			238; 1.000000; 1.000000; 1.000000; 1.000000;;,
			239; 1.000000; 1.000000; 1.000000; 1.000000;;,
			240; 1.000000; 1.000000; 1.000000; 1.000000;;,
			241; 1.000000; 1.000000; 1.000000; 1.000000;;,
			242; 1.000000; 1.000000; 1.000000; 1.000000;;,
			243; 1.000000; 1.000000; 1.000000; 1.000000;;,
			244; 1.000000; 1.000000; 1.000000; 1.000000;;,
			245; 1.000000; 1.000000; 1.000000; 1.000000;;,
			246; 1.000000; 1.000000; 1.000000; 1.000000;;,
			247; 1.000000; 1.000000; 1.000000; 1.000000;;,
			248; 1.000000; 1.000000; 1.000000; 1.000000;;,
			249; 1.000000; 1.000000; 1.000000; 1.000000;;,
			250; 1.000000; 1.000000; 1.000000; 1.000000;;,
			251; 1.000000; 1.000000; 1.000000; 1.000000;;,
			252; 1.000000; 1.000000; 1.000000; 1.000000;;,
			253; 1.000000; 1.000000; 1.000000; 1.000000;;,
			254; 1.000000; 1.000000; 1.000000; 1.000000;;,
			255; 1.000000; 1.000000; 1.000000; 1.000000;;,
			256; 1.000000; 1.000000; 1.000000; 1.000000;;,
			257; 1.000000; 1.000000; 1.000000; 1.000000;;,
			258; 1.000000; 1.000000; 1.000000; 1.000000;;,
			259; 1.000000; 1.000000; 1.000000; 1.000000;;,
			260; 1.000000; 1.000000; 1.000000; 1.000000;;,
			261; 1.000000; 1.000000; 1.000000; 1.000000;;,
			262; 1.000000; 1.000000; 1.000000; 1.000000;;,
			263; 1.000000; 1.000000; 1.000000; 1.000000;;,
			264; 1.000000; 1.000000; 1.000000; 1.000000;;,
			265; 1.000000; 1.000000; 1.000000; 1.000000;;,
			266; 1.000000; 1.000000; 1.000000; 1.000000;;,
			267; 1.000000; 1.000000; 1.000000; 1.000000;;,
			268; 1.000000; 1.000000; 1.000000; 1.000000;;,
			269; 1.000000; 1.000000; 1.000000; 1.000000;;,
			270; 1.000000; 1.000000; 1.000000; 1.000000;;,
			271; 1.000000; 1.000000; 1.000000; 1.000000;;,
			272; 1.000000; 1.000000; 1.000000; 1.000000;;,
			273; 1.000000; 1.000000; 1.000000; 1.000000;;,
			274; 1.000000; 1.000000; 1.000000; 1.000000;;,
			275; 1.000000; 1.000000; 1.000000; 1.000000;;,
			276; 1.000000; 1.000000; 1.000000; 1.000000;;,
			277; 1.000000; 1.000000; 1.000000; 1.000000;;,
			278; 1.000000; 1.000000; 1.000000; 1.000000;;,
			279; 1.000000; 1.000000; 1.000000; 1.000000;;,
			280; 1.000000; 1.000000; 1.000000; 1.000000;;,
			281; 1.000000; 1.000000; 1.000000; 1.000000;;,
			282; 1.000000; 1.000000; 1.000000; 1.000000;;,
			283; 1.000000; 1.000000; 1.000000; 1.000000;;,
			284; 1.000000; 1.000000; 1.000000; 1.000000;;,
			285; 1.000000; 1.000000; 1.000000; 1.000000;;,
			286; 1.000000; 1.000000; 1.000000; 1.000000;;,
			287; 1.000000; 1.000000; 1.000000; 1.000000;;,
			288; 1.000000; 1.000000; 1.000000; 1.000000;;,
			289; 1.000000; 1.000000; 1.000000; 1.000000;;,
			290; 1.000000; 1.000000; 1.000000; 1.000000;;,
			291; 1.000000; 1.000000; 1.000000; 1.000000;;,
			292; 1.000000; 1.000000; 1.000000; 1.000000;;,
			293; 1.000000; 1.000000; 1.000000; 1.000000;;,
			294; 1.000000; 1.000000; 1.000000; 1.000000;;,
			295; 1.000000; 1.000000; 1.000000; 1.000000;;,
			296; 1.000000; 1.000000; 1.000000; 1.000000;;,
			297; 1.000000; 1.000000; 1.000000; 1.000000;;,
			298; 1.000000; 1.000000; 1.000000; 1.000000;;,
			299; 1.000000; 1.000000; 1.000000; 1.000000;;,
			300; 1.000000; 1.000000; 1.000000; 1.000000;;,
			301; 1.000000; 1.000000; 1.000000; 1.000000;;,
			302; 1.000000; 1.000000; 1.000000; 1.000000;;,
			303; 1.000000; 1.000000; 1.000000; 1.000000;;,
			304; 1.000000; 1.000000; 1.000000; 1.000000;;,
			305; 1.000000; 1.000000; 1.000000; 1.000000;;,
			306; 1.000000; 1.000000; 1.000000; 1.000000;;,
			307; 1.000000; 1.000000; 1.000000; 1.000000;;,
			308; 1.000000; 1.000000; 1.000000; 1.000000;;,
			309; 1.000000; 1.000000; 1.000000; 1.000000;;,
			310; 1.000000; 1.000000; 1.000000; 1.000000;;,
			311; 1.000000; 1.000000; 1.000000; 1.000000;;,
			312; 1.000000; 1.000000; 1.000000; 1.000000;;,
			313; 1.000000; 1.000000; 1.000000; 1.000000;;,
			314; 1.000000; 1.000000; 1.000000; 1.000000;;,
			315; 1.000000; 1.000000; 1.000000; 1.000000;;,
			316; 1.000000; 1.000000; 1.000000; 1.000000;;,
			317; 1.000000; 1.000000; 1.000000; 1.000000;;,
			318; 1.000000; 1.000000; 1.000000; 1.000000;;,
			319; 1.000000; 1.000000; 1.000000; 1.000000;;,
			320; 1.000000; 1.000000; 1.000000; 1.000000;;,
			321; 1.000000; 1.000000; 1.000000; 1.000000;;,
			322; 1.000000; 1.000000; 1.000000; 1.000000;;,
			323; 1.000000; 1.000000; 1.000000; 1.000000;;,
			324; 1.000000; 1.000000; 1.000000; 1.000000;;,
			325; 1.000000; 1.000000; 1.000000; 1.000000;;,
			326; 1.000000; 1.000000; 1.000000; 1.000000;;,
			327; 1.000000; 1.000000; 1.000000; 1.000000;;,
			328; 1.000000; 1.000000; 1.000000; 1.000000;;,
			329; 1.000000; 1.000000; 1.000000; 1.000000;;,
			330; 1.000000; 1.000000; 1.000000; 1.000000;;,
			331; 1.000000; 1.000000; 1.000000; 1.000000;;,
			332; 1.000000; 1.000000; 1.000000; 1.000000;;,
			333; 1.000000; 1.000000; 1.000000; 1.000000;;,
			334; 1.000000; 1.000000; 1.000000; 1.000000;;,
			335; 1.000000; 1.000000; 1.000000; 1.000000;;,
			336; 1.000000; 1.000000; 1.000000; 1.000000;;,
			337; 1.000000; 1.000000; 1.000000; 1.000000;;,
			338; 1.000000; 1.000000; 1.000000; 1.000000;;,
			339; 1.000000; 1.000000; 1.000000; 1.000000;;,
			340; 1.000000; 1.000000; 1.000000; 1.000000;;,
			341; 1.000000; 1.000000; 1.000000; 1.000000;;,
			342; 1.000000; 1.000000; 1.000000; 1.000000;;,
			343; 1.000000; 1.000000; 1.000000; 1.000000;;,
			344; 1.000000; 1.000000; 1.000000; 1.000000;;,
			345; 1.000000; 1.000000; 1.000000; 1.000000;;,
			346; 1.000000; 1.000000; 1.000000; 1.000000;;,
			347; 1.000000; 1.000000; 1.000000; 1.000000;;,
			348; 1.000000; 1.000000; 1.000000; 1.000000;;,
			349; 1.000000; 1.000000; 1.000000; 1.000000;;,
			350; 1.000000; 1.000000; 1.000000; 1.000000;;,
			351; 1.000000; 1.000000; 1.000000; 1.000000;;,
			352; 1.000000; 1.000000; 1.000000; 1.000000;;,
			353; 1.000000; 1.000000; 1.000000; 1.000000;;,
			354; 1.000000; 1.000000; 1.000000; 1.000000;;,
			355; 1.000000; 1.000000; 1.000000; 1.000000;;,
			356; 1.000000; 1.000000; 1.000000; 1.000000;;,
			357; 1.000000; 1.000000; 1.000000; 1.000000;;,
			358; 1.000000; 1.000000; 1.000000; 1.000000;;,
			359; 1.000000; 1.000000; 1.000000; 1.000000;;,
			360; 1.000000; 1.000000; 1.000000; 1.000000;;,
			361; 1.000000; 1.000000; 1.000000; 1.000000;;,
			362; 1.000000; 1.000000; 1.000000; 1.000000;;,
			363; 1.000000; 1.000000; 1.000000; 1.000000;;,
			364; 1.000000; 1.000000; 1.000000; 1.000000;;,
			365; 1.000000; 1.000000; 1.000000; 1.000000;;,
			366; 1.000000; 1.000000; 1.000000; 1.000000;;,
			367; 1.000000; 1.000000; 1.000000; 1.000000;;,
			368; 1.000000; 1.000000; 1.000000; 1.000000;;,
			369; 1.000000; 1.000000; 1.000000; 1.000000;;,
			370; 1.000000; 1.000000; 1.000000; 1.000000;;,
			371; 1.000000; 1.000000; 1.000000; 1.000000;;,
			372; 1.000000; 1.000000; 1.000000; 1.000000;;,
			373; 1.000000; 1.000000; 1.000000; 1.000000;;,
			374; 1.000000; 1.000000; 1.000000; 1.000000;;,
			375; 1.000000; 1.000000; 1.000000; 1.000000;;;
		}
		MeshMaterialList {
			1;
			94;
			0,
			0,
			0,
			0,
			0,
			0,
			0,
			0,
			0,
			0,
			0,
			0,
			0,
			0,
			0,
			0,
			0,
			0,
			0,
			0,
			0,
			0,
			0,
			0,
			0,
			0,
			0,
			0,
			0,
			0,
			0,
			0,
			0,
			0,
			0,
			0,
			0,
			0,
			0,
			0,
			0,
			0,
			0,
			0,
			0,
			0,
			0,
			0,
			0,
			0,
			0,
			0,
			0,
			0,
			0,
			0,
			0,
			0,
			0,
			0,
			0,
			0,
			0,
			0,
			0,
			0,
			0,
			0,
			0,
			0,
			0,
			0,
			0,
			0,
			0,
			0,
			0,
			0,
			0,
			0,
			0,
			0,
			0,
			0,
			0,
			0,
			0,
			0,
			0,
			0,
			0,
			0,
			0,
			0;
			{lambert3}
		}
		VertexDuplicationIndices {
			376;
			96;
			0,
			1,
			2,
			3,
			4,
			5,
			6,
			7,
			8,
			9,
			10,
			11,
			12,
			13,
			1,
			0,
			1,
			13,
			18,
			2,
			12,
			0,
			3,
			23,
			24,
			25,
			4,
			7,
			28,
			29,
			30,
			31,
			32,
			33,
			6,
			5,
			25,
			32,
			5,
			4,
			40,
			41,
			25,
			24,
			31,
			30,
			46,
			47,
			48,
			49,
			33,
			32,
			41,
			48,
			32,
			25,
			56,
			57,
			58,
			59,
			60,
			61,
			62,
			63,
			64,
			65,
			66,
			67,
			57,
			64,
			67,
			58,
			72,
			73,
			57,
			56,
			63,
			62,
			78,
			79,
			80,
			81,
			65,
			64,
			73,
			80,
			64,
			57,
			59,
			58,
			41,
			40,
			47,
			46,
			61,
			60,
			67,
			66,
			49,
			48,
			58,
			67,
			48,
			41,
			23,
			3,
			73,
			72,
			79,
			78,
			9,
			8,
			2,
			18,
			81,
			80,
			3,
			2,
			80,
			73,
			120,
			24,
			7,
			123,
			124,
			40,
			24,
			120,
			128,
			59,
			40,
			124,
			132,
			56,
			59,
			128,
			136,
			72,
			56,
			132,
			140,
			23,
			72,
			136,
			144,
			12,
			23,
			140,
			144,
			149,
			13,
			12,
			18,
			13,
			149,
			155,
			81,
			18,
			155,
			159,
			65,
			81,
			159,
			163,
			66,
			65,
			163,
			167,
			49,
			66,
			167,
			171,
			33,
			49,
			171,
			175,
			6,
			33,
			175,
			179,
			7,
			6,
			179,
			123,
			184,
			120,
			123,
			187,
			188,
			124,
			120,
			184,
			192,
			128,
			124,
			188,
			196,
			132,
			128,
			192,
			200,
			136,
			132,
			196,
			204,
			140,
			136,
			200,
			208,
			144,
			140,
			204,
			208,
			213,
			149,
			144,
			155,
			149,
			213,
			219,
			159,
			155,
			219,
			223,
			163,
			159,
			223,
			227,
			167,
			163,
			227,
			231,
			171,
			167,
			231,
			235,
			175,
			171,
			235,
			239,
			179,
			175,
			239,
			243,
			123,
			179,
			243,
			187,
			31,
			249,
			250,
			28,
			47,
			253,
			249,
			31,
			60,
			257,
			253,
			47,
			63,
			261,
			257,
			60,
			79,
			265,
			261,
			63,
			8,
			269,
			265,
			79,
			11,
			273,
			269,
			8,
			11,
			10,
			278,
			273,
			280,
			278,
			10,
			9,
			284,
			280,
			9,
			78,
			288,
			284,
			78,
			62,
			292,
			288,
			62,
			61,
			296,
			292,
			61,
			46,
			300,
			296,
			46,
			30,
			304,
			300,
			30,
			29,
			250,
			304,
			29,
			28,
			249,
			184,
			187,
			250,
			253,
			188,
			184,
			249,
			257,
			192,
			188,
			253,
			261,
			196,
			192,
			257,
			265,
			200,
			196,
			261,
			269,
			204,
			200,
			265,
			273,
			208,
			204,
			269,
			273,
			278,
			213,
			208,
			219,
			213,
			278,
			280,
			223,
			219,
			280,
			284,
			227,
			223,
			284,
			288,
			231,
			227,
			288,
			292,
			235,
			231,
			292,
			296,
			239,
			235,
			296,
			300,
			243,
			239,
			300,
			304,
			187,
			243,
			304,
			250;
		}
		DeclData {
			2;
			2;0;6;0;,
			2;0;7;0;;
			2256;
			1065290225,
			1035027444,
			988532539,
			3182512736,
			1065281117,
			1023853819,
			1065291978,
			1034864988,
			988188975,
			3182350192,
			1065282870,
			1023854399,
			1065293706,
			1034702516,
			987845389,
			3182187631,
			1065284598,
			1023854967,
			1065291978,
			1034864988,
			988188975,
			3182350192,
			1065282870,
			1023854399,
			1065333435,
			1026622426,
			1018505201,
			3165206429,
			3171600616,
			1065340001,
			1065333633,
			1026627662,
			1018196312,
			3164897661,
			3171593936,
			1065340213,
			1065333823,
			1026632892,
			1017887417,
			3164588887,
			3171587251,
			1065340417,
			1065333633,
			1026627662,
			1018196312,
			3164897661,
			3171593936,
			1065340213,
			3212836743,
			3144754080,
			980768023,
			3144613117,
			1065344002,
			1023863429,
			3212836806,
			3139536080,
			981455882,
			3139392286,
			1065344065,
			1023863117,
			3212836843,
			3131296732,
			981805425,
			3131003484,
			1065344103,
			1023862792,
			3212836806,
			3139536080,
			981455882,
			3139392286,
			1065344065,
			1023863117,
			1065335489,
			1026926567,
			3158674136,
			3160223652,
			1023714838,
			3212826534,
			1065335607,
			1026921928,
			3158101665,
			3159651436,
			1023721190,
			3212826641,
			1065335721,
			1026917285,
			3157529191,
			3159079212,
			1023727536,
			3212826740,
			1065335607,
			1026921928,
			3158101665,
			3159651436,
			1023721190,
			3212826641,
			974453041,
			3165835974,
			1065349217,
			3174301322,
			1065333006,
			1018354410,
			974180650,
			3165642501,
			1065349347,
			3174301377,
			1065333138,
			1018160751,
			973908259,
			3165449027,
			1065349477,
			3174301429,
			1065333266,
			1017967089,
			974180650,
			3165642501,
			1065349347,
			3174301377,
			1065333138,
			1018160751,
			3133481958,
			1026600710,
			3212821229,
			3174294490,
			1065321380,
			1026607266,
			3133606788,
			1026689363,
			3212820990,
			3174294356,
			1065321139,
			1026696004,
			3133731617,
			1026778016,
			3212820748,
			3174294221,
			1065320898,
			1026784742,
			3133606788,
			1026689363,
			3212820990,
			3174294356,
			1065321139,
			1026696004,
			3129153546,
			1023521538,
			3212828443,
			3174298892,
			1065328588,
			1023525124,
			3129635648,
			1023863941,
			3212827750,
			3174298540,
			1065327896,
			1023867859,
			3130117733,
			1024206331,
			3212827030,
			3174298168,
			1065327177,
			1024210580,
			3129635648,
			1023863941,
			3212827750,
			3174298540,
			1065327896,
			1023867859,
			3212834540,
			3163048988,
			973428753,
			3163035144,
			1065341792,
			1023865988,
			3212835008,
			3161694665,
			974430024,
			3161665944,
			1065342259,
			1023865732,
			3212835421,
			3159796515,
			975431264,
			3159766766,
			1065342675,
			1023865450,
			3212835008,
			3161694665,
			974430024,
			3161665944,
			1065342259,
			1023865732,
			982685774,
			3171712826,
			1065343334,
			3174297719,
			1065327129,
			1024233476,
			982166998,
			3171344365,
			1065344110,
			3174298121,
			1065327904,
			1023864658,
			981648204,
			3170975889,
			1065344854,
			3174298500,
			1065328647,
			1023495826,
			982166998,
			3171344365,
			1065344110,
			3174298121,
			1065327904,
			1023864658,
			1065306274,
			1033441757,
			985180417,
			3180926185,
			1065297162,
			1023859306,
			1065308466,
			1033205166,
			984680245,
			3180689465,
			1065299354,
			1023859962,
			1065310605,
			1032968545,
			984180037,
			3180452715,
			1065301493,
			1023860589,
			1065308466,
			1033205166,
			984680245,
			3180689465,
			1065299354,
			1023859962,
			939740013,
			1023748106,
			3212827997,
			3211684779,
			1052400668,
			1010925031,
			934716567,
			1023749106,
			3212827996,
			3211684780,
			1052400657,
			1010936014,
			927818916,
			1023750105,
			3212827994,
			3211684778,
			1052400645,
			1010946992,
			934716567,
			1023749106,
			3212827996,
			3211684780,
			1052400657,
			1010936014,
			3212820496,
			3170824737,
			1023432248,
			1015960560,
			1052780337,
			1064124134,
			3212819864,
			3170411389,
			1023942537,
			1017060757,
			1052782451,
			1064123022,
			3212819161,
			3169997973,
			1024452789,
			1018160913,
			1052784514,
			1064121846,
			3212819864,
			3170411389,
			1023942537,
			1017060757,
			1052782451,
			1064123022,
			3097371150,
			3171496747,
			1065343802,
			1063604521,
			1055094513,
			1014304445,
			3099057164,
			3171498380,
			1065343798,
			1063604522,
			1055094499,
			1014319142,
			3097371150,
			3171496747,
			1065343802,
			1063604521,
			1055094513,
			1014304445,
			3095685135,
			3171495114,
			1065343805,
			1063604521,
			1055094528,
			1014289748,
			1065312654,
			1031274596,
			3171662350,
			3177808370,
			1054690791,
			3211158424,
			1065314582,
			1031036404,
			3171166463,
			3177258680,
			1054694931,
			3211159567,
			1065316439,
			1030798146,
			3170447254,
			3176708928,
			1054699011,
			3211160648,
			1065314582,
			1031036404,
			3171166463,
			3177258680,
			1054694931,
			3211159567,
			1033147354,
			1026550053,
			3212777136,
			1065152596,
			1040736904,
			1033835764,
			1032877087,
			1026477169,
			3212779757,
			1065155042,
			1040742758,
			1033563198,
			1033147354,
			1026550053,
			3212777136,
			1065152596,
			1040736904,
			1033835764,
			1033417580,
			1026622887,
			3212774446,
			1065150082,
			1040731012,
			1034108286,
			3212807927,
			3171886840,
			3175167949,
			1025683454,
			1044526146,
			3212518897,
			3212810190,
			3172067778,
			3174231589,
			1024730664,
			1044517724,
			3212521605,
			3212812241,
			3172248595,
			3173295081,
			1023777755,
			1044509146,
			3212524107,
			3212810190,
			3172067778,
			3174231589,
			1024730664,
			1044517724,
			3212521605,
			3178440431,
			3170191435,
			1065316093,
			3212787455,
			1028549861,
			3178022778,
			3179326037,
			3170097395,
			1065312626,
			3212783896,
			1028577687,
			3178952673,
			3179790542,
			3170003163,
			1065308956,
			3212780135,
			1028605350,
			3179582402,
			3179326037,
			3170097395,
			1065312626,
			3212783896,
			1028577687,
			3178952673,
			1065319306,
			1028142515,
			1025923107,
			3174925477,
			1039625975,
			1065212220,
			1065316438,
			1028257784,
			1026869797,
			3175878252,
			1039602537,
			1065209691,
			1065313360,
			1028372888,
			1027816339,
			3176830858,
			1039578893,
			1065206951,
			1065316438,
			1028257784,
			1026869797,
			3175878252,
			1039602537,
			1065209691,
			3136951651,
			1029059797,
			3212813876,
			3174290111,
			1065314031,
			1029068743,
			3139308657,
			1031965357,
			3212802700,
			3174283457,
			1065302861,
			1031971315,
			3141470426,
			1033500296,
			3212789317,
			3174275254,
			1065289490,
			1033507741,
			3139308657,
			1031965357,
			3212802700,
			3174283457,
			1065302861,
			1031971315,
			3212836855,
			3112423658,
			982087838,
			3110290587,
			1065344114,
			1023862572,
			3212836842,
			983899923,
			982515595,
			984204856,
			1065344101,
			1023862137,
			3212836790,
			993368356,
			982943332,
			993524341,
			1065344050,
			1023861681,
			3212836842,
			983899923,
			982515595,
			984204856,
			1065344101,
			1023862137,
			965516651,
			3161861115,
			1065351322,
			3174301156,
			1065335115,
			1014374536,
			3108908420,
			3146913178,
			1065353050,
			3174301259,
			1065336844,
			999401726,
			3123536894,
			1002975476,
			1065352900,
			3174300041,
			1065336697,
			3150508867,
			3108908420,
			3146913178,
			1065353050,
			3174301259,
			1065336844,
			999401726,
			1065284247,
			1035564952,
			989670032,
			3183050538,
			1065275140,
			1023851830,
			1065286526,
			1035362950,
			989242779,
			3182848424,
			1065277417,
			1023852603,
			1065288767,
			1035160921,
			988815490,
			3182646285,
			1065279658,
			1023853357,
			1065286526,
			1035362950,
			989242779,
			3182848424,
			1065277417,
			1023852603,
			3141305504,
			1033379863,
			3212790446,
			3174276127,
			1065290618,
			1033387199,
			3137297349,
			1029298703,
			3212813086,
			3174289829,
			1065313242,
			1029307893,
			3129315590,
			1023630072,
			3212828226,
			3174298256,
			1065328373,
			1023633777,
			3137297349,
			1029298703,
			3212813086,
			3174289829,
			1065313242,
			1029307893,
			3212834388,
			3163337856,
			973126099,
			3163324166,
			1065341640,
			1023865905,
			3212835814,
			3157717406,
			976529951,
			3157686523,
			1065343069,
			1023864952,
			3212836635,
			3148411159,
			979933378,
			3148342393,
			1065343893,
			1023863679,
			3212835814,
			3157717406,
			976529951,
			3157686523,
			1065343069,
			1023864952,
			3129876876,
			1015072878,
			1065351133,
			3174297797,
			1065334936,
			3162573955,
			923202733,
			3155516621,
			1065352518,
			3174301389,
			1065336313,
			1008023897,
			982531380,
			3171617973,
			1065343536,
			3174297690,
			1065327332,
			1024138503,
			923202733,
			3155516621,
			1065352518,
			3174301389,
			1065336313,
			1008023897,
			1065295773,
			1034505129,
			987426004,
			3181990134,
			1065286663,
			1023855467,
			1065303813,
			1033700958,
			985725708,
			3181185525,
			1065294703,
			1023858003,
			1065311246,
			1032896416,
			984024954,
			3180380545,
			1065302135,
			1023860220,
			1065303813,
			1033700958,
			985725708,
			3181185525,
			1065294703,
			1023858003,
			3169539695,
			1024244928,
			3212820030,
			3212807282,
			1028698036,
			1022985098,
			3170610529,
			1024272237,
			3212818976,
			3212806284,
			1028679577,
			1023733460,
			3171287560,
			1024299509,
			3212817853,
			3212805221,
			1028661067,
			1024269249,
			3170610529,
			1024272237,
			3212818976,
			3212806284,
			1028679577,
			1023733460,
			3212810525,
			3172867610,
			1025916139,
			1024484244,
			1040524981,
			1065200261,
			3212807298,
			3172689772,
			1027270176,
			1025848614,
			1040538057,
			1065196580,
			3212803635,
			3172511669,
			1028623895,
			1027212702,
			1040550907,
			1065192467,
			3212807298,
			3172689772,
			1027270176,
			1025848614,
			1040538057,
			1065196580,
			1022227011,
			3169675265,
			1065339088,
			1065182249,
			1041210008,
			3167381001,
			1021454193,
			3169784740,
			1065339673,
			1065182940,
			1041207170,
			3166600886,
			1022227011,
			3169675265,
			1065339088,
			1065182249,
			1041210008,
			3167381001,
			1022999794,
			3169565757,
			1065338467,
			1065181522,
			1041212827,
			3168161086,
			1065307763,
			1029473687,
			3175960754,
			3178490023,
			1044603237,
			3212498316,
			1065312632,
			1029212762,
			3174621617,
			3177126979,
			1044621465,
			3212502384,
			1065317067,
			1028951470,
			3173282165,
			3175763557,
			1044639359,
			3212506026,
			1065312632,
			1029212762,
			3174621617,
			3177126979,
			1044621465,
			3212502384,
			3129219843,
			1023566625,
			3212828353,
			3174298799,
			1065328498,
			1023570259,
			3166736093,
			1057667171,
			3210154686,
			3172472611,
			1062657266,
			1057675718,
			3173049267,
			1063623775,
			3202450101,
			3164696739,
			1054951659,
			1063638197,
			3166736093,
			1057667171,
			3210154686,
			3172472611,
			1062657266,
			1057675718,
			934305179,
			1023748718,
			3212827995,
			3211684754,
			1052400788,
			1010936335,
			924409274,
			1023749965,
			3212827994,
			3211684753,
			1052400774,
			1010950026,
			3057123085,
			1023751211,
			3212827990,
			3211684754,
			1052400761,
			1010963720,
			924409274,
			1023749965,
			3212827994,
			3211684753,
			1052400774,
			1010950026,
			3141301769,
			1033387356,
			3212790377,
			3174276130,
			1065290547,
			1033394677,
			3137279694,
			1029306476,
			3212813060,
			3174289841,
			1065313216,
			1029315635,
			3129287741,
			1023630615,
			3212828226,
			3174298264,
			1065328373,
			1023634281,
			3137279694,
			1029306476,
			3212813060,
			3174289841,
			1065313216,
			1029315635,
			1032970546,
			1026504401,
			3212778852,
			1065154213,
			1040740431,
			1033657570,
			1032576898,
			1026398202,
			3212782580,
			1065157688,
			1040748911,
			1033260573,
			1032970546,
			1026504401,
			3212778852,
			1065154213,
			1040740431,
			1033657570,
			1033364111,
			1026610499,
			3212774977,
			1065150595,
			1040731873,
			1034054481,
			3136941903,
			1029040982,
			3212813938,
			3174290462,
			1065314092,
			1029049932,
			3139222485,
			1031898184,
			3212803234,
			3174284092,
			1065303396,
			1031904090,
			3141303069,
			1033375449,
			3212790487,
			3174276284,
			1065290659,
			1033382785,
			3139222485,
			1031898184,
			3212803234,
			3174284092,
			1065303396,
			1031904090,
			3169508611,
			1024243774,
			3212820061,
			3212807314,
			1028697227,
			1022953864,
			3170447985,
			1024267730,
			3212819140,
			3212806445,
			1028681042,
			1023652065,
			3171140568,
			1024291660,
			3212818170,
			3212805525,
			1028664814,
			1024122083,
			3170447985,
			1024267730,
			3212819140,
			3212806445,
			1028681042,
			1023652065,
			3133573682,
			1026601598,
			3212821228,
			3174294481,
			1065321377,
			1026608279,
			3133698244,
			1026690061,
			3212820988,
			3174294346,
			1065321137,
			1026696827,
			3133822804,
			1026778523,
			3212820745,
			3174294209,
			1065320895,
			1026785375,
			3133698244,
			1026690061,
			3212820988,
			3174294346,
			1065321137,
			1026696827,
			1065334788,
			1026950876,
			3161680730,
			3162867063,
			1023681424,
			3212825902,
			1065334828,
			1026949611,
			3161524022,
			3162788744,
			1023683166,
			3212825938,
			1065334867,
			1026948346,
			3161367313,
			3162710424,
			1023684908,
			3212825974,
			1065334828,
			1026949611,
			3161524022,
			3162788744,
			1023683166,
			3212825938,
			975456863,
			3166568829,
			1065348701,
			3174300123,
			1065332493,
			1019087936,
			975673826,
			3166722944,
			1065348588,
			3174300073,
			1065332380,
			1019242200,
			975890788,
			3166877057,
			1065348474,
			3174300024,
			1065332267,
			1019396462,
			975673826,
			3166722944,
			1065348588,
			3174300073,
			1065332380,
			1019242200,
			1020428191,
			3169934240,
			1065340391,
			1065183815,
			1041203026,
			3165564708,
			1019693706,
			3170038199,
			1065340870,
			1065184396,
			1041200285,
			3164823301,
			1018959197,
			3170142128,
			1065341316,
			1065184944,
			1041197525,
			3164081875,
			1019693706,
			3170038199,
			1065340870,
			1065184396,
			1041200285,
			3164823301,
			3116034035,
			3125139375,
			1065353210,
			3174300566,
			1065337007,
			977374087,
			933141531,
			3155702470,
			1065352492,
			3174300953,
			1065336288,
			1008210080,
			969849671,
			3163685533,
			1065350550,
			3174300480,
			1065334345,
			1016201944,
			933141531,
			3155702470,
			1065352492,
			3174300953,
			1065336288,
			1008210080,
			3176655167,
			3170373121,
			1065322187,
			3212793725,
			1028495536,
			3176236186,
			3176037787,
			3170435213,
			1065324122,
			3212795721,
			1028476760,
			3175618361,
			3176655167,
			3170373121,
			1065322187,
			3212793725,
			1028495536,
			3176236186,
			3177272474,
			3170310944,
			1065320164,
			3212791641,
			1028514240,
			3176853940,
			982560505,
			3171568843,
			1065343641,
			3174297854,
			1065327435,
			1024089460,
			962495978,
			3160221185,
			1065351686,
			3174301438,
			1065335480,
			1012733550,
			3123847384,
			1004403943,
			1065352827,
			3174300166,
			1065336625,
			3151937661,
			962495978,
			3160221185,
			1065351686,
			3174301438,
			1065335480,
			1012733550,
			956701197,
			3171467681,
			1065343862,
			1063604565,
			1055094601,
			1014057157,
			955851698,
			3171468892,
			1065343860,
			1063604565,
			1055094589,
			1014068050,
			954602314,
			3171470102,
			1065343857,
			1063604564,
			1055094578,
			1014078939,
			955851698,
			3171468892,
			1065343860,
			1063604565,
			1055094589,
			1014068050,
			1025559917,
			3211100254,
			1054995683,
			3164717084,
			1054980859,
			1063631018,
			1019262719,
			3205158717,
			1062665932,
			3172468730,
			1062652165,
			1057683622,
			982518993,
			3171611124,
			1065343551,
			3174297684,
			1065327347,
			1024131644,
			1019262719,
			3205158717,
			1062665932,
			3172468730,
			1062652165,
			1057683622,
			1065348085,
			1018490955,
			1010197125,
			1014265905,
			3211117158,
			1054977081,
			1065348034,
			1018587461,
			1010102335,
			1014480895,
			3211117083,
			1054977155,
			1065347982,
			1018683966,
			1010007544,
			1014695887,
			3211117009,
			1054977230,
			1065348034,
			1018587461,
			1010102335,
			1014480895,
			3211117083,
			1054977155,
			3129221865,
			1023567361,
			3212828351,
			3174298631,
			1065328497,
			1023570998,
			3129637560,
			1023862606,
			3212827754,
			3174298326,
			1065327899,
			1023866527,
			3130053244,
			1024157840,
			3212827134,
			3174298007,
			1065327281,
			1024162048,
			3129637560,
			1023862606,
			3212827754,
			3174298326,
			1065327899,
			1023866527,
			938571286,
			1023748494,
			3212827996,
			3211684788,
			1052400614,
			1010928062,
			933072844,
			1023749544,
			3212827994,
			3211684788,
			1052400603,
			1010939588,
			924013317,
			1023750593,
			3212827992,
			3211684789,
			1052400591,
			1010951112,
			933072844,
			1023749544,
			3212827994,
			3211684788,
			1052400603,
			1010939588,
			3141779968,
			1033717957,
			3212787239,
			3174274109,
			1065287413,
			1033725617,
			3137554380,
			1029636341,
			3212811947,
			3174289129,
			1065312104,
			1029645853,
			3129309539,
			1023628204,
			3212828231,
			3174298225,
			1065328378,
			1023631902,
			3137554380,
			1029636341,
			3212811947,
			3174289129,
			1065312104,
			1029645853,
			1029929195,
			1025933371,
			3212797084,
			1065171100,
			1040784764,
			1031267000,
			1032115476,
			1026271806,
			3212786766,
			1065161577,
			1040758642,
			1032795085,
			1033366188,
			1026609240,
			3212774961,
			1065150580,
			1040731724,
			1034056444,
			1032115476,
			1026271806,
			3212786766,
			1065161577,
			1040758642,
			1032795085,
			3135954156,
			1028347973,
			3212816151,
			3174291664,
			1065316303,
			1028356235,
			3138959984,
			1031633245,
			3212804663,
			3174284876,
			1065304825,
			1031644688,
			3141271687,
			1033357401,
			3212790656,
			3174276313,
			1065290826,
			1033364710,
			3138959984,
			1031633245,
			3212804663,
			3174284876,
			1065304825,
			1031644688,
			3167811588,
			1024200761,
			3212821590,
			3212808744,
			1028729154,
			1021255764,
			3169572124,
			1024245741,
			3212820000,
			3212807247,
			1028698927,
			1023017644,
			3171113157,
			1024290619,
			3212818227,
			3212805571,
			1028668554,
			1024094762,
			3169572124,
			1024245741,
			3212820000,
			3212807247,
			1028698927,
			1023017644,
			3133470001,
			1026583708,
			3212821275,
			3174295029,
			1065321424,
			1026590264,
			3133604850,
			1026679473,
			3212821016,
			3174294884,
			1065321165,
			1026686121,
			3133739695,
			1026775235,
			3212820754,
			3174294738,
			1065320904,
			1026781976,
			3133604850,
			1026679473,
			3212821016,
			3174294884,
			1065321165,
			1026686121,
			1065333082,
			1026997135,
			3164968462,
			3165741255,
			1023617302,
			3212824325,
			1065334242,
			1026967194,
			3163104313,
			3163877946,
			1023658861,
			3212825402,
			1065335201,
			1026937111,
			3159974897,
			3161523828,
			1023700318,
			3212826278,
			1065334242,
			1026967194,
			3163104313,
			3163877946,
			1023658861,
			3212825402,
			974687134,
			3166006325,
			1065349100,
			3174300047,
			1065332893,
			1018524919,
			974908009,
			3166163223,
			1065348990,
			3174300000,
			1065332783,
			1018681969,
			975128884,
			3166320121,
			1065348879,
			3174299953,
			1065332672,
			1018839018,
			974908009,
			3166163223,
			1065348990,
			3174300000,
			1065332783,
			1018681969,
			1021877840,
			3169725714,
			1065339356,
			1065182556,
			1041208985,
			3167028327,
			1021884760,
			3169724734,
			1065339351,
			1065182550,
			1041209011,
			3167035312,
			1021891679,
			3169723755,
			1065339346,
			1065182544,
			1041209037,
			3167042296,
			1021884760,
			3169724734,
			1065339351,
			1065182550,
			1041209011,
			3167035312,
			3121016928,
			993428535,
			1065353150,
			3174300842,
			1065336946,
			3140997780,
			3105958905,
			3148985510,
			1065352970,
			3174301578,
			1065336764,
			1001476106,
			962161750,
			3160364073,
			1065351657,
			3174301519,
			1065335451,
			1012876071,
			3105958905,
			3148985510,
			1065352970,
			3174301578,
			1065336764,
			1001476106,
			3178828136,
			3170151913,
			1065314672,
			3212785997,
			1028560575,
			3178410804,
			3179570267,
			3170047570,
			1065310722,
			3212781945,
			1028591334,
			3179361982,
			3180085121,
			3169942988,
			1065306522,
			3212777647,
			1028621893,
			3179877220,
			3179570267,
			3170047570,
			1065310722,
			3212781945,
			1028591334,
			3179361982,
			982503648,
			3171594222,
			1065343587,
			3174297910,
			1065327381,
			1024114736,
			959256857,
			3159333889,
			1065351869,
			3174301506,
			1065335663,
			1011844887,
			3125353008,
			1007394722,
			1065352602,
			3174299789,
			1065336400,
			3154905727,
			959256857,
			3159333889,
			1065351869,
			3174301506,
			1065335663,
			1011844887,
			940381389,
			3171482171,
			1065343833,
			1063604591,
			1055094374,
			1014173413,
			934939661,
			3171483697,
			1065343830,
			1063604590,
			1055094360,
			1014187140,
			926145792,
			3171485221,
			1065343826,
			1063604591,
			1055094347,
			1014200866,
			934939661,
			3171483697,
			1065343830,
			1063604590,
			1055094360,
			1014187140,
			981741939,
			3171054471,
			1065344697,
			3174298555,
			1065328491,
			1023574461,
			982157561,
			3171349667,
			1065344098,
			3174298249,
			1065327893,
			1023869943,
			982573173,
			3171644852,
			1065343479,
			3174297930,
			1065327274,
			1024165413,
			982157561,
			3171349667,
			1065344098,
			3174298249,
			1065327893,
			1023869943,
			1065333675,
			1026628810,
			1018129781,
			3164831179,
			3171592217,
			1065340258,
			1065334756,
			1026660954,
			1016227757,
			3162929907,
			3171551008,
			1065341427,
			1065335628,
			1026692952,
			1013629658,
			3159551832,
			3171509684,
			1065342384,
			1065334756,
			1026660954,
			1016227757,
			3162929907,
			3171551008,
			1065341427,
			3129160497,
			1023527554,
			3212828432,
			3174298673,
			1065328576,
			1023531144,
			3129634346,
			1023864102,
			3212827750,
			3174298327,
			1065327897,
			1023868018,
			3130108181,
			1024200637,
			3212827042,
			3174297961,
			1065327189,
			1024204879,
			3129634346,
			1023864102,
			3212827750,
			3174298327,
			1065327897,
			1023868018,
			933197221,
			1023749736,
			3212827994,
			3211684822,
			1052400434,
			1010939465,
			938841206,
			1023748659,
			3212827995,
			3211684821,
			1052400445,
			1010927635,
			933197221,
			1023749736,
			3212827994,
			3211684822,
			1052400434,
			1010939465,
			923970979,
			1023750812,
			3212827992,
			3211684821,
			1052400421,
			1010951291,
			3141865566,
			1033780411,
			3212786635,
			3174273788,
			1065286810,
			1033788129,
			3137591207,
			1029692035,
			3212811756,
			3174289068,
			1065311913,
			1029701594,
			3129285412,
			1023614483,
			3212828257,
			3174298286,
			1065328404,
			1023618162,
			3137591207,
			1029692035,
			3212811756,
			3174289068,
			1065311913,
			1029701594,
			1029464048,
			1025870327,
			3212798837,
			1065172701,
			1040789715,
			1030797878,
			1030311446,
			1025985046,
			3212795605,
			1065169736,
			1040781013,
			1031652545,
			1031158691,
			1026099655,
			3212792203,
			1065166600,
			1040772220,
			1032152913,
			1030311446,
			1025985046,
			3212795605,
			1065169736,
			1040781013,
			1031652545,
			3135808972,
			1028245948,
			3212816466,
			3174292106,
			1065316619,
			1028254112,
			3138393806,
			1030830202,
			3212807706,
			3174286960,
			1065307863,
			1030840864,
			3140212550,
			1032605883,
			3212797384,
			3174280715,
			1065297548,
			1032612464,
			3138393806,
			1030830202,
			3212807706,
			3174286960,
			1065307863,
			1030840864,
			3168490488,
			1024218307,
			3212820998,
			3212808179,
			1028720544,
			1021935404,
			3167780640,
			1024200156,
			3212821617,
			3212808758,
			1028732712,
			1021225010,
			3168490488,
			1024218307,
			3212820998,
			3212808179,
			1028720544,
			1021935404,
			3169200310,
			1024236442,
			3212820349,
			3212807568,
			1028708352,
			1022645768,
			3133469816,
			1026581078,
			3212821283,
			3174294944,
			1065321431,
			1026587635,
			3133593666,
			1026669032,
			3212821045,
			3174294811,
			1065321193,
			1026675675,
			3133717515,
			1026756985,
			3212820805,
			3174294677,
			1065320954,
			1026763713,
			3133593666,
			1026669032,
			3212821045,
			3174294811,
			1065321193,
			1026675675,
			1065331830,
			1027024616,
			3166688528,
			3167460567,
			1023579181,
			3212823151,
			1065332090,
			1027019215,
			3166350097,
			3167122290,
			1023586752,
			3212823396,
			1065332343,
			1027013809,
			3166011661,
			3166784009,
			1023594320,
			3212823634,
			1065332090,
			1027019215,
			3166350097,
			3167122290,
			1023586752,
			3212823396,
			975347555,
			3166480351,
			1065348765,
			3174298578,
			1065332561,
			1018999395,
			975570341,
			3166638623,
			1065348650,
			3174298529,
			1065332448,
			1019157821,
			975793127,
			3166796895,
			1065348532,
			3174298477,
			1065332331,
			1019316247,
			975570341,
			3166638623,
			1065348650,
			3174298529,
			1065332448,
			1019157821,
			1021631385,
			3169760190,
			1065339541,
			1065182766,
			1041208357,
			3166779534,
			1020659621,
			3169897815,
			1065340237,
			1065183594,
			1041204764,
			3165798598,
			1021631385,
			3169760190,
			1065339541,
			1065182766,
			1041208357,
			3166779534,
			1022603102,
			3169622515,
			1065338791,
			1065181881,
			1041211917,
			3167760427,
			3122588447,
			1000200870,
			1065353019,
			3174300669,
			1065336816,
			3147731733,
			3107309704,
			3148127321,
			1065353004,
			3174301699,
			1065336798,
			1000616891,
			965218296,
			3161687969,
			1065351362,
			3174301585,
			1065335155,
			1014201149,
			3107309704,
			3148127321,
			1065353004,
			3174301699,
			1065336798,
			1000616891,
			3180055638,
			3169949158,
			1065306769,
			3212777893,
			1028622816,
			3179847670,
			3179808654,
			3169999362,
			1065308808,
			3212779979,
			1028608175,
			3179600501,
			3179561638,
			3170049513,
			1065310790,
			3212782008,
			1028593486,
			3179353300,
			3179808654,
			3169999362,
			1065308808,
			3212779979,
			1028608175,
			3179600501,
			982441994,
			3171559552,
			1065343661,
			3174297945,
			1065327454,
			1024080014,
			964831181,
			3161400457,
			1065351428,
			3174301386,
			1065335221,
			1013913382,
			3122372196,
			999612104,
			1065353041,
			3174300499,
			1065336838,
			3147142347,
			964831181,
			3161400457,
			1065351428,
			3174301386,
			1065335221,
			1013913382,
			955003620,
			3171471770,
			1065343854,
			1063604618,
			1055094360,
			1014078865,
			953599305,
			3171473130,
			1065343851,
			1063604619,
			1055094347,
			1014091105,
			955003620,
			3171471770,
			1065343854,
			1063604618,
			1055094360,
			1014078865,
			956354624,
			3171470410,
			1065343858,
			1063604618,
			1055094373,
			1014066623,
			981716727,
			3171032887,
			1065344741,
			3174298413,
			1065328534,
			1023552863,
			982155568,
			3171344578,
			1065344108,
			3174298091,
			1065327904,
			1023864857,
			982594397,
			3171656257,
			1065343454,
			3174297753,
			1065327250,
			1024176836,
			982155568,
			3171344578,
			1065344108,
			3174298091,
			1065327904,
			1023864857,
			1065335690,
			1026695565,
			1013316293,
			3159238581,
			3171506363,
			1065342453,
			1065335810,
			1026700827,
			1012688755,
			3158611296,
			3171499535,
			1065342587,
			1065335924,
			1026706084,
			1012061213,
			3157984009,
			3171492704,
			1065342718,
			1065335810,
			1026700827,
			1012688755,
			3158611296,
			3171499535,
			1065342587,
			1019049770,
			3204755752,
			3210401969,
			3172536122,
			1062904614,
			3204764403,
			3129300419,
			1023572166,
			3212828342,
			3174298808,
			1065328487,
			1023575906,
			1019049770,
			3204755752,
			3210401969,
			3172536122,
			1062904614,
			3204764403,
			1025698691,
			3211167003,
			3202203418,
			3164149038,
			1054706243,
			3211181733,
			927626972,
			1023749362,
			3212827994,
			3211684868,
			1052400191,
			1010945612,
			941777508,
			1023746567,
			3212828001,
			3211684868,
			1052400222,
			1010914905,
			927626972,
			1023749362,
			3212827994,
			3211684868,
			1052400191,
			1010945612,
			3077872597,
			1023752158,
			3212827988,
			3211684869,
			1052400159,
			1010976319,
			3141782339,
			1033726001,
			3212787162,
			3174274070,
			1065287336,
			1033733656,
			3137544443,
			1029634953,
			3212811953,
			3174289129,
			1065312108,
			1029644437,
			3129265006,
			1023609296,
			3212828269,
			3174298228,
			1065328416,
			1023612952,
			3137544443,
			1029634953,
			3212811953,
			3174289129,
			1065312108,
			1029644437,
			1029880041,
			1025926768,
			3212797272,
			1065171269,
			1040785382,
			1031217446,
			1030551004,
			1026017573,
			3212794660,
			1065168868,
			1040778463,
			1031846472,
			1031221871,
			1026108310,
			3212791943,
			1065166362,
			1040771487,
			1032184776,
			1030551004,
			1026017573,
			3212794660,
			1065168868,
			1040778463,
			1031846472,
			3135923900,
			1028335500,
			3212816190,
			3174291745,
			1065316342,
			1028343733,
			3138430148,
			1030889793,
			3212807485,
			3174286631,
			1065307644,
			1030900499,
			3140227788,
			1032620713,
			3212797256,
			3174280442,
			1065297421,
			1032627301,
			3138430148,
			1030889793,
			3212807485,
			3174286631,
			1065307644,
			1030900499,
			3168629670,
			1024221249,
			3212820874,
			3212808062,
			1028717869,
			1022074609,
			3167807636,
			1024200232,
			3212821594,
			3212808739,
			1028731963,
			1021251946,
			3168629670,
			1024221249,
			3212820874,
			3212808062,
			1028717869,
			1022074609,
			3169451670,
			1024242245,
			3212820114,
			3212807347,
			1028703742,
			1022897237,
			3133451232,
			1026582694,
			3212821279,
			3174295076,
			1065321428,
			1026589225,
			3133574408,
			1026670169,
			3212821042,
			3174294943,
			1065321191,
			1026676784,
			3133697581,
			1026757641,
			3212820802,
			3174294810,
			1065320952,
			1026764341,
			3133574408,
			1026670169,
			3212821042,
			3174294943,
			1065321191,
			1026676784,
			1065333721,
			1026981322,
			3163981900,
			3164755173,
			1023639663,
			3212824921,
			1065333772,
			1026979989,
			3163898932,
			3164672241,
			1023641511,
			3212824967,
			1065333823,
			1026978656,
			3163815964,
			3164589311,
			1023643360,
			3212825014,
			1065333772,
			1026979989,
			3163898932,
			3164672241,
			1023641511,
			3212824967,
			973870575,
			3165348287,
			1065349543,
			3174299995,
			1065333338,
			1017866395,
			974142623,
			3165541541,
			1065349414,
			3174299943,
			1065333210,
			1018059839,
			974414671,
			3165734796,
			1065349286,
			3174299888,
			1065333080,
			1018253278,
			974142623,
			3165541541,
			1065349414,
			3174299943,
			1065333210,
			1018059839,
			1023942055,
			3169360947,
			1065337182,
			1065180018,
			1041218788,
			3169648414,
			1023429998,
			3169506166,
			1065338086,
			1065181062,
			1041215097,
			3168614611,
			1023942055,
			3169360947,
			1065337182,
			1065180018,
			1041218788,
			3169648414,
			1024454079,
			3169215669,
			1065336215,
			1065178911,
			1041222441,
			3170682158,
			3128262315,
			1011838773,
			1065351865,
			3174299081,
			1065335663,
			3159353475,
			3117697808,
			974571827,
			1065353212,
			3174301259,
			1065337008,
			3122351621,
			956620373,
			3158087274,
			1065352106,
			3174301712,
			1065335897,
			1010597664,
			3117697808,
			974571827,
			1065353212,
			3174301259,
			1065337008,
			3122351621,
			3182033018,
			3169542465,
			1065288387,
			3212759126,
			1028737143,
			3181826605,
			3181591825,
			3169632957,
			1065292807,
			3212763634,
			1028711601,
			3181385074,
			3181150517,
			3169723283,
			1065297047,
			3212767957,
			1028685908,
			3180943427,
			3181591825,
			3169632957,
			1065292807,
			3212763634,
			1028711601,
			3181385074,
			982514045,
			3171603287,
			1065343567,
			3174297865,
			1065327363,
			1024123808,
			949177308,
			3157025550,
			1065352288,
			3174301536,
			1065336081,
			1009534302,
			3128631960,
			1012047725,
			1065351822,
			3174298748,
			1065335623,
			3159563242,
			949177308,
			3157025550,
			1065352288,
			3174301536,
			1065336081,
			1009534302,
			3098947281,
			3171499609,
			1065343797,
			1063604575,
			1055094278,
			1014320323,
			3099986367,
			3171500615,
			1065343795,
			1063604576,
			1055094269,
			1014329378,
			3098947281,
			3171499609,
			1065343797,
			1063604575,
			1055094278,
			1014320323,
			3097908195,
			3171498603,
			1065343799,
			1063604575,
			1055094287,
			1014311266,
			3166513864,
			1057261511,
			1062924757,
			3172541917,
			1062911040,
			3204753793,
			982780928,
			3171680663,
			1065343402,
			3174297858,
			1065327196,
			1024201475,
			3166513864,
			1057261511,
			1062924757,
			3172541917,
			1062911040,
			3204753793,
			3173185299,
			1063689543,
			1054693980,
			3164135423,
			1054680465,
			3211187923,
			1065322999,
			1030986933,
			1006681655,
			3177810253,
			1063671304,
			1054705216,
			1065323156,
			1030947075,
			1006577019,
			3177766034,
			1063671467,
			1054705259,
			1065323313,
			1030907217,
			1006423688,
			3177721815,
			1063671631,
			1054705302,
			1065323156,
			1030947075,
			1006577019,
			3177766034,
			1063671467,
			1054705259;
		}
	}
}
