xof 0303txt 0032

Material lambert1 {
	 0.800000; 0.800000; 0.800000; 1.000000;;
	 0.000000;
	 0.000000; 0.000000; 0.000000;;
	 0.000000; 0.000000; 0.000000;;
	TextureFileName {"COIN_DIF_01.tga";}
}
Material blinn1 {
	 0.800000; 0.800000; 0.800000; 1.000000;;
	 0.000000;
	 0.250000; 0.250000; 0.250000;;
	 0.000000; 0.000000; 0.000000;;
	TextureFileName {"COIN_DIF_01.tga";}
}
Frame MESH_COIN {
	FrameTransformMatrix {
		1.000000,0.000000,-0.000000,0.000000,0.000000,1.000000,-0.000000,0.000000,-0.000000,-0.000000,1.000000,0.000000,0.000000,0.000000,-0.000000,1.000000;;
	}
	Mesh polySurfaceShape1 {
		280;
		-0.081201; -0.394438; -0.307396;,
		-0.092054; -0.468765; -0.168680;,
		-0.044230; -0.488478; -0.172691;,
		-0.033037; -0.411824; -0.315752;,
		-0.092054; -0.468765; -0.168680;,
		-0.098717; -0.496727; -0.013573;,
		-0.051102; -0.517316; -0.012727;,
		-0.044230; -0.488478; -0.172691;,
		-0.098717; -0.496727; -0.013573;,
		-0.100538; -0.475588;  0.142742;,
		-0.052980; -0.495515;  0.148483;,
		-0.051102; -0.517316; -0.012727;,
		-0.100538; -0.475588;  0.142742;,
		-0.097339; -0.407416;  0.284963;,
		-0.049680; -0.425208;  0.295159;,
		-0.052980; -0.495515;  0.148483;,
		-0.097339; -0.407416;  0.284963;,
		-0.089433; -0.298886;  0.399169;,
		-0.041526; -0.313279;  0.412942;,
		-0.049680; -0.425208;  0.295159;,
		-0.089433; -0.298886;  0.399169;,
		-0.077593; -0.160620;  0.474181;,
		-0.029316; -0.170682;  0.490303;,
		-0.041526; -0.313279;  0.412942;,
		-0.077593; -0.160620;  0.474181;,
		-0.062979; -0.006153;  0.502656;,
		-0.014244; -0.011378;  0.519670;,
		-0.029316; -0.170682;  0.490303;,
		-0.062979; -0.006153;  0.502656;,
		-0.047021;  0.149394;  0.481807;,
		 0.002214;  0.149041;  0.498168;,
		-0.014244; -0.011378;  0.519670;,
		-0.047021;  0.149394;  0.481807;,
		-0.031282;  0.290796;  0.413673;,
		 0.018446;  0.294872;  0.427900;,
		 0.002214;  0.149041;  0.498168;,
		-0.031282;  0.290796;  0.413673;,
		-0.017301;  0.404213;  0.304927;,
		 0.032865;  0.411840;  0.315748;,
		 0.018446;  0.294872;  0.427900;,
		-0.017301;  0.404213;  0.304927;,
		-0.006448;  0.478539;  0.166210;,
		 0.044058;  0.488495;  0.172687;,
		 0.032865;  0.411840;  0.315748;,
		-0.006448;  0.478539;  0.166210;,
		 0.000215;  0.506502;  0.011104;,
		 0.050930;  0.517333;  0.012723;,
		 0.044058;  0.488495;  0.172687;,
		 0.000215;  0.506502;  0.011104;,
		 0.002037;  0.485362; -0.145212;,
		 0.052808;  0.495532; -0.148488;,
		 0.050930;  0.517333;  0.012723;,
		 0.002037;  0.485362; -0.145212;,
		-0.001163;  0.417191; -0.287432;,
		 0.049508;  0.425225; -0.295163;,
		 0.052808;  0.495532; -0.148488;,
		-0.001163;  0.417191; -0.287432;,
		-0.009069;  0.308661; -0.401639;,
		 0.041354;  0.313296; -0.412946;,
		 0.049508;  0.425225; -0.295163;,
		-0.009069;  0.308661; -0.401639;,
		-0.020909;  0.170394; -0.476651;,
		 0.029144;  0.170699; -0.490308;,
		 0.041354;  0.313296; -0.412946;,
		-0.020909;  0.170394; -0.476651;,
		-0.035523;  0.015928; -0.505125;,
		 0.014072;  0.011395; -0.519674;,
		 0.029144;  0.170699; -0.490308;,
		-0.035523;  0.015928; -0.505125;,
		-0.051481; -0.139620; -0.484276;,
		-0.002386; -0.149025; -0.498172;,
		 0.014072;  0.011395; -0.519674;,
		-0.051481; -0.139620; -0.484276;,
		-0.067220; -0.281022; -0.416143;,
		-0.018618; -0.294855; -0.427905;,
		-0.002386; -0.149025; -0.498172;,
		-0.067220; -0.281022; -0.416143;,
		-0.081201; -0.394438; -0.307396;,
		-0.033037; -0.411824; -0.315752;,
		-0.018618; -0.294855; -0.427905;,
		-0.092054; -0.468765; -0.168680;,
		-0.081201; -0.394438; -0.307396;,
		-0.067607;  0.004887; -0.001235;,
		-0.098717; -0.496727; -0.013573;,
		-0.092054; -0.468765; -0.168680;,
		-0.067607;  0.004887; -0.001235;,
		-0.100538; -0.475588;  0.142742;,
		-0.098717; -0.496727; -0.013573;,
		-0.067607;  0.004887; -0.001235;,
		-0.097339; -0.407416;  0.284963;,
		-0.100538; -0.475588;  0.142742;,
		-0.067607;  0.004887; -0.001235;,
		-0.089433; -0.298886;  0.399169;,
		-0.097339; -0.407416;  0.284963;,
		-0.067607;  0.004887; -0.001235;,
		-0.077593; -0.160620;  0.474181;,
		-0.089433; -0.298886;  0.399169;,
		-0.067607;  0.004887; -0.001235;,
		-0.062979; -0.006153;  0.502656;,
		-0.077593; -0.160620;  0.474181;,
		-0.067607;  0.004887; -0.001235;,
		-0.047021;  0.149394;  0.481807;,
		-0.062979; -0.006153;  0.502656;,
		-0.067607;  0.004887; -0.001235;,
		-0.031282;  0.290796;  0.413673;,
		-0.047021;  0.149394;  0.481807;,
		-0.067607;  0.004887; -0.001235;,
		-0.017301;  0.404213;  0.304927;,
		-0.031282;  0.290796;  0.413673;,
		-0.067607;  0.004887; -0.001235;,
		-0.006448;  0.478539;  0.166210;,
		-0.017301;  0.404213;  0.304927;,
		-0.067607;  0.004887; -0.001235;,
		 0.000215;  0.506502;  0.011104;,
		-0.006448;  0.478539;  0.166210;,
		-0.067607;  0.004887; -0.001235;,
		 0.002037;  0.485362; -0.145212;,
		 0.000215;  0.506502;  0.011104;,
		-0.067607;  0.004887; -0.001235;,
		-0.001163;  0.417191; -0.287432;,
		 0.002037;  0.485362; -0.145212;,
		-0.067607;  0.004887; -0.001235;,
		-0.009069;  0.308661; -0.401639;,
		-0.001163;  0.417191; -0.287432;,
		-0.067607;  0.004887; -0.001235;,
		-0.020909;  0.170394; -0.476651;,
		-0.009069;  0.308661; -0.401639;,
		-0.067607;  0.004887; -0.001235;,
		-0.035523;  0.015928; -0.505125;,
		-0.020909;  0.170394; -0.476651;,
		-0.067607;  0.004887; -0.001235;,
		-0.051481; -0.139620; -0.484276;,
		-0.035523;  0.015928; -0.505125;,
		-0.067607;  0.004887; -0.001235;,
		-0.067220; -0.281022; -0.416143;,
		-0.051481; -0.139620; -0.484276;,
		-0.067607;  0.004887; -0.001235;,
		-0.081201; -0.394438; -0.307396;,
		-0.067220; -0.281022; -0.416143;,
		-0.067607;  0.004887; -0.001235;,
		 0.017301; -0.404213; -0.304927;,
		 0.006448; -0.478539; -0.166210;,
		 0.067607; -0.004887;  0.001235;,
		 0.006448; -0.478539; -0.166210;,
		-0.000215; -0.506501; -0.011104;,
		 0.067607; -0.004887;  0.001235;,
		-0.000215; -0.506501; -0.011104;,
		-0.002037; -0.485363;  0.145211;,
		 0.067607; -0.004887;  0.001235;,
		-0.002037; -0.485363;  0.145211;,
		 0.001163; -0.417191;  0.287432;,
		 0.067607; -0.004887;  0.001235;,
		 0.001163; -0.417191;  0.287432;,
		 0.009069; -0.308661;  0.401639;,
		 0.067607; -0.004887;  0.001235;,
		 0.009069; -0.308661;  0.401639;,
		 0.020909; -0.170394;  0.476651;,
		 0.067607; -0.004887;  0.001235;,
		 0.020909; -0.170394;  0.476651;,
		 0.035523; -0.015928;  0.505125;,
		 0.067607; -0.004887;  0.001235;,
		 0.035523; -0.015928;  0.505125;,
		 0.051481;  0.139620;  0.484276;,
		 0.067607; -0.004887;  0.001235;,
		 0.051481;  0.139620;  0.484276;,
		 0.067220;  0.281022;  0.416143;,
		 0.067607; -0.004887;  0.001235;,
		 0.067220;  0.281022;  0.416143;,
		 0.081201;  0.394438;  0.307396;,
		 0.067607; -0.004887;  0.001235;,
		 0.081201;  0.394438;  0.307396;,
		 0.092054;  0.468765;  0.168680;,
		 0.067607; -0.004887;  0.001235;,
		 0.092054;  0.468765;  0.168680;,
		 0.098717;  0.496727;  0.013573;,
		 0.067607; -0.004887;  0.001235;,
		 0.098717;  0.496727;  0.013573;,
		 0.100538;  0.475588; -0.142742;,
		 0.067607; -0.004887;  0.001235;,
		 0.100538;  0.475588; -0.142742;,
		 0.097339;  0.407416; -0.284963;,
		 0.067607; -0.004887;  0.001235;,
		 0.097339;  0.407416; -0.284963;,
		 0.089433;  0.298886; -0.399169;,
		 0.067607; -0.004887;  0.001235;,
		 0.089433;  0.298886; -0.399169;,
		 0.077593;  0.160620; -0.474181;,
		 0.067607; -0.004887;  0.001235;,
		 0.077593;  0.160620; -0.474181;,
		 0.062979;  0.006153; -0.502656;,
		 0.067607; -0.004887;  0.001235;,
		 0.062979;  0.006153; -0.502656;,
		 0.047021; -0.149395; -0.481806;,
		 0.067607; -0.004887;  0.001235;,
		 0.047021; -0.149395; -0.481806;,
		 0.031282; -0.290796; -0.413673;,
		 0.067607; -0.004887;  0.001235;,
		 0.031282; -0.290796; -0.413673;,
		 0.017301; -0.404213; -0.304927;,
		 0.067607; -0.004887;  0.001235;,
		 0.029144;  0.170699; -0.490308;,
		 0.014072;  0.011395; -0.519674;,
		 0.062979;  0.006153; -0.502656;,
		 0.077593;  0.160620; -0.474181;,
		 0.041354;  0.313296; -0.412946;,
		 0.029144;  0.170699; -0.490308;,
		 0.077593;  0.160620; -0.474181;,
		 0.089433;  0.298886; -0.399169;,
		 0.049508;  0.425225; -0.295163;,
		 0.041354;  0.313296; -0.412946;,
		 0.089433;  0.298886; -0.399169;,
		 0.097339;  0.407416; -0.284963;,
		 0.052808;  0.495532; -0.148488;,
		 0.049508;  0.425225; -0.295163;,
		 0.097339;  0.407416; -0.284963;,
		 0.100538;  0.475588; -0.142742;,
		 0.050930;  0.517333;  0.012723;,
		 0.052808;  0.495532; -0.148488;,
		 0.100538;  0.475588; -0.142742;,
		 0.098717;  0.496727;  0.013573;,
		 0.044058;  0.488495;  0.172687;,
		 0.050930;  0.517333;  0.012723;,
		 0.098717;  0.496727;  0.013573;,
		 0.092054;  0.468765;  0.168680;,
		 0.032865;  0.411840;  0.315748;,
		 0.044058;  0.488495;  0.172687;,
		 0.092054;  0.468765;  0.168680;,
		 0.081201;  0.394438;  0.307396;,
		 0.018446;  0.294872;  0.427900;,
		 0.032865;  0.411840;  0.315748;,
		 0.081201;  0.394438;  0.307396;,
		 0.067220;  0.281022;  0.416143;,
		 0.002214;  0.149041;  0.498168;,
		 0.018446;  0.294872;  0.427900;,
		 0.067220;  0.281022;  0.416143;,
		 0.051481;  0.139620;  0.484276;,
		-0.014244; -0.011378;  0.519670;,
		 0.002214;  0.149041;  0.498168;,
		 0.051481;  0.139620;  0.484276;,
		 0.035523; -0.015928;  0.505125;,
		-0.029316; -0.170682;  0.490303;,
		-0.014244; -0.011378;  0.519670;,
		 0.035523; -0.015928;  0.505125;,
		 0.020909; -0.170394;  0.476651;,
		-0.041526; -0.313279;  0.412942;,
		-0.029316; -0.170682;  0.490303;,
		 0.020909; -0.170394;  0.476651;,
		 0.009069; -0.308661;  0.401639;,
		-0.049680; -0.425208;  0.295159;,
		-0.041526; -0.313279;  0.412942;,
		 0.009069; -0.308661;  0.401639;,
		 0.001163; -0.417191;  0.287432;,
		-0.052980; -0.495515;  0.148483;,
		-0.049680; -0.425208;  0.295159;,
		 0.001163; -0.417191;  0.287432;,
		-0.002037; -0.485363;  0.145211;,
		-0.051102; -0.517316; -0.012727;,
		-0.052980; -0.495515;  0.148483;,
		-0.002037; -0.485363;  0.145211;,
		-0.000215; -0.506501; -0.011104;,
		-0.044230; -0.488478; -0.172691;,
		-0.051102; -0.517316; -0.012727;,
		-0.000215; -0.506501; -0.011104;,
		 0.006448; -0.478539; -0.166210;,
		-0.033037; -0.411824; -0.315752;,
		-0.044230; -0.488478; -0.172691;,
		 0.006448; -0.478539; -0.166210;,
		 0.017301; -0.404213; -0.304927;,
		-0.018618; -0.294855; -0.427905;,
		-0.033037; -0.411824; -0.315752;,
		 0.017301; -0.404213; -0.304927;,
		 0.031282; -0.290796; -0.413673;,
		-0.002386; -0.149025; -0.498172;,
		-0.018618; -0.294855; -0.427905;,
		 0.031282; -0.290796; -0.413673;,
		 0.047021; -0.149395; -0.481806;,
		 0.014072;  0.011395; -0.519674;,
		-0.002386; -0.149025; -0.498172;,
		 0.047021; -0.149395; -0.481806;,
		 0.062979;  0.006153; -0.502656;;
		80;
		4;3,2,1,0;,
		4;7,6,5,4;,
		4;11,10,9,8;,
		4;15,14,13,12;,
		4;19,18,17,16;,
		4;23,22,21,20;,
		4;27,26,25,24;,
		4;31,30,29,28;,
		4;35,34,33,32;,
		4;39,38,37,36;,
		4;43,42,41,40;,
		4;47,46,45,44;,
		4;51,50,49,48;,
		4;55,54,53,52;,
		4;59,58,57,56;,
		4;63,62,61,60;,
		4;67,66,65,64;,
		4;71,70,69,68;,
		4;75,74,73,72;,
		4;79,78,77,76;,
		3;82,81,80;,
		3;85,84,83;,
		3;88,87,86;,
		3;91,90,89;,
		3;94,93,92;,
		3;97,96,95;,
		3;100,99,98;,
		3;103,102,101;,
		3;106,105,104;,
		3;109,108,107;,
		3;112,111,110;,
		3;115,114,113;,
		3;118,117,116;,
		3;121,120,119;,
		3;124,123,122;,
		3;127,126,125;,
		3;130,129,128;,
		3;133,132,131;,
		3;136,135,134;,
		3;139,138,137;,
		3;142,141,140;,
		3;145,144,143;,
		3;148,147,146;,
		3;151,150,149;,
		3;154,153,152;,
		3;157,156,155;,
		3;160,159,158;,
		3;163,162,161;,
		3;166,165,164;,
		3;169,168,167;,
		3;172,171,170;,
		3;175,174,173;,
		3;178,177,176;,
		3;181,180,179;,
		3;184,183,182;,
		3;187,186,185;,
		3;190,189,188;,
		3;193,192,191;,
		3;196,195,194;,
		3;199,198,197;,
		4;203,202,201,200;,
		4;207,206,205,204;,
		4;211,210,209,208;,
		4;215,214,213,212;,
		4;219,218,217,216;,
		4;223,222,221,220;,
		4;227,226,225,224;,
		4;231,230,229,228;,
		4;235,234,233,232;,
		4;239,238,237,236;,
		4;243,242,241,240;,
		4;247,246,245,244;,
		4;251,250,249,248;,
		4;255,254,253,252;,
		4;259,258,257,256;,
		4;263,262,261,260;,
		4;267,266,265,264;,
		4;271,270,269,268;,
		4;275,274,273,272;,
		4;279,278,277,276;;
		MeshNormals {
			62;
			-0.833067,-0.397237,-0.384971;,
			-0.845999,-0.485870,-0.219580;,
			-0.085398,-0.939366,-0.332113;,
			-0.063872,-0.791949,-0.607237;,
			-0.853939,-0.519218,-0.034641;,
			-0.098612,-0.994825,-0.024484;,
			-0.856110,-0.494014, 0.151743;,
			-0.102224,-0.952898, 0.285544;,
			-0.852297,-0.412727, 0.321318;,
			-0.095880,-0.817691, 0.567616;,
			-0.842876,-0.283316, 0.457484;,
			-0.080200,-0.602439, 0.794126;,
			-0.828768,-0.118451, 0.546912;,
			-0.056717,-0.328208, 0.942901;,
			-0.811354, 0.065721, 0.580848;,
			-0.027731,-0.021848, 0.999377;,
			-0.792341, 0.251176, 0.555974;,
			 0.003919, 0.286659, 0.958025;,
			-0.773587, 0.419754, 0.474731;,
			 0.035136, 0.567107, 0.822894;,
			-0.756932, 0.554959, 0.345072;,
			 0.062864, 0.792049, 0.607212;,
			-0.744001, 0.643563, 0.179692;,
			 0.084390, 0.939466, 0.332088;,
			-0.736063, 0.676893,-0.005222;,
			 0.097605, 0.994925, 0.024459;,
			-0.733894, 0.651690,-0.191574;,
			 0.101218, 0.952998,-0.285569;,
			-0.737705, 0.570422,-0.361124;,
			 0.094873, 0.817791,-0.567641;,
			-0.747124, 0.441041,-0.497281;,
			 0.079192, 0.602539,-0.794151;,
			-0.761229, 0.276206,-0.586721;,
			 0.055709, 0.328308,-0.942926;,
			-0.778640, 0.092050,-0.620682;,
			 0.026723, 0.021947,-0.999402;,
			-0.797653,-0.093405,-0.595839;,
			-0.004928,-0.286559,-0.958050;,
			-0.816407,-0.262002,-0.514621;,
			-0.036144,-0.567007,-0.822919;,
			-0.994810, 0.098649,-0.024923;,
			 0.756609,-0.555245,-0.345321;,
			 0.743670,-0.643906,-0.179831;,
			 0.994810,-0.098649, 0.024923;,
			 0.735727,-0.677258, 0.005204;,
			 0.733557,-0.652038, 0.191679;,
			 0.737370,-0.570717, 0.361342;,
			 0.746795,-0.441251, 0.497589;,
			 0.760910,-0.276306, 0.587087;,
			 0.778332,-0.092030, 0.621071;,
			 0.797358, 0.093548, 0.596212;,
			 0.816123, 0.262258, 0.514941;,
			 0.832793, 0.397583, 0.385206;,
			 0.845734, 0.486276, 0.219705;,
			 0.853679, 0.519646, 0.034643;,
			 0.855851, 0.494426,-0.151865;,
			 0.852036, 0.413084,-0.321552;,
			 0.842609, 0.283587,-0.457809;,
			 0.828491, 0.118613,-0.547297;,
			 0.811065,-0.065684,-0.581256;,
			 0.792039,-0.251261,-0.556365;,
			 0.773275,-0.419950,-0.475066;;
			80;
			4;3,2,1,0;,
			4;2,5,4,1;,
			4;5,7,6,4;,
			4;7,9,8,6;,
			4;9,11,10,8;,
			4;11,13,12,10;,
			4;13,15,14,12;,
			4;15,17,16,14;,
			4;17,19,18,16;,
			4;19,21,20,18;,
			4;21,23,22,20;,
			4;23,25,24,22;,
			4;25,27,26,24;,
			4;27,29,28,26;,
			4;29,31,30,28;,
			4;31,33,32,30;,
			4;33,35,34,32;,
			4;35,37,36,34;,
			4;37,39,38,36;,
			4;39,3,0,38;,
			3;40,0,1;,
			3;40,1,4;,
			3;40,4,6;,
			3;40,6,8;,
			3;40,8,10;,
			3;40,10,12;,
			3;40,12,14;,
			3;40,14,16;,
			3;40,16,18;,
			3;40,18,20;,
			3;40,20,22;,
			3;40,22,24;,
			3;40,24,26;,
			3;40,26,28;,
			3;40,28,30;,
			3;40,30,32;,
			3;40,32,34;,
			3;40,34,36;,
			3;40,36,38;,
			3;40,38,0;,
			3;43,42,41;,
			3;43,44,42;,
			3;43,45,44;,
			3;43,46,45;,
			3;43,47,46;,
			3;43,48,47;,
			3;43,49,48;,
			3;43,50,49;,
			3;43,51,50;,
			3;43,52,51;,
			3;43,53,52;,
			3;43,54,53;,
			3;43,55,54;,
			3;43,56,55;,
			3;43,57,56;,
			3;43,58,57;,
			3;43,59,58;,
			3;43,60,59;,
			3;43,61,60;,
			3;43,41,61;,
			4;58,59,35,33;,
			4;57,58,33,31;,
			4;56,57,31,29;,
			4;55,56,29,27;,
			4;54,55,27,25;,
			4;53,54,25,23;,
			4;52,53,23,21;,
			4;51,52,21,19;,
			4;50,51,19,17;,
			4;49,50,17,15;,
			4;48,49,15,13;,
			4;47,48,13,11;,
			4;46,47,11,9;,
			4;45,46,9,7;,
			4;44,45,7,5;,
			4;42,44,5,2;,
			4;41,42,2,3;,
			4;61,41,3,39;,
			4;60,61,39,37;,
			4;59,60,37,35;;
		}
		MeshTextureCoords {
			280;
			 0.052824;-0.376914;,
			 0.052824;-0.320473;,
			 0.081970;-0.320473;,
			 0.081970;-0.376914;,
			 0.052824;-0.320473;,
			 0.052824;-0.264032;,
			 0.081970;-0.264032;,
			 0.081970;-0.320473;,
			 0.052824;-0.264032;,
			 0.052824;-0.207591;,
			 0.081970;-0.207591;,
			 0.081970;-0.264032;,
			 0.052824;-0.207591;,
			 0.052824;-0.151150;,
			 0.081970;-0.151150;,
			 0.081970;-0.207591;,
			 0.052824;-0.151150;,
			 0.052824;-0.094709;,
			 0.081970;-0.094709;,
			 0.081970;-0.151150;,
			 0.055997;-0.435505;,
			 0.055997;-0.379064;,
			 0.085143;-0.379064;,
			 0.085143;-0.435505;,
			 0.055997;-0.379064;,
			 0.055997;-0.322622;,
			 0.085143;-0.322623;,
			 0.085143;-0.379064;,
			 0.055997;-0.322622;,
			 0.055997;-0.266182;,
			 0.085143;-0.266182;,
			 0.085143;-0.322623;,
			 0.055997;-0.266182;,
			 0.055997;-0.209741;,
			 0.085143;-0.209740;,
			 0.085143;-0.266182;,
			 0.055997;-0.209741;,
			 0.055997;-0.153299;,
			 0.085143;-0.153299;,
			 0.085143;-0.209740;,
			 0.055997;-0.153299;,
			 0.055997;-0.096858;,
			 0.085143;-0.096858;,
			 0.085143;-0.153299;,
			 0.055997;-0.305509;,
			 0.055997;-0.249067;,
			 0.085143;-0.249067;,
			 0.085143;-0.305509;,
			 0.055997;-0.249067;,
			 0.055997;-0.192626;,
			 0.085143;-0.192626;,
			 0.085143;-0.249067;,
			 0.055997;-0.192626;,
			 0.055997;-0.136184;,
			 0.085143;-0.136185;,
			 0.085143;-0.192626;,
			 0.055997;-0.136184;,
			 0.055997;-0.079745;,
			 0.085143;-0.079745;,
			 0.085143;-0.136185;,
			 0.055997;-0.362582;,
			 0.055997;-0.306141;,
			 0.085143;-0.306141;,
			 0.085143;-0.362582;,
			 0.055997;-0.306141;,
			 0.055997;-0.249700;,
			 0.085143;-0.249700;,
			 0.085143;-0.306141;,
			 0.055997;-0.249700;,
			 0.055997;-0.193259;,
			 0.085143;-0.193259;,
			 0.085143;-0.249700;,
			 0.055997;-0.193259;,
			 0.055997;-0.136817;,
			 0.085143;-0.136817;,
			 0.085143;-0.193259;,
			 0.055997;-0.136817;,
			 0.055997;-0.080375;,
			 0.085143;-0.080375;,
			 0.085143;-0.136817;,
			 0.936467;-0.130954;,
			 0.977075;-0.210650;,
			 0.705178;-0.287559;,
			 0.873219;-0.067706;,
			 0.936467;-0.130954;,
			 0.705178;-0.287559;,
			 0.793522;-0.027098;,
			 0.873219;-0.067706;,
			 0.705178;-0.287559;,
			 0.705178;-0.013106;,
			 0.793522;-0.027098;,
			 0.705178;-0.287559;,
			 0.616833;-0.027098;,
			 0.705178;-0.013106;,
			 0.705178;-0.287559;,
			 0.537136;-0.067706;,
			 0.616833;-0.027098;,
			 0.705178;-0.287559;,
			 0.473889;-0.130953;,
			 0.537136;-0.067706;,
			 0.705178;-0.287559;,
			 0.433281;-0.210650;,
			 0.473889;-0.130953;,
			 0.705178;-0.287559;,
			 0.419289;-0.298995;,
			 0.433281;-0.210650;,
			 0.705178;-0.287559;,
			 0.433281;-0.387340;,
			 0.419289;-0.298995;,
			 0.705178;-0.287559;,
			 0.473889;-0.467037;,
			 0.433281;-0.387340;,
			 0.705178;-0.287559;,
			 0.537136;-0.530284;,
			 0.473889;-0.467037;,
			 0.705178;-0.287559;,
			 0.616833;-0.570892;,
			 0.537136;-0.530284;,
			 0.705178;-0.287559;,
			 0.705178;-0.584884;,
			 0.616833;-0.570892;,
			 0.705178;-0.287559;,
			 0.793522;-0.570892;,
			 0.705178;-0.584884;,
			 0.705178;-0.287559;,
			 0.873219;-0.530284;,
			 0.793522;-0.570892;,
			 0.705178;-0.287559;,
			 0.936467;-0.467037;,
			 0.873219;-0.530284;,
			 0.705178;-0.287559;,
			 0.977074;-0.387340;,
			 0.936467;-0.467037;,
			 0.705178;-0.287559;,
			 0.991067;-0.298995;,
			 0.977074;-0.387340;,
			 0.705178;-0.287559;,
			 0.977075;-0.210650;,
			 0.991067;-0.298995;,
			 0.705178;-0.287559;,
			 0.574228;-0.790187;,
			 0.533620;-0.869884;,
			 0.302331;-0.690407;,
			 0.533620;-0.869884;,
			 0.470373;-0.933132;,
			 0.302331;-0.690407;,
			 0.470373;-0.933132;,
			 0.390676;-0.973739;,
			 0.302331;-0.690407;,
			 0.390676;-0.973739;,
			 0.302331;-0.987731;,
			 0.302331;-0.690407;,
			 0.302331;-0.987731;,
			 0.213987;-0.973739;,
			 0.302331;-0.690407;,
			 0.213987;-0.973739;,
			 0.134290;-0.933132;,
			 0.302331;-0.690407;,
			 0.134290;-0.933132;,
			 0.071042;-0.869884;,
			 0.302331;-0.690407;,
			 0.071042;-0.869884;,
			 0.030434;-0.790187;,
			 0.302331;-0.690407;,
			 0.030434;-0.790187;,
			 0.016442;-0.701842;,
			 0.302331;-0.690407;,
			 0.016442;-0.701842;,
			 0.030434;-0.613498;,
			 0.302331;-0.690407;,
			 0.030434;-0.613498;,
			 0.071042;-0.533801;,
			 0.302331;-0.690407;,
			 0.071042;-0.533801;,
			 0.134290;-0.470553;,
			 0.302331;-0.690407;,
			 0.134290;-0.470553;,
			 0.213987;-0.429946;,
			 0.302331;-0.690407;,
			 0.213987;-0.429946;,
			 0.302331;-0.415953;,
			 0.302331;-0.690407;,
			 0.302331;-0.415953;,
			 0.390676;-0.429945;,
			 0.302331;-0.690407;,
			 0.390676;-0.429945;,
			 0.470373;-0.470553;,
			 0.302331;-0.690407;,
			 0.470373;-0.470553;,
			 0.533620;-0.533801;,
			 0.302331;-0.690407;,
			 0.533620;-0.533801;,
			 0.574228;-0.613498;,
			 0.302331;-0.690407;,
			 0.574228;-0.613498;,
			 0.588220;-0.701842;,
			 0.302331;-0.690407;,
			 0.588220;-0.701842;,
			 0.574228;-0.790187;,
			 0.302331;-0.690407;,
			 0.085143;-0.306141;,
			 0.085143;-0.249700;,
			 0.114389;-0.249700;,
			 0.114388;-0.306141;,
			 0.085143;-0.362582;,
			 0.085143;-0.306141;,
			 0.114388;-0.306141;,
			 0.114389;-0.362583;,
			 0.085143;-0.136185;,
			 0.085143;-0.079745;,
			 0.114389;-0.079745;,
			 0.114388;-0.136185;,
			 0.085143;-0.192626;,
			 0.085143;-0.136185;,
			 0.114388;-0.136185;,
			 0.114389;-0.192627;,
			 0.085143;-0.249067;,
			 0.085143;-0.192626;,
			 0.114389;-0.192627;,
			 0.114388;-0.249068;,
			 0.085143;-0.305509;,
			 0.085143;-0.249067;,
			 0.114388;-0.249068;,
			 0.114388;-0.305508;,
			 0.085143;-0.153299;,
			 0.085143;-0.096858;,
			 0.114388;-0.096858;,
			 0.114388;-0.153299;,
			 0.085143;-0.209740;,
			 0.085143;-0.153299;,
			 0.114388;-0.153299;,
			 0.114388;-0.209740;,
			 0.085143;-0.266182;,
			 0.085143;-0.209740;,
			 0.114388;-0.209740;,
			 0.114388;-0.266181;,
			 0.085143;-0.322623;,
			 0.085143;-0.266182;,
			 0.114388;-0.266181;,
			 0.114388;-0.322623;,
			 0.085143;-0.379064;,
			 0.085143;-0.322623;,
			 0.114388;-0.322623;,
			 0.114388;-0.379064;,
			 0.085143;-0.435505;,
			 0.085143;-0.379064;,
			 0.114388;-0.379064;,
			 0.114388;-0.435505;,
			 0.081970;-0.151150;,
			 0.081970;-0.094709;,
			 0.111215;-0.094709;,
			 0.111215;-0.151150;,
			 0.081970;-0.207591;,
			 0.081970;-0.151150;,
			 0.111215;-0.151150;,
			 0.111215;-0.207591;,
			 0.081970;-0.264032;,
			 0.081970;-0.207591;,
			 0.111215;-0.207591;,
			 0.111215;-0.264032;,
			 0.081970;-0.320473;,
			 0.081970;-0.264032;,
			 0.111215;-0.264032;,
			 0.111215;-0.320473;,
			 0.081970;-0.376914;,
			 0.081970;-0.320473;,
			 0.111215;-0.320473;,
			 0.111215;-0.376914;,
			 0.085143;-0.136817;,
			 0.085143;-0.080375;,
			 0.114388;-0.080374;,
			 0.114389;-0.136817;,
			 0.085143;-0.193259;,
			 0.085143;-0.136817;,
			 0.114389;-0.136817;,
			 0.114388;-0.193259;,
			 0.085143;-0.249700;,
			 0.085143;-0.193259;,
			 0.114388;-0.193259;,
			 0.114389;-0.249700;;
		}
		MeshVertexColors {
			280;
			0; 0.650000; 0.649350; 0.649350; 1.000000;;,
			1; 0.650000; 0.649350; 0.649350; 1.000000;;,
			2; 0.370000; 0.370000; 0.370000; 1.000000;;,
			3; 0.370000; 0.370000; 0.370000; 1.000000;;,
			4; 0.650000; 0.649350; 0.649350; 1.000000;;,
			5; 0.650000; 0.649350; 0.649350; 1.000000;;,
			6; 0.370000; 0.370000; 0.370000; 1.000000;;,
			7; 0.370000; 0.370000; 0.370000; 1.000000;;,
			8; 0.650000; 0.649350; 0.649350; 1.000000;;,
			9; 0.650000; 0.649350; 0.649350; 1.000000;;,
			10; 0.370000; 0.370000; 0.370000; 1.000000;;,
			11; 0.370000; 0.370000; 0.370000; 1.000000;;,
			12; 0.650000; 0.649350; 0.649350; 1.000000;;,
			13; 0.650000; 0.649350; 0.649350; 1.000000;;,
			14; 0.370000; 0.370000; 0.370000; 1.000000;;,
			15; 0.370000; 0.370000; 0.370000; 1.000000;;,
			16; 0.650000; 0.649350; 0.649350; 1.000000;;,
			17; 0.650000; 0.649350; 0.649350; 1.000000;;,
			18; 0.370000; 0.370000; 0.370000; 1.000000;;,
			19; 0.370000; 0.370000; 0.370000; 1.000000;;,
			20; 0.650000; 0.649350; 0.649350; 1.000000;;,
			21; 0.650000; 0.649350; 0.649350; 1.000000;;,
			22; 0.370000; 0.370000; 0.370000; 1.000000;;,
			23; 0.370000; 0.370000; 0.370000; 1.000000;;,
			24; 0.650000; 0.649350; 0.649350; 1.000000;;,
			25; 0.650000; 0.649350; 0.649350; 1.000000;;,
			26; 0.370000; 0.370000; 0.370000; 1.000000;;,
			27; 0.370000; 0.370000; 0.370000; 1.000000;;,
			28; 0.650000; 0.649350; 0.649350; 1.000000;;,
			29; 0.650000; 0.649350; 0.649350; 1.000000;;,
			30; 0.370000; 0.370000; 0.370000; 1.000000;;,
			31; 0.370000; 0.370000; 0.370000; 1.000000;;,
			32; 0.650000; 0.649350; 0.649350; 1.000000;;,
			33; 0.650000; 0.649350; 0.649350; 1.000000;;,
			34; 0.370000; 0.370000; 0.370000; 1.000000;;,
			35; 0.370000; 0.370000; 0.370000; 1.000000;;,
			36; 0.650000; 0.649350; 0.649350; 1.000000;;,
			37; 0.650000; 0.649350; 0.649350; 1.000000;;,
			38; 0.370000; 0.370000; 0.370000; 1.000000;;,
			39; 0.370000; 0.370000; 0.370000; 1.000000;;,
			40; 0.650000; 0.649350; 0.649350; 1.000000;;,
			41; 0.650000; 0.649350; 0.649350; 1.000000;;,
			42; 0.370000; 0.370000; 0.370000; 1.000000;;,
			43; 0.370000; 0.370000; 0.370000; 1.000000;;,
			44; 0.650000; 0.649350; 0.649350; 1.000000;;,
			45; 0.650000; 0.649350; 0.649350; 1.000000;;,
			46; 0.370000; 0.370000; 0.370000; 1.000000;;,
			47; 0.370000; 0.370000; 0.370000; 1.000000;;,
			48; 0.650000; 0.649350; 0.649350; 1.000000;;,
			49; 0.650000; 0.649350; 0.649350; 1.000000;;,
			50; 0.370000; 0.370000; 0.370000; 1.000000;;,
			51; 0.370000; 0.370000; 0.370000; 1.000000;;,
			52; 0.650000; 0.649350; 0.649350; 1.000000;;,
			53; 0.650000; 0.649350; 0.649350; 1.000000;;,
			54; 0.370000; 0.370000; 0.370000; 1.000000;;,
			55; 0.370000; 0.370000; 0.370000; 1.000000;;,
			56; 0.650000; 0.649350; 0.649350; 1.000000;;,
			57; 0.650000; 0.649350; 0.649350; 1.000000;;,
			58; 0.370000; 0.370000; 0.370000; 1.000000;;,
			59; 0.370000; 0.370000; 0.370000; 1.000000;;,
			60; 0.650000; 0.649350; 0.649350; 1.000000;;,
			61; 0.650000; 0.649350; 0.649350; 1.000000;;,
			62; 0.370000; 0.370000; 0.370000; 1.000000;;,
			63; 0.370000; 0.370000; 0.370000; 1.000000;;,
			64; 0.650000; 0.649350; 0.649350; 1.000000;;,
			65; 0.650000; 0.649350; 0.649350; 1.000000;;,
			66; 0.370000; 0.370000; 0.370000; 1.000000;;,
			67; 0.370000; 0.370000; 0.370000; 1.000000;;,
			68; 0.650000; 0.649350; 0.649350; 1.000000;;,
			69; 0.650000; 0.649350; 0.649350; 1.000000;;,
			70; 0.370000; 0.370000; 0.370000; 1.000000;;,
			71; 0.370000; 0.370000; 0.370000; 1.000000;;,
			72; 0.650000; 0.649350; 0.649350; 1.000000;;,
			73; 0.650000; 0.649350; 0.649350; 1.000000;;,
			74; 0.370000; 0.370000; 0.370000; 1.000000;;,
			75; 0.370000; 0.370000; 0.370000; 1.000000;;,
			76; 0.650000; 0.649350; 0.649350; 1.000000;;,
			77; 0.650000; 0.649350; 0.649350; 1.000000;;,
			78; 0.370000; 0.370000; 0.370000; 1.000000;;,
			79; 0.370000; 0.370000; 0.370000; 1.000000;;,
			80; 0.650000; 0.649350; 0.649350; 1.000000;;,
			81; 0.650000; 0.649350; 0.649350; 1.000000;;,
			82; 0.560000; 0.559440; 0.559440; 1.000000;;,
			83; 0.650000; 0.649350; 0.649350; 1.000000;;,
			84; 0.650000; 0.649350; 0.649350; 1.000000;;,
			85; 0.560000; 0.559440; 0.559440; 1.000000;;,
			86; 0.650000; 0.649350; 0.649350; 1.000000;;,
			87; 0.650000; 0.649350; 0.649350; 1.000000;;,
			88; 0.560000; 0.559440; 0.559440; 1.000000;;,
			89; 0.650000; 0.649350; 0.649350; 1.000000;;,
			90; 0.650000; 0.649350; 0.649350; 1.000000;;,
			91; 0.560000; 0.559440; 0.559440; 1.000000;;,
			92; 0.650000; 0.649350; 0.649350; 1.000000;;,
			93; 0.650000; 0.649350; 0.649350; 1.000000;;,
			94; 0.560000; 0.559440; 0.559440; 1.000000;;,
			95; 0.650000; 0.649350; 0.649350; 1.000000;;,
			96; 0.650000; 0.649350; 0.649350; 1.000000;;,
			97; 0.560000; 0.559440; 0.559440; 1.000000;;,
			98; 0.650000; 0.649350; 0.649350; 1.000000;;,
			99; 0.650000; 0.649350; 0.649350; 1.000000;;,
			100; 0.560000; 0.559440; 0.559440; 1.000000;;,
			101; 0.650000; 0.649350; 0.649350; 1.000000;;,
			102; 0.650000; 0.649350; 0.649350; 1.000000;;,
			103; 0.560000; 0.559440; 0.559440; 1.000000;;,
			104; 0.650000; 0.649350; 0.649350; 1.000000;;,
			105; 0.650000; 0.649350; 0.649350; 1.000000;;,
			106; 0.560000; 0.559440; 0.559440; 1.000000;;,
			107; 0.650000; 0.649350; 0.649350; 1.000000;;,
			108; 0.650000; 0.649350; 0.649350; 1.000000;;,
			109; 0.560000; 0.559440; 0.559440; 1.000000;;,
			110; 0.650000; 0.649350; 0.649350; 1.000000;;,
			111; 0.650000; 0.649350; 0.649350; 1.000000;;,
			112; 0.560000; 0.559440; 0.559440; 1.000000;;,
			113; 0.650000; 0.649350; 0.649350; 1.000000;;,
			114; 0.650000; 0.649350; 0.649350; 1.000000;;,
			115; 0.560000; 0.559440; 0.559440; 1.000000;;,
			116; 0.650000; 0.649350; 0.649350; 1.000000;;,
			117; 0.650000; 0.649350; 0.649350; 1.000000;;,
			118; 0.560000; 0.559440; 0.559440; 1.000000;;,
			119; 0.650000; 0.649350; 0.649350; 1.000000;;,
			120; 0.650000; 0.649350; 0.649350; 1.000000;;,
			121; 0.560000; 0.559440; 0.559440; 1.000000;;,
			122; 0.650000; 0.649350; 0.649350; 1.000000;;,
			123; 0.650000; 0.649350; 0.649350; 1.000000;;,
			124; 0.560000; 0.559440; 0.559440; 1.000000;;,
			125; 0.650000; 0.649350; 0.649350; 1.000000;;,
			126; 0.650000; 0.649350; 0.649350; 1.000000;;,
			127; 0.560000; 0.559440; 0.559440; 1.000000;;,
			128; 0.650000; 0.649350; 0.649350; 1.000000;;,
			129; 0.650000; 0.649350; 0.649350; 1.000000;;,
			130; 0.560000; 0.559440; 0.559440; 1.000000;;,
			131; 0.650000; 0.649350; 0.649350; 1.000000;;,
			132; 0.650000; 0.649350; 0.649350; 1.000000;;,
			133; 0.560000; 0.559440; 0.559440; 1.000000;;,
			134; 0.650000; 0.649350; 0.649350; 1.000000;;,
			135; 0.650000; 0.649350; 0.649350; 1.000000;;,
			136; 0.560000; 0.559440; 0.559440; 1.000000;;,
			137; 0.650000; 0.649350; 0.649350; 1.000000;;,
			138; 0.650000; 0.649350; 0.649350; 1.000000;;,
			139; 0.560000; 0.559440; 0.559440; 1.000000;;,
			140; 0.650000; 0.649350; 0.649350; 1.000000;;,
			141; 0.650000; 0.649350; 0.649350; 1.000000;;,
			142; 0.560000; 0.559440; 0.559440; 1.000000;;,
			143; 0.650000; 0.649350; 0.649350; 1.000000;;,
			144; 0.650000; 0.649350; 0.649350; 1.000000;;,
			145; 0.560000; 0.559440; 0.559440; 1.000000;;,
			146; 0.650000; 0.649350; 0.649350; 1.000000;;,
			147; 0.650000; 0.649350; 0.649350; 1.000000;;,
			148; 0.560000; 0.559440; 0.559440; 1.000000;;,
			149; 0.650000; 0.649350; 0.649350; 1.000000;;,
			150; 0.650000; 0.649350; 0.649350; 1.000000;;,
			151; 0.560000; 0.559440; 0.559440; 1.000000;;,
			152; 0.650000; 0.649350; 0.649350; 1.000000;;,
			153; 0.650000; 0.649350; 0.649350; 1.000000;;,
			154; 0.560000; 0.559440; 0.559440; 1.000000;;,
			155; 0.650000; 0.649350; 0.649350; 1.000000;;,
			156; 0.650000; 0.649350; 0.649350; 1.000000;;,
			157; 0.560000; 0.559440; 0.559440; 1.000000;;,
			158; 0.650000; 0.649350; 0.649350; 1.000000;;,
			159; 0.650000; 0.649350; 0.649350; 1.000000;;,
			160; 0.560000; 0.559440; 0.559440; 1.000000;;,
			161; 0.650000; 0.649350; 0.649350; 1.000000;;,
			162; 0.650000; 0.649350; 0.649350; 1.000000;;,
			163; 0.560000; 0.559440; 0.559440; 1.000000;;,
			164; 0.650000; 0.649350; 0.649350; 1.000000;;,
			165; 0.650000; 0.649350; 0.649350; 1.000000;;,
			166; 0.560000; 0.559440; 0.559440; 1.000000;;,
			167; 0.650000; 0.649350; 0.649350; 1.000000;;,
			168; 0.650000; 0.649350; 0.649350; 1.000000;;,
			169; 0.560000; 0.559440; 0.559440; 1.000000;;,
			170; 0.650000; 0.649350; 0.649350; 1.000000;;,
			171; 0.650000; 0.649350; 0.649350; 1.000000;;,
			172; 0.560000; 0.559440; 0.559440; 1.000000;;,
			173; 0.650000; 0.649350; 0.649350; 1.000000;;,
			174; 0.650000; 0.649350; 0.649350; 1.000000;;,
			175; 0.560000; 0.559440; 0.559440; 1.000000;;,
			176; 0.650000; 0.649350; 0.649350; 1.000000;;,
			177; 0.650000; 0.649350; 0.649350; 1.000000;;,
			178; 0.560000; 0.559440; 0.559440; 1.000000;;,
			179; 0.650000; 0.649350; 0.649350; 1.000000;;,
			180; 0.650000; 0.649350; 0.649350; 1.000000;;,
			181; 0.560000; 0.559440; 0.559440; 1.000000;;,
			182; 0.650000; 0.649350; 0.649350; 1.000000;;,
			183; 0.650000; 0.649350; 0.649350; 1.000000;;,
			184; 0.560000; 0.559440; 0.559440; 1.000000;;,
			185; 0.650000; 0.649350; 0.649350; 1.000000;;,
			186; 0.650000; 0.649350; 0.649350; 1.000000;;,
			187; 0.560000; 0.559440; 0.559440; 1.000000;;,
			188; 0.650000; 0.649350; 0.649350; 1.000000;;,
			189; 0.650000; 0.649350; 0.649350; 1.000000;;,
			190; 0.560000; 0.559440; 0.559440; 1.000000;;,
			191; 0.650000; 0.649350; 0.649350; 1.000000;;,
			192; 0.650000; 0.649350; 0.649350; 1.000000;;,
			193; 0.560000; 0.559440; 0.559440; 1.000000;;,
			194; 0.650000; 0.649350; 0.649350; 1.000000;;,
			195; 0.650000; 0.649350; 0.649350; 1.000000;;,
			196; 0.560000; 0.559440; 0.559440; 1.000000;;,
			197; 0.650000; 0.649350; 0.649350; 1.000000;;,
			198; 0.650000; 0.649350; 0.649350; 1.000000;;,
			199; 0.560000; 0.559440; 0.559440; 1.000000;;,
			200; 0.370000; 0.370000; 0.370000; 1.000000;;,
			201; 0.370000; 0.370000; 0.370000; 1.000000;;,
			202; 0.650000; 0.649350; 0.649350; 1.000000;;,
			203; 0.650000; 0.649350; 0.649350; 1.000000;;,
			204; 0.370000; 0.370000; 0.370000; 1.000000;;,
			205; 0.370000; 0.370000; 0.370000; 1.000000;;,
			206; 0.650000; 0.649350; 0.649350; 1.000000;;,
			207; 0.650000; 0.649350; 0.649350; 1.000000;;,
			208; 0.370000; 0.370000; 0.370000; 1.000000;;,
			209; 0.370000; 0.370000; 0.370000; 1.000000;;,
			210; 0.650000; 0.649350; 0.649350; 1.000000;;,
			211; 0.650000; 0.649350; 0.649350; 1.000000;;,
			212; 0.370000; 0.370000; 0.370000; 1.000000;;,
			213; 0.370000; 0.370000; 0.370000; 1.000000;;,
			214; 0.650000; 0.649350; 0.649350; 1.000000;;,
			215; 0.650000; 0.649350; 0.649350; 1.000000;;,
			216; 0.370000; 0.370000; 0.370000; 1.000000;;,
			217; 0.370000; 0.370000; 0.370000; 1.000000;;,
			218; 0.650000; 0.649350; 0.649350; 1.000000;;,
			219; 0.650000; 0.649350; 0.649350; 1.000000;;,
			220; 0.370000; 0.370000; 0.370000; 1.000000;;,
			221; 0.370000; 0.370000; 0.370000; 1.000000;;,
			222; 0.650000; 0.649350; 0.649350; 1.000000;;,
			223; 0.650000; 0.649350; 0.649350; 1.000000;;,
			224; 0.370000; 0.370000; 0.370000; 1.000000;;,
			225; 0.370000; 0.370000; 0.370000; 1.000000;;,
			226; 0.650000; 0.649350; 0.649350; 1.000000;;,
			227; 0.650000; 0.649350; 0.649350; 1.000000;;,
			228; 0.370000; 0.370000; 0.370000; 1.000000;;,
			229; 0.370000; 0.370000; 0.370000; 1.000000;;,
			230; 0.650000; 0.649350; 0.649350; 1.000000;;,
			231; 0.650000; 0.649350; 0.649350; 1.000000;;,
			232; 0.370000; 0.370000; 0.370000; 1.000000;;,
			233; 0.370000; 0.370000; 0.370000; 1.000000;;,
			234; 0.650000; 0.649350; 0.649350; 1.000000;;,
			235; 0.650000; 0.649350; 0.649350; 1.000000;;,
			236; 0.370000; 0.370000; 0.370000; 1.000000;;,
			237; 0.370000; 0.370000; 0.370000; 1.000000;;,
			238; 0.650000; 0.649350; 0.649350; 1.000000;;,
			239; 0.650000; 0.649350; 0.649350; 1.000000;;,
			240; 0.370000; 0.370000; 0.370000; 1.000000;;,
			241; 0.370000; 0.370000; 0.370000; 1.000000;;,
			242; 0.650000; 0.649350; 0.649350; 1.000000;;,
			243; 0.650000; 0.649350; 0.649350; 1.000000;;,
			244; 0.370000; 0.370000; 0.370000; 1.000000;;,
			245; 0.370000; 0.370000; 0.370000; 1.000000;;,
			246; 0.650000; 0.649350; 0.649350; 1.000000;;,
			247; 0.650000; 0.649350; 0.649350; 1.000000;;,
			248; 0.370000; 0.370000; 0.370000; 1.000000;;,
			249; 0.370000; 0.370000; 0.370000; 1.000000;;,
			250; 0.650000; 0.649350; 0.649350; 1.000000;;,
			251; 0.650000; 0.649350; 0.649350; 1.000000;;,
			252; 0.370000; 0.370000; 0.370000; 1.000000;;,
			253; 0.370000; 0.370000; 0.370000; 1.000000;;,
			254; 0.650000; 0.649350; 0.649350; 1.000000;;,
			255; 0.650000; 0.649350; 0.649350; 1.000000;;,
			256; 0.370000; 0.370000; 0.370000; 1.000000;;,
			257; 0.370000; 0.370000; 0.370000; 1.000000;;,
			258; 0.650000; 0.649350; 0.649350; 1.000000;;,
			259; 0.650000; 0.649350; 0.649350; 1.000000;;,
			260; 0.370000; 0.370000; 0.370000; 1.000000;;,
			261; 0.370000; 0.370000; 0.370000; 1.000000;;,
			262; 0.650000; 0.649350; 0.649350; 1.000000;;,
			263; 0.650000; 0.649350; 0.649350; 1.000000;;,
			264; 0.370000; 0.370000; 0.370000; 1.000000;;,
			265; 0.370000; 0.370000; 0.370000; 1.000000;;,
			266; 0.650000; 0.649350; 0.649350; 1.000000;;,
			267; 0.650000; 0.649350; 0.649350; 1.000000;;,
			268; 0.370000; 0.370000; 0.370000; 1.000000;;,
			269; 0.370000; 0.370000; 0.370000; 1.000000;;,
			270; 0.650000; 0.649350; 0.649350; 1.000000;;,
			271; 0.650000; 0.649350; 0.649350; 1.000000;;,
			272; 0.370000; 0.370000; 0.370000; 1.000000;;,
			273; 0.370000; 0.370000; 0.370000; 1.000000;;,
			274; 0.650000; 0.649350; 0.649350; 1.000000;;,
			275; 0.650000; 0.649350; 0.649350; 1.000000;;,
			276; 0.370000; 0.370000; 0.370000; 1.000000;;,
			277; 0.370000; 0.370000; 0.370000; 1.000000;;,
			278; 0.650000; 0.649350; 0.649350; 1.000000;;,
			279; 0.650000; 0.649350; 0.649350; 1.000000;;;
		}
		MeshMaterialList {
			1;
			80;
			0,
			0,
			0,
			0,
			0,
			0,
			0,
			0,
			0,
			0,
			0,
			0,
			0,
			0,
			0,
			0,
			0,
			0,
			0,
			0,
			0,
			0,
			0,
			0,
			0,
			0,
			0,
			0,
			0,
			0,
			0,
			0,
			0,
			0,
			0,
			0,
			0,
			0,
			0,
			0,
			0,
			0,
			0,
			0,
			0,
			0,
			0,
			0,
			0,
			0,
			0,
			0,
			0,
			0,
			0,
			0,
			0,
			0,
			0,
			0,
			0,
			0,
			0,
			0,
			0,
			0,
			0,
			0,
			0,
			0,
			0,
			0,
			0,
			0,
			0,
			0,
			0,
			0,
			0,
			0;
			{blinn1}
		}
		VertexDuplicationIndices {
			280;
			62;
			0,
			1,
			2,
			3,
			1,
			5,
			6,
			2,
			5,
			9,
			10,
			6,
			9,
			13,
			14,
			10,
			13,
			17,
			18,
			14,
			17,
			21,
			22,
			18,
			21,
			25,
			26,
			22,
			25,
			29,
			30,
			26,
			29,
			33,
			34,
			30,
			33,
			37,
			38,
			34,
			37,
			41,
			42,
			38,
			41,
			45,
			46,
			42,
			45,
			49,
			50,
			46,
			49,
			53,
			54,
			50,
			53,
			57,
			58,
			54,
			57,
			61,
			62,
			58,
			61,
			65,
			66,
			62,
			65,
			69,
			70,
			66,
			69,
			73,
			74,
			70,
			73,
			0,
			3,
			74,
			1,
			0,
			82,
			5,
			1,
			82,
			9,
			5,
			82,
			13,
			9,
			82,
			17,
			13,
			82,
			21,
			17,
			82,
			25,
			21,
			82,
			29,
			25,
			82,
			33,
			29,
			82,
			37,
			33,
			82,
			41,
			37,
			82,
			45,
			41,
			82,
			49,
			45,
			82,
			53,
			49,
			82,
			57,
			53,
			82,
			61,
			57,
			82,
			65,
			61,
			82,
			69,
			65,
			82,
			73,
			69,
			82,
			0,
			73,
			82,
			140,
			141,
			142,
			141,
			144,
			142,
			144,
			147,
			142,
			147,
			150,
			142,
			150,
			153,
			142,
			153,
			156,
			142,
			156,
			159,
			142,
			159,
			162,
			142,
			162,
			165,
			142,
			165,
			168,
			142,
			168,
			171,
			142,
			171,
			174,
			142,
			174,
			177,
			142,
			177,
			180,
			142,
			180,
			183,
			142,
			183,
			186,
			142,
			186,
			189,
			142,
			189,
			192,
			142,
			192,
			195,
			142,
			195,
			140,
			142,
			62,
			66,
			189,
			186,
			58,
			62,
			186,
			183,
			54,
			58,
			183,
			180,
			50,
			54,
			180,
			177,
			46,
			50,
			177,
			174,
			42,
			46,
			174,
			171,
			38,
			42,
			171,
			168,
			34,
			38,
			168,
			165,
			30,
			34,
			165,
			162,
			26,
			30,
			162,
			159,
			22,
			26,
			159,
			156,
			18,
			22,
			156,
			153,
			14,
			18,
			153,
			150,
			10,
			14,
			150,
			147,
			6,
			10,
			147,
			144,
			2,
			6,
			144,
			141,
			3,
			2,
			141,
			140,
			74,
			3,
			140,
			195,
			70,
			74,
			195,
			192,
			66,
			70,
			192,
			189;
		}
		DeclData {
			2;
			2;0;6;0;,
			2;0;7;0;;
			1680;
			1057759879,
			3207673719,
			3203450102,
			1034106695,
			1058684032,
			3209383122,
			1057501378,
			3209426139,
			3197293825,
			1024578377,
			1052247929,
			3211704266,
			1065225496,
			3185641946,
			1029951810,
			1035320704,
			1051087060,
			3211857045,
			1065212686,
			3186840770,
			1028618222,
			1038477686,
			1058624141,
			3209362373,
			1057501378,
			3209426139,
			3197293825,
			1024578377,
			1052247929,
			3211704266,
			1057305602,
			3210368410,
			3174135640,
			1004991832,
			1029791692,
			3212811032,
			1065241297,
			3184299825,
			1030490334,
			1031066756,
			1016639437,
			3212803947,
			1065225496,
			3185641946,
			1029951810,
			1035320704,
			1051087060,
			3211857045,
			1057305602,
			3210368410,
			3174135640,
			1004991832,
			1029791692,
			3212811032,
			1057236644,
			3210007484,
			1045612456,
			3167250850,
			3196212431,
			3212279010,
			1065258647,
			3182941594,
			1030169422,
			1021741033,
			3197391847,
			3212110460,
			1065241297,
			3184299825,
			1030490334,
			1031066756,
			1016639437,
			3212803947,
			1057236644,
			3210007484,
			1045612456,
			3167250850,
			3196212431,
			3212279010,
			1057301273,
			3208378685,
			1054827872,
			3177498276,
			3205102257,
			3210160290,
			1065275842,
			3181700436,
			1029020520,
			3142089856,
			3205622635,
			3209844481,
			1065258647,
			3182941594,
			1030169422,
			1021741033,
			3197391847,
			3212110460,
			1057301273,
			3208378685,
			1054827872,
			3177498276,
			3205102257,
			3210160290,
			1057464068,
			3205890748,
			1058863211,
			3183558134,
			3208796643,
			3206864181,
			1065291176,
			3180703155,
			1027147870,
			3170665261,
			3209394379,
			3206227857,
			1065275842,
			3181700436,
			1029020520,
			3142089856,
			3205622635,
			3209844481,
			1057541131,
			3205132847,
			1059474555,
			3179398684,
			3209347185,
			3206247198,
			1057793529,
			3199678669,
			1061243532,
			3185158415,
			3211599271,
			3199806234,
			1065303232,
			3180030223,
			1024759756,
			3176538513,
			3211866297,
			3198780603,
			1065291231,
			3180691723,
			1027165289,
			3170607959,
			3209394510,
			3206227776,
			1057793529,
			3199678669,
			1061243532,
			3185158415,
			3211599271,
			3199806234,
			1058172990,
			3186377666,
			1062200488,
			3187050950,
			3212688332,
			3177539344,
			1065310737,
			3179765627,
			1020716857,
			3179683172,
			3212796160,
			3166800529,
			1065303232,
			3180030223,
			1024759756,
			3176538513,
			3211866297,
			3198780603,
			1058172990,
			3186377666,
			1062200488,
			3187050950,
			3212688332,
			3177539344,
			1058594345,
			1040697564,
			1061848471,
			3187668615,
			3212145906,
			1048745553,
			1065312971,
			3179930979,
			1015258365,
			3180169779,
			3212093022,
			1049791862,
			1065310737,
			3179765627,
			1020716857,
			3179683172,
			3212796160,
			3166800529,
			1058594345,
			1040697564,
			1061848471,
			3187668615,
			3212145906,
			1048745553,
			1059016427,
			1052327394,
			1060221923,
			3186948290,
			3210025179,
			1057654089,
			1065309750,
			3180506047,
			1004391036,
			3179318858,
			3209825763,
			1058108052,
			1065312971,
			3179930979,
			1015258365,
			3180169779,
			3212093022,
			1049791862,
			1059016427,
			1052327394,
			1060221923,
			3186948290,
			3210025179,
			1057654089,
			1059397910,
			1057800106,
			1057479769,
			3184959804,
			3206533532,
			1061563737,
			1065301382,
			3181435644,
			3125189911,
			3175146373,
			3206216303,
			1061906160,
			1065309750,
			3180506047,
			1004391036,
			3179318858,
			3209825763,
			1058108052,
			1059397910,
			1057800106,
			1057479769,
			3184959804,
			3206533532,
			1061563737,
			1059672602,
			1059836011,
			1051421729,
			3183627196,
			3200017332,
			1064094822,
			1065288651,
			3182632510,
			3149621476,
			3166825074,
			3198787382,
			1064400791,
			1065301382,
			3181435644,
			3125189911,
			3175146373,
			3206216303,
			1061906160,
			1059746422,
			1060176169,
			1049596479,
			3177596680,
			3198685874,
			1064395408,
			1059897268,
			1060896386,
			1033247083,
			3176851599,
			3176040540,
			1065307868,
			1065272867,
			3183972294,
			3154050360,
			1001363794,
			3167592618,
			1065347690,
			1065288693,
			3182627968,
			3149828603,
			3166770392,
			3198787682,
			1064400781,
			1059897268,
			1060896386,
			1033247083,
			3176851599,
			3176040540,
			1065307868,
			1059966231,
			1060535427,
			3191087364,
			3165887055,
			1048883317,
			1064775844,
			1065255507,
			3185331122,
			3151494724,
			1024953514,
			1049691313,
			1064654202,
			1065272867,
			3183972294,
			3154050360,
			1001363794,
			3167592618,
			1065347690,
			1059966231,
			1060535427,
			3191087364,
			3165887055,
			1048883317,
			1064775844,
			1059901581,
			1058906212,
			3201308185,
			1008418896,
			1057696031,
			1062657007,
			1065238296,
			3186573356,
			3138884185,
			1032564380,
			1058030523,
			1062388227,
			1065255507,
			3185331122,
			3151494724,
			1024953514,
			1049691313,
			1064654202,
			1059901581,
			1058906212,
			3201308185,
			1008418896,
			1057696031,
			1062657007,
			1059719817,
			1055874756,
			3205845710,
			1019930286,
			1061429010,
			1059351085,
			1065223020,
			3187570618,
			999890508,
			1036276166,
			1061802449,
			1058771566,
			1065238296,
			3186573356,
			3138884185,
			1032564380,
			1058030523,
			1062388227,
			1059676752,
			1054352300,
			3206456144,
			1031916680,
			1061863666,
			1058763360,
			1059409242,
			1047856480,
			3208225183,
			1031099082,
			1064192844,
			1052283589,
			1065210935,
			3187956064,
			1012824048,
			1039169044,
			1064274214,
			1051351759,
			1065222864,
			3187580889,
			999763774,
			1036289095,
			1061802247,
			1058771573,
			1059409242,
			1047856480,
			3208225183,
			1031099082,
			1064192844,
			1052283589,
			1059029748,
			3142816407,
			3209181811,
			1033342239,
			1065281900,
			1029743014,
			1065203420,
			3188088683,
			1019312934,
			1040564983,
			1065204064,
			1020192880,
			1065210935,
			3187956064,
			1012824048,
			1039169044,
			1064274214,
			1051351759,
			1059029748,
			3142816407,
			3209181811,
			1033342239,
			1065281900,
			1029743014,
			1058608328,
			3196100566,
			3208829267,
			1033958794,
			1064739386,
			3196269017,
			1065201163,
			3188007173,
			1024091957,
			1040807321,
			1064500940,
			3197220728,
			1065203420,
			3188088683,
			1019312934,
			1040564983,
			1065204064,
			1020192880,
			1058608328,
			3196100566,
			3208829267,
			1033958794,
			1064739386,
			3196269017,
			1058186269,
			3203790570,
			3207202264,
			1033236850,
			1062618554,
			3205157607,
			1065204408,
			3187718990,
			1026587802,
			1040380926,
			1062233713,
			3205564306,
			1065201163,
			3188007173,
			1024091957,
			1040807321,
			1064500940,
			3197220728,
			1058186269,
			3203790570,
			3207202264,
			1033236850,
			1062618554,
			3205157607,
			1057822133,
			3207065701,
			3204711286,
			1027825696,
			1059342883,
			3208901330,
			1065212901,
			3186831615,
			1028593977,
			1038462527,
			1058624368,
			3209362471,
			1065204408,
			3187718990,
			1026587802,
			1040380926,
			1062233713,
			3205564306,
			1055082547,
			3201553317,
			3209394908,
			3197581181,
			1061492961,
			3205550403,
			1057687687,
			3202942604,
			3207898017,
			3184998514,
			1061945886,
			3206040265,
			3172066307,
			3205573670,
			3209865489,
			1036202569,
			1062295299,
			3205583243,
			1050200901,
			3202237021,
			3210320275,
			3201975212,
			1060927150,
			3204878478,
			1055082547,
			3201553317,
			3209394908,
			3197581181,
			1061492961,
			3205550403,
			3172066307,
			3205573670,
			3209865489,
			1036202569,
			1062295299,
			3205583243,
			1040783743,
			3204301134,
			3210457197,
			3204419725,
			1060561032,
			3204127575,
			1050200901,
			3202237021,
			3210320275,
			3201975212,
			1060927150,
			3204878478,
			3172066307,
			3205573670,
			3209865489,
			1036202569,
			1062295299,
			3205583243,
			3172071768,
			3205573305,
			3209865727,
			3204814703,
			1060535005,
			3203394424,
			1040783743,
			3204301134,
			3210457197,
			3204419725,
			1060561032,
			3204127575,
			3172066307,
			3205573670,
			3209865489,
			1036202569,
			1062295299,
			3205583243,
			3192966122,
			3206438257,
			3208789801,
			3204380444,
			1060870961,
			3203228404,
			3172071768,
			3205573305,
			3209865727,
			3204814703,
			1060535005,
			3203394424,
			3172066307,
			3205573670,
			3209865489,
			1036202569,
			1062295299,
			3205583243,
			3199919684,
			3206567636,
			3207616027,
			3201902676,
			1061503021,
			3203637533,
			3192966122,
			3206438257,
			3208789801,
			3204380444,
			1060870961,
			3203228404,
			3172066307,
			3205573670,
			3209865489,
			1036202569,
			1062295299,
			3205583243,
			3204550225,
			3205727996,
			3206825714,
			3197487606,
			1062242831,
			3204462116,
			3199919684,
			3206567636,
			3207616027,
			3201902676,
			1061503021,
			3203637533,
			3172066307,
			3205573670,
			3209865489,
			1036202569,
			1062295299,
			3205583243,
			3206150452,
			3203584568,
			3206845778,
			3184610156,
			1062732514,
			3204898679,
			3204550225,
			3205727996,
			3206825714,
			3197487606,
			1062242831,
			3204462116,
			3172066307,
			3205573670,
			3209865489,
			1036202569,
			1062295299,
			3205583243,
			3206488691,
			3199654668,
			3207756152,
			1039931434,
			1062575254,
			3205072473,
			3206150452,
			3203584568,
			3206845778,
			3184610156,
			1062732514,
			3204898679,
			3172066307,
			3205573670,
			3209865489,
			1036202569,
			1062295299,
			3205583243,
			3205469877,
			3197091451,
			3209126268,
			1051439555,
			1061713744,
			3204847245,
			3206488691,
			3199654668,
			3207756152,
			1039931434,
			1062575254,
			3205072473,
			3172066307,
			3205573670,
			3209865489,
			1036202569,
			1062295299,
			3205583243,
			3202658145,
			3197032694,
			3210321889,
			1056862479,
			1060533652,
			3204281266,
			3205469877,
			3197091451,
			3209126268,
			1051439555,
			1061713744,
			3204847245,
			3172066307,
			3205573670,
			3209865489,
			1036202569,
			1062295299,
			3205583243,
			3198127001,
			3199270093,
			3210909184,
			1058657832,
			1059478892,
			3203286238,
			3202658145,
			3197032694,
			3210321889,
			1056862479,
			1060533652,
			3204281266,
			3172066307,
			3205573670,
			3209865489,
			1036202569,
			1062295299,
			3205583243,
			3190911534,
			3202848475,
			3210737322,
			1059595093,
			1058790891,
			3202598944,
			3198127001,
			3199270093,
			3210909184,
			1058657832,
			1059478892,
			3203286238,
			3172066307,
			3205573670,
			3209865489,
			1036202569,
			1062295299,
			3205583243,
			3172072012,
			3205573302,
			3209865730,
			1059886904,
			1058544883,
			3202389708,
			3190911534,
			3202848475,
			3210737322,
			1059595093,
			1058790891,
			3202598944,
			3172066307,
			3205573670,
			3209865489,
			1036202569,
			1062295299,
			3205583243,
			1037268102,
			3207167136,
			3208513484,
			1059592202,
			1058741969,
			3202740398,
			3172072012,
			3205573302,
			3209865730,
			1059886904,
			1058544883,
			3202389708,
			3172066307,
			3205573670,
			3209865489,
			1036202569,
			1062295299,
			3205583243,
			1048235850,
			3208060077,
			3207040480,
			1058649866,
			1059345917,
			3203671181,
			1037268102,
			3207167136,
			3208513484,
			1059592202,
			1058741969,
			3202740398,
			3172066307,
			3205573670,
			3209865489,
			1036202569,
			1062295299,
			3205583243,
			1053084869,
			3208003121,
			3205920795,
			1056829024,
			1060256902,
			3204765712,
			1048235850,
			3208060077,
			3207040480,
			1058649866,
			1059345917,
			3203671181,
			3172066307,
			3205573670,
			3209865489,
			1036202569,
			1062295299,
			3205583243,
			1057005593,
			3206954669,
			3205636469,
			1051381713,
			1061237667,
			3205537464,
			1053084869,
			3208003121,
			3205920795,
			1056829024,
			1060256902,
			3204765712,
			3172066307,
			3205573670,
			3209865489,
			1036202569,
			1062295299,
			3205583243,
			1058050713,
			3205260072,
			3206406485,
			1039600864,
			1061899114,
			3206053333,
			1057005593,
			3206954669,
			3205636469,
			1051381713,
			1061237667,
			3205537464,
			3172066307,
			3205573670,
			3209865489,
			1036202569,
			1062295299,
			3205583243,
			1057687687,
			3202942604,
			3207898017,
			3184998514,
			1061945886,
			3206040265,
			1058050713,
			3205260072,
			3206406485,
			1039600864,
			1061899114,
			3206053333,
			3172066307,
			3205573670,
			3209865489,
			1036202569,
			1062295299,
			3205583243,
			3205474935,
			3197079617,
			3209124755,
			3198930727,
			3209196118,
			1057363095,
			3202664308,
			3197020768,
			3210322227,
			3204357195,
			3208014431,
			1056794764,
			3172066305,
			3205573670,
			3209865489,
			3183686217,
			3209778947,
			1058099595,
			3202664308,
			3197020768,
			3210322227,
			3204357195,
			3208014431,
			1056794764,
			3198130112,
			3199261312,
			3210910349,
			3206147559,
			3206958502,
			1055798162,
			3172066305,
			3205573670,
			3209865489,
			3183686217,
			3209778947,
			1058099595,
			3198130112,
			3199261312,
			3210910349,
			3206147559,
			3206958502,
			1055798162,
			3190913976,
			3202844083,
			3210738336,
			3207084885,
			3206269921,
			1055109787,
			3172066305,
			3205573670,
			3209865489,
			3183686217,
			3209778947,
			1058099595,
			3190913976,
			3202844083,
			3210738336,
			3207084885,
			3206269921,
			1055109787,
			3172071955,
			3205573300,
			3209865732,
			3207376691,
			3206023785,
			1054900040,
			3172066305,
			3205573670,
			3209865489,
			3183686217,
			3209778947,
			1058099595,
			3172071955,
			3205573300,
			3209865732,
			3207376691,
			3206023785,
			1054900040,
			1037273164,
			3207168901,
			3208511822,
			3207082020,
			3206221131,
			1055250803,
			3172066305,
			3205573670,
			3209865489,
			3183686217,
			3209778947,
			1058099595,
			1037273164,
			3207168901,
			3208511822,
			3207082020,
			3206221131,
			1055250803,
			1048242470,
			3208062805,
			3207036878,
			3206139625,
			3206825797,
			1056182280,
			3172066305,
			3205573670,
			3209865489,
			3183686217,
			3209778947,
			1058099595,
			1048242470,
			3208062805,
			3207036878,
			3206139625,
			3206825797,
			1056182280,
			1053091448,
			3208005679,
			3205915544,
			3204323776,
			3207737978,
			1057280205,
			3172066305,
			3205573670,
			3209865489,
			3183686217,
			3209778947,
			1058099595,
			1053091448,
			3208005679,
			3205915544,
			3204323776,
			3207737978,
			1057280205,
			1057010962,
			3206955564,
			3205630720,
			3198872888,
			3208720246,
			1058053019,
			3172066305,
			3205573670,
			3209865489,
			3183686217,
			3209778947,
			1058099595,
			1057010962,
			3206955564,
			3205630720,
			3198872888,
			3208720246,
			1058053019,
			1058057505,
			3205258077,
			3206402036,
			3187088040,
			3209382723,
			1058569646,
			3172066305,
			3205573670,
			3209865489,
			3183686217,
			3209778947,
			1058099595,
			1058057505,
			3205258077,
			3206402036,
			3187088040,
			3209382723,
			1058569646,
			1057694086,
			3202933386,
			3207896063,
			1037541268,
			3209429271,
			1058556384,
			3172066305,
			3205573670,
			3209865489,
			3183686217,
			3209778947,
			1058099595,
			1057694086,
			3202933386,
			3207896063,
			1037541268,
			3209429271,
			1058556384,
			1055091760,
			3201542555,
			3209395136,
			1050109194,
			3208975203,
			1058065619,
			3172066305,
			3205573670,
			3209865489,
			3183686217,
			3209778947,
			1058099595,
			1055091760,
			3201542555,
			3209395136,
			1050109194,
			3208975203,
			1058065619,
			1050206220,
			3202228487,
			3210321518,
			1054505329,
			3208408248,
			1057392816,
			3172066305,
			3205573670,
			3209865489,
			3183686217,
			3209778947,
			1058099595,
			1050206220,
			3202228487,
			3210321518,
			1054505329,
			3208408248,
			1057392816,
			1040788411,
			3204296747,
			3210458281,
			1056950349,
			3208041428,
			1056638866,
			3172066305,
			3205573670,
			3209865489,
			3183686217,
			3209778947,
			1058099595,
			1040788411,
			3204296747,
			3210458281,
			1056950349,
			3208041428,
			1056638866,
			3172071555,
			3205573317,
			3209865721,
			1057338214,
			3208015174,
			1055905405,
			3172066305,
			3205573670,
			3209865489,
			3183686217,
			3209778947,
			1058099595,
			3172071555,
			3205573317,
			3209865721,
			1057338214,
			3208015174,
			1055905405,
			3192970661,
			3206440003,
			3208788073,
			1056911056,
			3208351378,
			1055739646,
			3172066305,
			3205573670,
			3209865489,
			3183686217,
			3209778947,
			1058099595,
			3192970661,
			3206440003,
			3208788073,
			1056911056,
			3208351378,
			1055739646,
			3199924823,
			3206570187,
			3207612342,
			1054432764,
			3208984178,
			1056149704,
			3172066305,
			3205573670,
			3209865489,
			3183686217,
			3209778947,
			1058099595,
			3199924823,
			3206570187,
			3207612342,
			1054432764,
			3208984178,
			1056149704,
			3204554628,
			3205729943,
			3206820490,
			1050015610,
			3209725154,
			1056977221,
			3172066305,
			3205573670,
			3209865489,
			3183686217,
			3209778947,
			1058099595,
			3204554628,
			3205729943,
			3206820490,
			1050015610,
			3209725154,
			1056977221,
			3206156546,
			3203583722,
			3206840385,
			1037152998,
			3210215974,
			1057414688,
			3172066305,
			3205573670,
			3209865489,
			3183686217,
			3209778947,
			1058099595,
			3206156546,
			3203583722,
			3206840385,
			1037152998,
			3210215974,
			1057414688,
			3206495128,
			3199647237,
			3207752313,
			3187418578,
			3210058836,
			1057588829,
			3172066305,
			3205573670,
			3209865489,
			3183686217,
			3209778947,
			1058099595,
			3206495128,
			3199647237,
			3207752313,
			3187418578,
			3210058836,
			1057588829,
			3205474935,
			3197079617,
			3209124755,
			3198930727,
			3209196118,
			1057363095,
			3172066305,
			3205573670,
			3209865489,
			3183686217,
			3209778947,
			1058099595,
			1065210935,
			3187956064,
			1012824048,
			1039169044,
			1064274214,
			1051351759,
			1065203420,
			3188088683,
			1019312934,
			1040564983,
			1065204064,
			1020192880,
			1058307327,
			3172798615,
			1062227460,
			1033575137,
			1065304620,
			3152366518,
			1057910847,
			3197235028,
			1061670583,
			1031922070,
			1064533678,
			1050325533,
			1065222864,
			3187580889,
			999763774,
			1036289095,
			1061802247,
			1058771573,
			1065210935,
			3187956064,
			1012824048,
			1039169044,
			1064274214,
			1051351759,
			1057910847,
			3197235028,
			1061670583,
			1031922070,
			1064533678,
			1050325533,
			1057594778,
			3204240067,
			1060043496,
			1023672681,
			1062367491,
			1058114210,
			1065238296,
			3186573356,
			3138884185,
			1032564380,
			1058030523,
			1062388227,
			1065223020,
			3187570618,
			999890508,
			1036276166,
			1061802449,
			1058771566,
			1057548197,
			3205130623,
			1059470591,
			1031915872,
			1061863429,
			1058763678,
			1057354777,
			3207638469,
			1056961057,
			1014803056,
			1058544721,
			1062067948,
			1065255507,
			3185331122,
			3151494724,
			1024953514,
			1049691313,
			1064654202,
			1065238296,
			3186573356,
			3138884185,
			1032564380,
			1058030523,
			1062388227,
			1057354777,
			3207638469,
			1056961057,
			1014803056,
			1058544721,
			1062067948,
			1057249624,
			3209631013,
			1049581277,
			3162449840,
			1050861588,
			1064479525,
			1065272867,
			3183972294,
			3154050360,
			1001363794,
			3167592618,
			1065347690,
			1065255507,
			3185331122,
			3151494724,
			1024953514,
			1049691313,
			1064654202,
			1057249624,
			3209631013,
			1049581277,
			3162449840,
			1050861588,
			1064479525,
			1057277437,
			3210392573,
			1024173925,
			3175205754,
			1010204687,
			1065333385,
			1065288693,
			3182627968,
			3149828603,
			3166770392,
			3198787682,
			1064400781,
			1065272867,
			3183972294,
			3154050360,
			1001363794,
			3167592618,
			1065347690,
			1057277437,
			3210392573,
			1024173925,
			3175205754,
			1010204687,
			1065333385,
			1057408881,
			3209942556,
			3192379024,
			3182557879,
			3197090414,
			1064612460,
			1065301382,
			3181435644,
			3125189911,
			3175146373,
			3206216303,
			1061906160,
			1065288651,
			3182632510,
			3149621476,
			3166825074,
			3198787382,
			1064400791,
			1057478597,
			3209645896,
			3196069283,
			3177593814,
			3198685610,
			1064395466,
			1057708273,
			3208052621,
			3202401301,
			3184425912,
			3205711082,
			1062194503,
			1065309750,
			3180506047,
			1004391036,
			3179318858,
			3209825763,
			1058108052,
			1065301382,
			3181435644,
			3125189911,
			3175146373,
			3206216303,
			1061906160,
			1057708273,
			3208052621,
			3202401301,
			3184425912,
			3205711082,
			1062194503,
			1058069171,
			3205180076,
			3206460248,
			3186644578,
			3209436239,
			1058509048,
			1065312971,
			3179930979,
			1015258365,
			3180169779,
			3212093022,
			1049791862,
			1065309750,
			3180506047,
			1004391036,
			3179318858,
			3209825763,
			1058108052,
			1058069171,
			3205180076,
			3206460248,
			3186644578,
			3209436239,
			1058509048,
			1058482806,
			3198575986,
			3208453222,
			3187625317,
			3211848324,
			1050736063,
			1065310737,
			3179765627,
			1020716857,
			3179683172,
			3212796160,
			3166800529,
			1065312971,
			3179930979,
			1015258365,
			3180169779,
			3212093022,
			1049791862,
			1058482806,
			3198575986,
			3208453222,
			3187625317,
			3211848324,
			1050736063,
			1058908788,
			3181675321,
			3209208496,
			3187270564,
			3212711218,
			1002403112,
			1065303232,
			3180030223,
			1024759756,
			3176538513,
			3211866297,
			3198780603,
			1065310737,
			3179765627,
			1020716857,
			3179683172,
			3212796160,
			3166800529,
			1058908788,
			3181675321,
			3209208496,
			3187270564,
			3212711218,
			1002403112,
			1059305311,
			1042964470,
			3208651901,
			3185617929,
			3211940256,
			3197848235,
			1065291231,
			3180691723,
			1027165289,
			3170607959,
			3209394510,
			3206227776,
			1065303232,
			3180030223,
			1024759756,
			3176538513,
			3211866297,
			3198780603,
			1059305311,
			1042964470,
			3208651901,
			3185617929,
			3211940256,
			3197848235,
			1059602582,
			1052779388,
			3207025499,
			3184540770,
			3209735600,
			3205626955,
			1065275842,
			3181700436,
			1029020520,
			3142089856,
			3205622635,
			3209844481,
			1065291176,
			3180703155,
			1027147870,
			3170665261,
			3209394379,
			3206227857,
			1059682991,
			1054345388,
			3206451833,
			3179398828,
			3209347200,
			3206247176,
			1059861441,
			1058164667,
			3203440785,
			3179069142,
			3205951617,
			3209570838,
			1065258647,
			3182941594,
			1030169422,
			1021741033,
			3197391847,
			3212110460,
			1065275842,
			3181700436,
			1029020520,
			3142089856,
			3205622635,
			3209844481,
			1059861441,
			1058164667,
			3203440785,
			3179069142,
			3205951617,
			3209570838,
			1059966620,
			1060157571,
			3196060547,
			3170602752,
			3198191910,
			3211982505,
			1065241297,
			3184299825,
			1030490334,
			1031066756,
			1016639437,
			3212803947,
			1065258647,
			3182941594,
			1030169422,
			1021741033,
			3197391847,
			3212110460,
			1059966620,
			1060157571,
			3196060547,
			3170602752,
			3198191910,
			3211982505,
			1059938822,
			1060919276,
			3146215919,
			981921481,
			3151439406,
			3212836495,
			1065225496,
			3185641946,
			1029951810,
			1035320704,
			1051087060,
			3211857045,
			1065241297,
			3184299825,
			1030490334,
			1031066756,
			1016639437,
			3212803947,
			1059938822,
			1060919276,
			3146215919,
			981921481,
			3151439406,
			3212836495,
			1059780745,
			1060375225,
			1048148424,
			1022954370,
			1050296682,
			3212049188,
			1065212686,
			3186840770,
			1028618222,
			1038477686,
			1058624141,
			3209362373,
			1065225496,
			3185641946,
			1029951810,
			1035320704,
			1051087060,
			3211857045,
			1059780745,
			1060375225,
			1048148424,
			1022954370,
			1050296682,
			3212049188,
			1059523546,
			1058765346,
			1055393110,
			1026267208,
			1058108806,
			3209847563,
			1065204408,
			3187718990,
			1026587802,
			1040380926,
			1062233713,
			3205564306,
			1065212901,
			3186831615,
			1028593977,
			1038462527,
			1058624368,
			3209362471,
			1059464332,
			1058195134,
			1056965964,
			1034104534,
			1058683889,
			3209383258,
			1059146958,
			1054446968,
			1059479943,
			1032946113,
			1062029650,
			3206012210,
			1065201163,
			3188007173,
			1024091957,
			1040807321,
			1064500940,
			3197220728,
			1065204408,
			3187718990,
			1026587802,
			1040380926,
			1062233713,
			3205564306,
			1059146958,
			1054446968,
			1059479943,
			1032946113,
			1062029650,
			3206012210,
			1058733254,
			1045643613,
			1061472713,
			1033928127,
			1064441844,
			3198258103,
			1065203420,
			3188088683,
			1019312934,
			1040564983,
			1065204064,
			1020192880,
			1065201163,
			3188007173,
			1024091957,
			1040807321,
			1064500940,
			3197220728,
			1058733254,
			1045643613,
			1061472713,
			1033928127,
			1064441844,
			3198258103,
			1058307327,
			3172798615,
			1062227460,
			1033575137,
			1065304620,
			3152366518;
		}
	}
}
