xof 0303txt 0032

Material lambert1 {
	 0.400000; 0.400000; 0.400000; 1.000000;;
	 0.000000;
	 0.000000; 0.000000; 0.000000;;
	 0.000000; 0.000000; 0.000000;;
}
Material lambert2 {
	 0.800000; 0.800000; 0.800000; 1.000000;;
	 0.000000;
	 0.000000; 0.000000; 0.000000;;
	 0.000000; 0.000000; 0.000000;;
	TextureFileName {".\\COMPASS_DIF_01.tga";}
}
Frame COMPASS_NEEDLE {
	FrameTransformMatrix {
		1.000000,0.000000,-0.000000,0.000000,0.000000,1.000000,-0.000000,0.000000,-0.000000,-0.000000,1.000000,0.000000,0.000000,0.000000,-0.000000,1.000000;;
	}
	Mesh COMPASS_NEEDLEShape {
		76;
		 0.000000;  0.346415; -0.129295;,
		 0.000000;  0.364739; -0.083257;,
		-0.136628;  0.301016; -0.083257;,
		-0.132810;  0.290646; -0.129295;,
		-0.127568;  0.290646;  0.086062;,
		-0.008968;  0.363082;  0.104855;,
		 0.000000;  0.196091;  0.749095;,
		 0.127568;  0.290646;  0.086062;,
		 0.183569;  0.218278;  0.091421;,
		 0.000000;  0.142421;  0.799898;,
		 0.000000;  0.196091;  0.749095;,
		 0.191111;  0.218278; -0.138696;,
		 0.196607;  0.218278; -0.089503;,
		 0.136628;  0.301016; -0.083257;,
		 0.132810;  0.290646; -0.129295;,
		 0.000000;  0.142421;  0.799898;,
		-0.183569;  0.218278;  0.091421;,
		-0.127568;  0.290646;  0.086062;,
		 0.000000;  0.196091;  0.749095;,
		-0.196607;  0.218278; -0.089503;,
		-0.191111;  0.218278; -0.138696;,
		-0.132810;  0.290646; -0.129295;,
		-0.136628;  0.301016; -0.083257;,
		-0.191111;  0.218278; -0.138696;,
		 0.000000;  0.142421; -0.784162;,
		 0.000000;  0.196091; -0.733359;,
		-0.132810;  0.290646; -0.129295;,
		 0.000000;  0.196091; -0.733359;,
		 0.000000;  0.346415; -0.129295;,
		-0.132810;  0.290646; -0.129295;,
		 0.000000;  0.142421; -0.784162;,
		 0.191111;  0.218278; -0.138696;,
		 0.132810;  0.290646; -0.129295;,
		 0.000000;  0.196091; -0.733359;,
		 0.334072;  0.218278;  0.002428;,
		 0.183569;  0.218278;  0.091421;,
		 0.127568;  0.290646;  0.086062;,
		 0.232157;  0.319324;  0.002777;,
		-0.232157;  0.319324;  0.002777;,
		 0.000000;  0.405046;  0.002777;,
		-0.008968;  0.363082;  0.104855;,
		-0.127568;  0.290646;  0.086062;,
		-0.183569;  0.218278;  0.091421;,
		-0.334072;  0.218278;  0.002428;,
		-0.232157;  0.319324;  0.002777;,
		-0.127568;  0.290646;  0.086062;,
		 0.196607;  0.218278; -0.089503;,
		 0.334072;  0.218278;  0.002428;,
		 0.232157;  0.319324;  0.002777;,
		 0.136628;  0.301016; -0.083257;,
		-0.136628;  0.301016; -0.083257;,
		 0.000000;  0.364739; -0.083257;,
		 0.000000;  0.405046;  0.002777;,
		-0.232157;  0.319324;  0.002777;,
		-0.334072;  0.218278;  0.002428;,
		-0.196607;  0.218278; -0.089503;,
		-0.136628;  0.301016; -0.083257;,
		-0.232157;  0.319324;  0.002777;,
		 0.000000;  0.196091; -0.733359;,
		 0.132810;  0.290646; -0.129295;,
		 0.000000;  0.346415; -0.129295;,
		 0.132810;  0.290646; -0.129295;,
		 0.136628;  0.301016; -0.083257;,
		 0.000000;  0.364739; -0.083257;,
		 0.000000;  0.346415; -0.129295;,
		 0.000000;  0.405046;  0.002777;,
		 0.000000;  0.364739; -0.083257;,
		 0.136628;  0.301016; -0.083257;,
		 0.232157;  0.319324;  0.002777;,
		-0.008968;  0.363082;  0.104855;,
		 0.000000;  0.405046;  0.002777;,
		 0.232157;  0.319324;  0.002777;,
		 0.127568;  0.290646;  0.086062;,
		 0.000000;  0.196091;  0.749095;,
		-0.008968;  0.363082;  0.104855;,
		 0.127568;  0.290646;  0.086062;;
		20;
		4;3,2,1,0;,
		3;6,5,4;,
		4;10,9,8,7;,
		4;14,13,12,11;,
		4;18,17,16,15;,
		4;22,21,20,19;,
		4;26,25,24,23;,
		3;29,28,27;,
		4;33,32,31,30;,
		4;37,36,35,34;,
		4;41,40,39,38;,
		4;45,44,43,42;,
		4;49,48,47,46;,
		4;53,52,51,50;,
		4;57,56,55,54;,
		3;60,59,58;,
		4;64,63,62,61;,
		4;68,67,66,65;,
		4;72,71,70,69;,
		3;75,74,73;;
		MeshNormals {
			29;
			 0.000000, 0.949619,-0.313408;,
			-0.000000, 0.913943,-0.405843;,
			-0.530403, 0.733328,-0.425326;,
			-0.602900, 0.766109,-0.222685;,
			-0.586333, 0.668975, 0.456821;,
			-0.020533, 0.912661, 0.408201;,
			-0.018950, 0.942433, 0.333857;,
			 0.569389, 0.679138, 0.463214;,
			 0.687815, 0.490641, 0.534960;,
			 0.000000, 0.888247, 0.459367;,
			 0.780053, 0.609240,-0.142636;,
			 0.681979, 0.573169,-0.454293;,
			 0.530403, 0.733328,-0.425326;,
			 0.602900, 0.766109,-0.222685;,
			-0.687815, 0.490641, 0.534960;,
			-0.681979, 0.573169,-0.454293;,
			-0.780053, 0.609240,-0.142636;,
			-0.813158, 0.510070,-0.280362;,
			 0.000000, 0.876344,-0.481687;,
			 0.000000, 0.941555,-0.336858;,
			-0.622647, 0.736770,-0.263593;,
			 0.000000, 0.970403,-0.241490;,
			 0.813158, 0.510070,-0.280362;,
			 0.622647, 0.736770,-0.263593;,
			 0.726704, 0.686050, 0.035149;,
			 0.551829, 0.833309, 0.032882;,
			-0.555616, 0.831055, 0.025271;,
			-0.006122, 0.999655, 0.025533;,
			-0.726704, 0.686050, 0.035149;;
			20;
			4;3,2,1,0;,
			3;6,5,4;,
			4;6,9,8,7;,
			4;13,12,11,10;,
			4;6,4,14,9;,
			4;2,3,16,15;,
			4;20,19,18,17;,
			3;20,21,19;,
			4;19,23,22,18;,
			4;25,7,8,24;,
			4;4,5,27,26;,
			4;4,26,28,14;,
			4;12,25,24,11;,
			4;26,27,1,2;,
			4;26,2,15,28;,
			3;21,23,19;,
			4;0,1,12,13;,
			4;25,12,1,27;,
			4;7,25,27,5;,
			3;7,5,6;;
		}
		MeshTextureCoords {
			76;
			 0.031123;-0.894886;,
			 0.042457;-0.898878;,
			 0.033174;-0.925240;,
			 0.022318;-0.919886;,
			 0.074611;-0.937321;,
			 0.083108;-0.913194;,
			 0.257596;-0.974646;,
			 0.091605;-0.889068;,
			 0.102649;-0.867804;,
			 0.265753;-0.977518;,
			 0.257596;-0.974646;,
			 0.045026;-0.845363;,
			 0.057978;-0.848359;,
			 0.051741;-0.872517;,
			 0.039927;-0.869886;,
			 0.265753;-0.977518;,
			 0.069894;-0.960813;,
			 0.074611;-0.937321;,
			 0.257596;-0.974646;,
			 0.022896;-0.947974;,
			 0.010924;-0.942193;,
			 0.022318;-0.919886;,
			 0.033174;-0.925240;,
			 0.978301;-0.981077;,
			 0.783221;-0.953906;,
			 0.793498;-0.952359;,
			 0.977869;-0.953794;,
			 0.793498;-0.952359;,
			 0.973569;-0.925242;,
			 0.977869;-0.953794;,
			 0.783221;-0.953906;,
			 0.961647;-0.870489;,
			 0.969269;-0.896689;,
			 0.793498;-0.952359;,
			 0.093532;-0.821737;,
			 0.102649;-0.867804;,
			 0.091605;-0.889068;,
			 0.078248;-0.862705;,
			 0.047682;-0.949495;,
			 0.062965;-0.906100;,
			 0.083108;-0.913194;,
			 0.074611;-0.937321;,
			 0.069894;-0.960813;,
			 0.033921;-0.991000;,
			 0.047682;-0.949495;,
			 0.074611;-0.937321;,
			 0.057978;-0.848359;,
			 0.093532;-0.821737;,
			 0.078248;-0.862705;,
			 0.051741;-0.872517;,
			 0.033174;-0.925240;,
			 0.042457;-0.898878;,
			 0.062965;-0.906100;,
			 0.047682;-0.949495;,
			 0.033921;-0.991000;,
			 0.022896;-0.947974;,
			 0.033174;-0.925240;,
			 0.047682;-0.949495;,
			 0.793498;-0.952359;,
			 0.969269;-0.896689;,
			 0.973569;-0.925242;,
			 0.039927;-0.869886;,
			 0.051741;-0.872517;,
			 0.042457;-0.898878;,
			 0.031123;-0.894886;,
			 0.062965;-0.906100;,
			 0.042457;-0.898878;,
			 0.051741;-0.872517;,
			 0.078248;-0.862705;,
			 0.083108;-0.913194;,
			 0.062965;-0.906100;,
			 0.078248;-0.862705;,
			 0.091605;-0.889068;,
			 0.257596;-0.974646;,
			 0.083108;-0.913194;,
			 0.091605;-0.889068;;
		}
		MeshVertexColors {
			76;
			0; 1.000000; 0.370000; 0.370000; 1.000000;;,
			1; 1.000000; 0.370000; 0.370000; 1.000000;;,
			2; 1.000000; 0.370000; 0.370000; 1.000000;;,
			3; 1.000000; 0.370000; 0.370000; 1.000000;;,
			4; 1.000000; 0.370000; 0.370000; 1.000000;;,
			5; 1.000000; 0.370000; 0.370000; 1.000000;;,
			6; 1.000000; 0.000000; 0.000000; 1.000000;;,
			7; 1.000000; 0.370000; 0.370000; 1.000000;;,
			8; 0.090000; 0.033300; 0.033300; 1.000000;;,
			9; 0.440000; 0.000440; 0.000440; 1.000000;;,
			10; 1.000000; 0.000000; 0.000000; 1.000000;;,
			11; 0.001000; 0.000540; 0.000540; 1.000000;;,
			12; 0.090000; 0.033300; 0.033300; 1.000000;;,
			13; 1.000000; 0.370000; 0.370000; 1.000000;;,
			14; 1.000000; 0.370000; 0.370000; 1.000000;;,
			15; 0.440000; 0.000440; 0.000440; 1.000000;;,
			16; 0.090000; 0.033300; 0.033300; 1.000000;;,
			17; 1.000000; 0.370000; 0.370000; 1.000000;;,
			18; 1.000000; 0.000000; 0.000000; 1.000000;;,
			19; 0.090000; 0.033300; 0.033300; 1.000000;;,
			20; 0.001000; 0.000540; 0.000540; 1.000000;;,
			21; 1.000000; 0.370000; 0.370000; 1.000000;;,
			22; 1.000000; 0.370000; 0.370000; 1.000000;;,
			23; 0.001000; 0.000540; 0.000540; 1.000000;;,
			24; 0.001000; 0.000999; 0.000999; 1.000000;;,
			25; 0.001000; 0.000999; 0.000999; 1.000000;;,
			26; 0.370000; 0.370000; 0.370000; 1.000000;;,
			27; 0.001000; 0.000999; 0.000999; 1.000000;;,
			28; 0.370000; 0.370000; 0.370000; 1.000000;;,
			29; 0.370000; 0.370000; 0.370000; 1.000000;;,
			30; 0.001000; 0.000999; 0.000999; 1.000000;;,
			31; 0.001000; 0.000540; 0.000540; 1.000000;;,
			32; 0.370000; 0.370000; 0.370000; 1.000000;;,
			33; 0.001000; 0.000999; 0.000999; 1.000000;;,
			34; 0.090000; 0.033300; 0.033300; 1.000000;;,
			35; 0.090000; 0.033300; 0.033300; 1.000000;;,
			36; 1.000000; 0.370000; 0.370000; 1.000000;;,
			37; 1.000000; 0.370000; 0.370000; 1.000000;;,
			38; 1.000000; 0.370000; 0.370000; 1.000000;;,
			39; 1.000000; 0.370000; 0.370000; 1.000000;;,
			40; 1.000000; 0.370000; 0.370000; 1.000000;;,
			41; 1.000000; 0.370000; 0.370000; 1.000000;;,
			42; 0.090000; 0.033300; 0.033300; 1.000000;;,
			43; 0.090000; 0.033300; 0.033300; 1.000000;;,
			44; 1.000000; 0.370000; 0.370000; 1.000000;;,
			45; 1.000000; 0.370000; 0.370000; 1.000000;;,
			46; 0.090000; 0.033300; 0.033300; 1.000000;;,
			47; 0.090000; 0.033300; 0.033300; 1.000000;;,
			48; 1.000000; 0.370000; 0.370000; 1.000000;;,
			49; 1.000000; 0.370000; 0.370000; 1.000000;;,
			50; 1.000000; 0.370000; 0.370000; 1.000000;;,
			51; 1.000000; 0.370000; 0.370000; 1.000000;;,
			52; 1.000000; 0.370000; 0.370000; 1.000000;;,
			53; 1.000000; 0.370000; 0.370000; 1.000000;;,
			54; 0.090000; 0.033300; 0.033300; 1.000000;;,
			55; 0.090000; 0.033300; 0.033300; 1.000000;;,
			56; 1.000000; 0.370000; 0.370000; 1.000000;;,
			57; 1.000000; 0.370000; 0.370000; 1.000000;;,
			58; 0.001000; 0.000999; 0.000999; 1.000000;;,
			59; 0.370000; 0.370000; 0.370000; 1.000000;;,
			60; 0.370000; 0.370000; 0.370000; 1.000000;;,
			61; 1.000000; 0.370000; 0.370000; 1.000000;;,
			62; 1.000000; 0.370000; 0.370000; 1.000000;;,
			63; 1.000000; 0.370000; 0.370000; 1.000000;;,
			64; 1.000000; 0.370000; 0.370000; 1.000000;;,
			65; 1.000000; 0.370000; 0.370000; 1.000000;;,
			66; 1.000000; 0.370000; 0.370000; 1.000000;;,
			67; 1.000000; 0.370000; 0.370000; 1.000000;;,
			68; 1.000000; 0.370000; 0.370000; 1.000000;;,
			69; 1.000000; 0.370000; 0.370000; 1.000000;;,
			70; 1.000000; 0.370000; 0.370000; 1.000000;;,
			71; 1.000000; 0.370000; 0.370000; 1.000000;;,
			72; 1.000000; 0.370000; 0.370000; 1.000000;;,
			73; 1.000000; 0.000000; 0.000000; 1.000000;;,
			74; 1.000000; 0.370000; 0.370000; 1.000000;;,
			75; 1.000000; 0.370000; 0.370000; 1.000000;;;
		}
		MeshMaterialList {
			1;
			20;
			0,
			0,
			0,
			0,
			0,
			0,
			0,
			0,
			0,
			0,
			0,
			0,
			0,
			0,
			0,
			0,
			0,
			0,
			0,
			0;
			{lambert2}
		}
		VertexDuplicationIndices {
			76;
			24;
			0,
			1,
			2,
			3,
			4,
			5,
			6,
			7,
			8,
			9,
			6,
			11,
			12,
			13,
			14,
			9,
			16,
			4,
			6,
			19,
			20,
			3,
			2,
			20,
			24,
			25,
			3,
			25,
			0,
			3,
			24,
			11,
			14,
			25,
			34,
			8,
			7,
			37,
			38,
			39,
			5,
			4,
			16,
			43,
			38,
			4,
			12,
			34,
			37,
			13,
			2,
			1,
			39,
			38,
			43,
			19,
			2,
			38,
			25,
			14,
			0,
			14,
			13,
			1,
			0,
			39,
			1,
			13,
			37,
			5,
			39,
			37,
			7,
			6,
			5,
			7;
		}
		DeclData {
			2;
			2;0;6;0;,
			2;0;7;0;;
			456;
			1053425176,
			1049850640,
			1063215696,
			1063992395,
			3187489137,
			3200241885,
			1052862754,
			1052796204,
			1062773297,
			1064110118,
			3189570835,
			3199255599,
			1045799681,
			1058628873,
			1061543773,
			1062361380,
			1050966223,
			3203468823,
			1048448206,
			1055129558,
			1063009734,
			1061297515,
			1055737798,
			3203057308,
			1053789345,
			3195786961,
			1063347483,
			1060342663,
			1060343840,
			3187804022,
			1052106616,
			3200253574,
			1062941862,
			1064255266,
			1042709579,
			3198290891,
			1051388399,
			3198032391,
			1063518220,
			1064387650,
			1040410511,
			3198030888,
			1042363333,
			3206849495,
			1061148930,
			1062112768,
			3199541996,
			3203545680,
			3171265733,
			3208060857,
			1060286941,
			1060742030,
			3204366781,
			3203642983,
			1051838629,
			3202125767,
			1062551062,
			1064309314,
			1042503169,
			3198020212,
			1051388399,
			3198032391,
			1063518220,
			1064387650,
			1040410511,
			3198030888,
			1049833930,
			3189113421,
			1064455879,
			1057900087,
			3209134761,
			3197382436,
			1054271600,
			1045350779,
			1063422050,
			1058624443,
			3209383519,
			3184700016,
			1053684910,
			1046826196,
			1063469465,
			1061095685,
			3206829612,
			3191108066,
			1050800000,
			1020987955,
			1064485648,
			1060864419,
			3206833209,
			3194461434,
			1051838629,
			3202125767,
			1062551062,
			1064309314,
			1042503169,
			3198020212,
			1057476947,
			3190234203,
			1062531350,
			1056810898,
			1062936350,
			3189218308,
			1053789345,
			3195786961,
			1063347483,
			1060342663,
			1060343840,
			3187804022,
			1051388399,
			3198032391,
			1063518220,
			1064387650,
			1040410511,
			3198030888,
			3165597460,
			1058730567,
			1061926320,
			1060841142,
			1057843622,
			3201110155,
			1040129780,
			1052756990,
			1063990551,
			1058863596,
			1060302057,
			3200022548,
			1048448206,
			1055129558,
			1063009734,
			1061297515,
			1055737798,
			3203057308,
			1045799681,
			1058628873,
			1061543773,
			1062361380,
			1050966223,
			3203468823,
			3186060525,
			1051400368,
			1064274665,
			1058155260,
			1061873017,
			3193650238,
			3181850850,
			1056296165,
			1063229530,
			1065297218,
			1025577275,
			1033012296,
			3187903798,
			1051396827,
			1064241778,
			1065214194,
			1026638288,
			1039645162,
			3193514743,
			1042895948,
			1064735159,
			1061212866,
			1059575328,
			1029326886,
			3187903798,
			1051396827,
			1064241778,
			1065214194,
			1026638288,
			1039645162,
			3192614843,
			1047681847,
			1064532141,
			1065018792,
			1027900129,
			1044736601,
			3193514743,
			1042895948,
			1064735159,
			1061212866,
			1059575328,
			1029326886,
			3181850850,
			1056296165,
			1063229530,
			1065297218,
			1025577275,
			1033012296,
			3181716287,
			1058235703,
			1062226459,
			1058246901,
			3206780352,
			1057120891,
			3178620524,
			1052966384,
			1064056143,
			1061665532,
			3205432813,
			1049628347,
			3187903798,
			1051396827,
			1064241778,
			1065214194,
			1026638288,
			1039645162,
			1043201737,
			3194656503,
			1064656287,
			1059742984,
			3207645064,
			3197168743,
			3171265733,
			3208060857,
			1060286941,
			1060742030,
			3204366781,
			3203642983,
			1042363333,
			3206849495,
			1061148930,
			1062112768,
			3199541996,
			3203545680,
			1049653796,
			3194290492,
			1064228290,
			1061742568,
			3204541395,
			3199700419,
			1049385162,
			1042160430,
			1064501294,
			1061745331,
			1057540571,
			3198193441,
			1052737915,
			3165600947,
			1064131297,
			1064135099,
			1014593380,
			3200212842,
			1052106616,
			3200253574,
			1062941862,
			1064255266,
			1042709579,
			3198290891,
			1053789345,
			3195786961,
			1063347483,
			1060342663,
			1060343840,
			3187804022,
			1057476947,
			3190234203,
			1062531350,
			1056810898,
			1062936350,
			3189218308,
			1045688392,
			1043198781,
			1064740619,
			1059565571,
			1060444951,
			3196577740,
			1049385162,
			1042160430,
			1064501294,
			1061745331,
			1057540571,
			3198193441,
			1053789345,
			3195786961,
			1063347483,
			1060342663,
			1060343840,
			3187804022,
			1054271600,
			1045350779,
			1063422050,
			1058624443,
			3209383519,
			3184700016,
			1043201737,
			3194656503,
			1064656287,
			1059742984,
			3207645064,
			3197168743,
			1049653796,
			3194290492,
			1064228290,
			1061742568,
			3204541395,
			3199700419,
			1053684910,
			1046826196,
			1063469465,
			1061095685,
			3206829612,
			3191108066,
			1045799681,
			1058628873,
			1061543773,
			1062361380,
			1050966223,
			3203468823,
			1052862754,
			1052796204,
			1062773297,
			1064110118,
			3189570835,
			3199255599,
			1052737915,
			3165600947,
			1064131297,
			1064135099,
			1014593380,
			3200212842,
			1049385162,
			1042160430,
			1064501294,
			1061745331,
			1057540571,
			3198193441,
			1045688392,
			1043198781,
			1064740619,
			1059565571,
			1060444951,
			3196577740,
			3165597460,
			1058730567,
			1061926320,
			1060841142,
			1057843622,
			3201110155,
			1045799681,
			1058628873,
			1061543773,
			1062361380,
			1050966223,
			3203468823,
			1049385162,
			1042160430,
			1064501294,
			1061745331,
			1057540571,
			3198193441,
			3187903798,
			1051396827,
			1064241778,
			1065214194,
			1026638288,
			1039645162,
			3178620524,
			1052966384,
			1064056143,
			1061665532,
			3205432813,
			1049628347,
			3192614843,
			1047681847,
			1064532141,
			1065018792,
			1027900129,
			1044736601,
			1050800000,
			1020987955,
			1064485648,
			1060864419,
			3206833209,
			3194461434,
			1053684910,
			1046826196,
			1063469465,
			1061095685,
			3206829612,
			3191108066,
			1052862754,
			1052796204,
			1062773297,
			1064110118,
			3189570835,
			3199255599,
			1053425176,
			1049850640,
			1063215696,
			1063992395,
			3187489137,
			3200241885,
			1052737915,
			3165600947,
			1064131297,
			1064135099,
			1014593380,
			3200212842,
			1052862754,
			1052796204,
			1062773297,
			1064110118,
			3189570835,
			3199255599,
			1053684910,
			1046826196,
			1063469465,
			1061095685,
			3206829612,
			3191108066,
			1049653796,
			3194290492,
			1064228290,
			1061742568,
			3204541395,
			3199700419,
			1052106616,
			3200253574,
			1062941862,
			1064255266,
			1042709579,
			3198290891,
			1052737915,
			3165600947,
			1064131297,
			1064135099,
			1014593380,
			3200212842,
			1049653796,
			3194290492,
			1064228290,
			1061742568,
			3204541395,
			3199700419,
			1042363333,
			3206849495,
			1061148930,
			1062112768,
			3199541996,
			3203545680,
			1051388399,
			3198032391,
			1063518220,
			1064387650,
			1040410511,
			3198030888,
			1052106616,
			3200253574,
			1062941862,
			1064255266,
			1042709579,
			3198290891,
			1042363333,
			3206849495,
			1061148930,
			1062112768,
			3199541996,
			3203545680;
		}
	}
}
