xof 0303txt 0032

Material lambert1 {
	 0.400000; 0.400000; 0.400000; 1.000000;;
	 0.000000;
	 0.000000; 0.000000; 0.000000;;
	 0.000000; 0.000000; 0.000000;;
}
Material lambert2 {
	 0.800000; 0.800000; 0.800000; 1.000000;;
	 0.000000;
	 0.000000; 0.000000; 0.000000;;
	 0.000000; 0.000000; 0.000000;;
	TextureFileName {".\\COMPASS_DIF_01.tga";}
}
Frame COMPASS {
	FrameTransformMatrix {
		1.000000,0.000000,-0.000000,0.000000,0.000000,1.000000,-0.000000,0.000000,-0.000000,-0.000000,1.000000,0.000000,0.000000,0.000000,-0.000000,1.000000;;
	}
	Mesh COMPASSShape {
		180;
		-0.951975; -0.035639;  0.406978;,
		-1.027923; -0.035639; -0.123534;,
		-0.992856;  0.088085; -0.119319;,
		-0.919498;  0.088085;  0.393094;,
		-1.027923; -0.035639; -0.123534;,
		-0.828441; -0.035639; -0.620945;,
		-0.800179;  0.088085; -0.599762;,
		-0.992856;  0.088085; -0.119319;,
		-0.828441; -0.035639; -0.620945;,
		-0.406978; -0.035639; -0.951975;,
		-0.393094;  0.088085; -0.919498;,
		-0.800179;  0.088085; -0.599762;,
		-0.406978; -0.035639; -0.951975;,
		 0.123534; -0.035639; -1.027923;,
		 0.119319;  0.088085; -0.992856;,
		-0.393094;  0.088085; -0.919498;,
		 0.123534; -0.035639; -1.027923;,
		 0.620945; -0.035639; -0.828441;,
		 0.599762;  0.088085; -0.800179;,
		 0.119319;  0.088085; -0.992856;,
		 0.620945; -0.035639; -0.828441;,
		 0.951975; -0.035639; -0.406978;,
		 0.919498;  0.088085; -0.393094;,
		 0.599762;  0.088085; -0.800179;,
		 0.951975; -0.035639; -0.406978;,
		 1.027923; -0.035639;  0.123534;,
		 0.992856;  0.088085;  0.119319;,
		 0.919498;  0.088085; -0.393094;,
		 1.027923; -0.035639;  0.123534;,
		 0.828441; -0.035639;  0.620945;,
		 0.800179;  0.088085;  0.599762;,
		 0.992856;  0.088085;  0.119319;,
		 0.828441; -0.035639;  0.620945;,
		 0.406978; -0.035639;  0.951975;,
		 0.393094;  0.088085;  0.919498;,
		 0.800179;  0.088085;  0.599762;,
		 0.406978; -0.035639;  0.951975;,
		-0.123534; -0.035639;  1.027923;,
		-0.119319;  0.088085;  0.992856;,
		 0.393094;  0.088085;  0.919498;,
		-0.123534; -0.035639;  1.027923;,
		-0.620945; -0.035639;  0.828441;,
		-0.599762;  0.088085;  0.800179;,
		-0.119319;  0.088085;  0.992856;,
		-0.620945; -0.035639;  0.828441;,
		-0.951975; -0.035639;  0.406978;,
		-0.919498;  0.088085;  0.393094;,
		-0.599762;  0.088085;  0.800179;,
		-0.733254;  0.083424;  0.314728;,
		-0.791058;  0.083424; -0.093906;,
		 0.000000;  0.244946;  0.000000;,
		-0.791058;  0.083424; -0.093906;,
		-0.636899;  0.083424; -0.477378;,
		 0.000000;  0.244946;  0.000000;,
		-0.636899;  0.083424; -0.477378;,
		-0.312083;  0.083424; -0.732936;,
		 0.000000;  0.244946;  0.000000;,
		-0.312083;  0.083424; -0.732936;,
		 0.096355;  0.083424; -0.792105;,
		 0.000000;  0.244946;  0.000000;,
		 0.096355;  0.083424; -0.792105;,
		 0.478975;  0.083424; -0.639030;,
		 0.000000;  0.244946;  0.000000;,
		 0.478975;  0.083424; -0.639030;,
		 0.733254;  0.083424; -0.314728;,
		 0.000000;  0.244946;  0.000000;,
		 0.733254;  0.083424; -0.314728;,
		 0.791058;  0.083424;  0.093906;,
		 0.000000;  0.244946;  0.000000;,
		 0.791058;  0.083424;  0.093906;,
		 0.636899;  0.083424;  0.477378;,
		 0.000000;  0.244946;  0.000000;,
		 0.636899;  0.083424;  0.477378;,
		 0.312083;  0.083424;  0.732937;,
		 0.000000;  0.244946;  0.000000;,
		 0.312083;  0.083424;  0.732937;,
		-0.096355;  0.083424;  0.792105;,
		 0.000000;  0.244946;  0.000000;,
		-0.096355;  0.083424;  0.792105;,
		-0.478975;  0.083424;  0.639030;,
		 0.000000;  0.244946;  0.000000;,
		-0.478975;  0.083424;  0.639030;,
		-0.733254;  0.083424;  0.314728;,
		 0.000000;  0.244946;  0.000000;,
		-0.919498;  0.088085;  0.393094;,
		-0.992856;  0.088085; -0.119319;,
		-0.889657;  0.144994; -0.106917;,
		-0.823924;  0.144994;  0.352236;,
		-0.992856;  0.088085; -0.119319;,
		-0.800179;  0.088085; -0.599762;,
		-0.717007;  0.144994; -0.537422;,
		-0.889657;  0.144994; -0.106917;,
		-0.800179;  0.088085; -0.599762;,
		-0.393094;  0.088085; -0.919498;,
		-0.352236;  0.144994; -0.823924;,
		-0.717007;  0.144994; -0.537422;,
		-0.393094;  0.088085; -0.919498;,
		 0.119319;  0.088085; -0.992856;,
		 0.106917;  0.144994; -0.889657;,
		-0.352236;  0.144994; -0.823924;,
		 0.119319;  0.088085; -0.992856;,
		 0.599762;  0.088085; -0.800179;,
		 0.537422;  0.144994; -0.717007;,
		 0.106917;  0.144994; -0.889657;,
		 0.599762;  0.088085; -0.800179;,
		 0.919498;  0.088085; -0.393094;,
		 0.823924;  0.144994; -0.352236;,
		 0.537422;  0.144994; -0.717007;,
		 0.919498;  0.088085; -0.393094;,
		 0.992856;  0.088085;  0.119319;,
		 0.889657;  0.144994;  0.106917;,
		 0.823924;  0.144994; -0.352236;,
		 0.992856;  0.088085;  0.119319;,
		 0.800179;  0.088085;  0.599762;,
		 0.717007;  0.144994;  0.537422;,
		 0.889657;  0.144994;  0.106917;,
		 0.800179;  0.088085;  0.599762;,
		 0.393094;  0.088085;  0.919498;,
		 0.352236;  0.144994;  0.823924;,
		 0.717007;  0.144994;  0.537422;,
		 0.393094;  0.088085;  0.919498;,
		-0.119319;  0.088085;  0.992856;,
		-0.106917;  0.144994;  0.889657;,
		 0.352236;  0.144994;  0.823924;,
		-0.119319;  0.088085;  0.992856;,
		-0.599762;  0.088085;  0.800179;,
		-0.537422;  0.144994;  0.717007;,
		-0.106917;  0.144994;  0.889657;,
		-0.599762;  0.088085;  0.800179;,
		-0.919498;  0.088085;  0.393094;,
		-0.823924;  0.144994;  0.352236;,
		-0.537422;  0.144994;  0.717007;,
		-0.823924;  0.144994;  0.352236;,
		-0.889657;  0.144994; -0.106917;,
		-0.791058;  0.083424; -0.093906;,
		-0.733254;  0.083424;  0.314728;,
		-0.889657;  0.144994; -0.106917;,
		-0.717007;  0.144994; -0.537422;,
		-0.636899;  0.083424; -0.477378;,
		-0.791058;  0.083424; -0.093906;,
		-0.717007;  0.144994; -0.537422;,
		-0.352236;  0.144994; -0.823924;,
		-0.312083;  0.083424; -0.732936;,
		-0.636899;  0.083424; -0.477378;,
		-0.352236;  0.144994; -0.823924;,
		 0.106917;  0.144994; -0.889657;,
		 0.096355;  0.083424; -0.792105;,
		-0.312083;  0.083424; -0.732936;,
		 0.106917;  0.144994; -0.889657;,
		 0.537422;  0.144994; -0.717007;,
		 0.478975;  0.083424; -0.639030;,
		 0.096355;  0.083424; -0.792105;,
		 0.537422;  0.144994; -0.717007;,
		 0.823924;  0.144994; -0.352236;,
		 0.733254;  0.083424; -0.314728;,
		 0.478975;  0.083424; -0.639030;,
		 0.823924;  0.144994; -0.352236;,
		 0.889657;  0.144994;  0.106917;,
		 0.791058;  0.083424;  0.093906;,
		 0.733254;  0.083424; -0.314728;,
		 0.889657;  0.144994;  0.106917;,
		 0.717007;  0.144994;  0.537422;,
		 0.636899;  0.083424;  0.477378;,
		 0.791058;  0.083424;  0.093906;,
		 0.717007;  0.144994;  0.537422;,
		 0.352236;  0.144994;  0.823924;,
		 0.312083;  0.083424;  0.732937;,
		 0.636899;  0.083424;  0.477378;,
		 0.352236;  0.144994;  0.823924;,
		-0.106917;  0.144994;  0.889657;,
		-0.096355;  0.083424;  0.792105;,
		 0.312083;  0.083424;  0.732937;,
		-0.106917;  0.144994;  0.889657;,
		-0.537422;  0.144994;  0.717007;,
		-0.478975;  0.083424;  0.639030;,
		-0.096355;  0.083424;  0.792105;,
		-0.537422;  0.144994;  0.717007;,
		-0.823924;  0.144994;  0.352236;,
		-0.733254;  0.083424;  0.314728;,
		-0.478975;  0.083424;  0.639030;;
		48;
		4;3,2,1,0;,
		4;7,6,5,4;,
		4;11,10,9,8;,
		4;15,14,13,12;,
		4;19,18,17,16;,
		4;23,22,21,20;,
		4;27,26,25,24;,
		4;31,30,29,28;,
		4;35,34,33,32;,
		4;39,38,37,36;,
		4;43,42,41,40;,
		4;47,46,45,44;,
		3;50,49,48;,
		3;53,52,51;,
		3;56,55,54;,
		3;59,58,57;,
		3;62,61,60;,
		3;65,64,63;,
		3;68,67,66;,
		3;71,70,69;,
		3;74,73,72;,
		3;77,76,75;,
		3;80,79,78;,
		3;83,82,81;,
		4;87,86,85,84;,
		4;91,90,89,88;,
		4;95,94,93,92;,
		4;99,98,97,96;,
		4;103,102,101,100;,
		4;107,106,105,104;,
		4;111,110,109,108;,
		4;115,114,113,112;,
		4;119,118,117,116;,
		4;123,122,121,120;,
		4;127,126,125,124;,
		4;131,130,129,128;,
		4;135,134,133,132;,
		4;139,138,137,136;,
		4;143,142,141,140;,
		4;147,146,145,144;,
		4;151,150,149,148;,
		4;155,154,153,152;,
		4;159,158,157,156;,
		4;163,162,161,160;,
		4;167,166,165,164;,
		4;171,170,169,168;,
		4;175,174,173,172;,
		4;179,178,177,176;;
		MeshNormals {
			61;
			-0.884176, 0.274507, 0.377993;,
			-0.954715, 0.274508,-0.114736;,
			-0.772660, 0.627992,-0.092857;,
			-0.715572, 0.627992, 0.305914;,
			-0.769440, 0.274507,-0.576722;,
			-0.622715, 0.627992,-0.466746;,
			-0.377994, 0.274507,-0.884176;,
			-0.305914, 0.627992,-0.715572;,
			 0.114736, 0.274508,-0.954715;,
			 0.092857, 0.627992,-0.772660;,
			 0.576722, 0.274508,-0.769440;,
			 0.466746, 0.627992,-0.622715;,
			 0.884176, 0.274507,-0.377994;,
			 0.715572, 0.627992,-0.305914;,
			 0.954715, 0.274507, 0.114736;,
			 0.772660, 0.627992, 0.092857;,
			 0.769440, 0.274507, 0.576722;,
			 0.622715, 0.627992, 0.466746;,
			 0.377994, 0.274508, 0.884176;,
			 0.305914, 0.627992, 0.715571;,
			-0.114736, 0.274508, 0.954715;,
			-0.092857, 0.627992, 0.772660;,
			-0.576722, 0.274507, 0.769440;,
			-0.466746, 0.627992, 0.622715;,
			-0.182541, 0.980121, 0.077727;,
			-0.197265, 0.980056,-0.023995;,
			-0.000000, 1.000000,-0.000000;,
			-0.159138, 0.980024,-0.119279;,
			-0.078378, 0.980057,-0.182609;,
			 0.023389, 0.980121,-0.197017;,
			 0.118897, 0.980153,-0.158628;,
			 0.182541, 0.980121,-0.077727;,
			 0.197265, 0.980057, 0.023995;,
			 0.159138, 0.980024, 0.119279;,
			 0.078378, 0.980057, 0.182609;,
			-0.023389, 0.980121, 0.197017;,
			-0.118897, 0.980153, 0.158628;,
			 0.026280, 0.999650, 0.003002;,
			 0.026591, 0.999580,-0.011541;,
			 0.020160, 0.999683, 0.015111;,
			 0.010255, 0.999650, 0.024383;,
			-0.003617, 0.999580, 0.028761;,
			-0.018153, 0.999542, 0.024219;,
			-0.026591, 0.999580, 0.011541;,
			-0.026280, 0.999650,-0.003002;,
			-0.020160, 0.999683,-0.015111;,
			-0.010255, 0.999650,-0.024383;,
			 0.003617, 0.999580,-0.028761;,
			 0.018153, 0.999542,-0.024219;,
			 0.523039, 0.850008, 0.062587;,
			 0.488309, 0.847260,-0.209056;,
			 0.419758, 0.851361, 0.314623;,
			 0.206823, 0.850008, 0.484470;,
			-0.063653, 0.847260, 0.527351;,
			-0.319911, 0.845865, 0.426813;,
			-0.488309, 0.847260, 0.209057;,
			-0.523039, 0.850008,-0.062587;,
			-0.419758, 0.851361,-0.314623;,
			-0.206823, 0.850008,-0.484470;,
			 0.063653, 0.847260,-0.527351;,
			 0.319911, 0.845865,-0.426813;;
			48;
			4;3,2,1,0;,
			4;2,5,4,1;,
			4;5,7,6,4;,
			4;7,9,8,6;,
			4;9,11,10,8;,
			4;11,13,12,10;,
			4;13,15,14,12;,
			4;15,17,16,14;,
			4;17,19,18,16;,
			4;19,21,20,18;,
			4;21,23,22,20;,
			4;23,3,0,22;,
			3;26,25,24;,
			3;26,27,25;,
			3;26,28,27;,
			3;26,29,28;,
			3;26,30,29;,
			3;26,31,30;,
			3;26,32,31;,
			3;26,33,32;,
			3;26,34,33;,
			3;26,35,34;,
			3;26,36,35;,
			3;26,24,36;,
			4;38,37,2,3;,
			4;37,39,5,2;,
			4;39,40,7,5;,
			4;40,41,9,7;,
			4;41,42,11,9;,
			4;42,43,13,11;,
			4;43,44,15,13;,
			4;44,45,17,15;,
			4;45,46,19,17;,
			4;46,47,21,19;,
			4;47,48,23,21;,
			4;48,38,3,23;,
			4;50,49,37,38;,
			4;49,51,39,37;,
			4;51,52,40,39;,
			4;52,53,41,40;,
			4;53,54,42,41;,
			4;54,55,43,42;,
			4;55,56,44,43;,
			4;56,57,45,44;,
			4;57,58,46,45;,
			4;58,59,47,46;,
			4;59,60,48,47;,
			4;60,50,38,48;;
		}
		MeshTextureCoords {
			180;
			 0.863223;-0.863224;,
			 0.632948;-0.996172;,
			 0.617407;-0.938157;,
			 0.820761;-0.820755;,
			 0.632948;-0.996172;,
			 0.367050;-0.996172;,
			 0.382596;-0.938154;,
			 0.617407;-0.938157;,
			 0.367050;-0.996172;,
			 0.136776;-0.863223;,
			 0.179243;-0.820750;,
			 0.382596;-0.938154;,
			 0.136776;-0.863223;,
			 0.003828;-0.632948;,
			 0.061835;-0.617400;,
			 0.179243;-0.820750;,
			 0.003828;-0.632948;,
			 0.003828;-0.367050;,
			 0.061835;-0.382593;,
			 0.061835;-0.617400;,
			 0.003828;-0.367050;,
			 0.136777;-0.136776;,
			 0.179239;-0.179245;,
			 0.061835;-0.382593;,
			 0.136777;-0.136776;,
			 0.367052;-0.003828;,
			 0.382593;-0.061843;,
			 0.179239;-0.179245;,
			 0.367052;-0.003828;,
			 0.632950;-0.003828;,
			 0.617404;-0.061846;,
			 0.382593;-0.061843;,
			 0.632950;-0.003828;,
			 0.863224;-0.136777;,
			 0.820757;-0.179250;,
			 0.617404;-0.061846;,
			 0.863224;-0.136777;,
			 0.996172;-0.367052;,
			 0.938165;-0.382600;,
			 0.820757;-0.179250;,
			 0.996172;-0.367052;,
			 0.996172;-0.632950;,
			 0.938165;-0.617407;,
			 0.938165;-0.382600;,
			 0.996172;-0.632950;,
			 0.863223;-0.863224;,
			 0.820761;-0.820755;,
			 0.938165;-0.617407;,
			 0.747170;-0.746453;,
			 0.590696;-0.836517;,
			 0.500000;-0.500000;,
			 0.590696;-0.836517;,
			 0.409862;-0.836397;,
			 0.500000;-0.500000;,
			 0.409862;-0.836397;,
			 0.253196;-0.746084;,
			 0.500000;-0.500000;,
			 0.253196;-0.746084;,
			 0.162717;-0.589849;,
			 0.500000;-0.500000;,
			 0.162717;-0.589849;,
			 0.162598;-0.409593;,
			 0.500000;-0.500000;,
			 0.162598;-0.409593;,
			 0.252830;-0.253547;,
			 0.500000;-0.500000;,
			 0.252830;-0.253547;,
			 0.409304;-0.163483;,
			 0.500000;-0.500000;,
			 0.409304;-0.163483;,
			 0.590138;-0.163603;,
			 0.500000;-0.500000;,
			 0.590138;-0.163603;,
			 0.746804;-0.253916;,
			 0.500000;-0.500000;,
			 0.746804;-0.253916;,
			 0.837283;-0.410151;,
			 0.500000;-0.500000;,
			 0.837283;-0.410151;,
			 0.837402;-0.590407;,
			 0.500000;-0.500000;,
			 0.837402;-0.590407;,
			 0.747170;-0.746453;,
			 0.500000;-0.500000;,
			 0.820761;-0.820755;,
			 0.617407;-0.938157;,
			 0.603597;-0.886607;,
			 0.783029;-0.783020;,
			 0.617407;-0.938157;,
			 0.382596;-0.938154;,
			 0.396409;-0.886604;,
			 0.603597;-0.886607;,
			 0.382596;-0.938154;,
			 0.179243;-0.820750;,
			 0.216978;-0.783012;,
			 0.396409;-0.886604;,
			 0.179243;-0.820750;,
			 0.061835;-0.617400;,
			 0.113379;-0.603587;,
			 0.216978;-0.783012;,
			 0.061835;-0.617400;,
			 0.061835;-0.382593;,
			 0.113376;-0.396404;,
			 0.113379;-0.603587;,
			 0.061835;-0.382593;,
			 0.179239;-0.179245;,
			 0.216971;-0.216980;,
			 0.113376;-0.396404;,
			 0.179239;-0.179245;,
			 0.382593;-0.061843;,
			 0.396403;-0.113393;,
			 0.216971;-0.216980;,
			 0.382593;-0.061843;,
			 0.617404;-0.061846;,
			 0.603591;-0.113396;,
			 0.396403;-0.113393;,
			 0.617404;-0.061846;,
			 0.820757;-0.179250;,
			 0.783022;-0.216988;,
			 0.603591;-0.113396;,
			 0.820757;-0.179250;,
			 0.938165;-0.382600;,
			 0.886621;-0.396413;,
			 0.783022;-0.216988;,
			 0.938165;-0.382600;,
			 0.938165;-0.617407;,
			 0.886625;-0.603596;,
			 0.886621;-0.396413;,
			 0.938165;-0.617407;,
			 0.820761;-0.820755;,
			 0.783029;-0.783020;,
			 0.886625;-0.603596;,
			 0.783029;-0.783020;,
			 0.603597;-0.886607;,
			 0.590696;-0.836517;,
			 0.747170;-0.746453;,
			 0.603597;-0.886607;,
			 0.396409;-0.886604;,
			 0.409862;-0.836397;,
			 0.590696;-0.836517;,
			 0.396409;-0.886604;,
			 0.216978;-0.783012;,
			 0.253196;-0.746084;,
			 0.409862;-0.836397;,
			 0.216978;-0.783012;,
			 0.113379;-0.603587;,
			 0.162717;-0.589849;,
			 0.253196;-0.746084;,
			 0.113379;-0.603587;,
			 0.113376;-0.396404;,
			 0.162598;-0.409593;,
			 0.162717;-0.589849;,
			 0.113376;-0.396404;,
			 0.216971;-0.216980;,
			 0.252830;-0.253547;,
			 0.162598;-0.409593;,
			 0.216971;-0.216980;,
			 0.396403;-0.113393;,
			 0.409304;-0.163483;,
			 0.252830;-0.253547;,
			 0.396403;-0.113393;,
			 0.603591;-0.113396;,
			 0.590138;-0.163603;,
			 0.409304;-0.163483;,
			 0.603591;-0.113396;,
			 0.783022;-0.216988;,
			 0.746804;-0.253916;,
			 0.590138;-0.163603;,
			 0.783022;-0.216988;,
			 0.886621;-0.396413;,
			 0.837283;-0.410151;,
			 0.746804;-0.253916;,
			 0.886621;-0.396413;,
			 0.886625;-0.603596;,
			 0.837402;-0.590407;,
			 0.837283;-0.410151;,
			 0.886625;-0.603596;,
			 0.783029;-0.783020;,
			 0.747170;-0.746453;,
			 0.837402;-0.590407;;
		}
		MeshVertexColors {
			180;
			0; 0.479000; 0.478521; 0.478521; 1.000000;;,
			1; 0.479000; 0.478521; 0.478521; 1.000000;;,
			2; 0.789000; 0.788211; 0.788211; 1.000000;;,
			3; 0.789000; 0.788211; 0.788211; 1.000000;;,
			4; 0.479000; 0.478521; 0.478521; 1.000000;;,
			5; 0.479000; 0.478521; 0.478521; 1.000000;;,
			6; 0.789000; 0.788211; 0.788211; 1.000000;;,
			7; 0.789000; 0.788211; 0.788211; 1.000000;;,
			8; 0.479000; 0.478521; 0.478521; 1.000000;;,
			9; 0.479000; 0.478521; 0.478521; 1.000000;;,
			10; 0.789000; 0.788211; 0.788211; 1.000000;;,
			11; 0.789000; 0.788211; 0.788211; 1.000000;;,
			12; 0.479000; 0.478521; 0.478521; 1.000000;;,
			13; 0.479000; 0.478521; 0.478521; 1.000000;;,
			14; 0.789000; 0.788211; 0.788211; 1.000000;;,
			15; 0.789000; 0.788211; 0.788211; 1.000000;;,
			16; 0.479000; 0.478521; 0.478521; 1.000000;;,
			17; 0.479000; 0.478521; 0.478521; 1.000000;;,
			18; 0.789000; 0.788211; 0.788211; 1.000000;;,
			19; 0.789000; 0.788211; 0.788211; 1.000000;;,
			20; 0.479000; 0.478521; 0.478521; 1.000000;;,
			21; 0.479000; 0.478521; 0.478521; 1.000000;;,
			22; 0.789000; 0.788211; 0.788211; 1.000000;;,
			23; 0.789000; 0.788211; 0.788211; 1.000000;;,
			24; 0.479000; 0.478521; 0.478521; 1.000000;;,
			25; 0.479000; 0.478521; 0.478521; 1.000000;;,
			26; 0.789000; 0.788211; 0.788211; 1.000000;;,
			27; 0.789000; 0.788211; 0.788211; 1.000000;;,
			28; 0.479000; 0.478521; 0.478521; 1.000000;;,
			29; 0.479000; 0.478521; 0.478521; 1.000000;;,
			30; 0.789000; 0.788211; 0.788211; 1.000000;;,
			31; 0.789000; 0.788211; 0.788211; 1.000000;;,
			32; 0.479000; 0.478521; 0.478521; 1.000000;;,
			33; 0.479000; 0.478521; 0.478521; 1.000000;;,
			34; 0.789000; 0.788211; 0.788211; 1.000000;;,
			35; 0.789000; 0.788211; 0.788211; 1.000000;;,
			36; 0.479000; 0.478521; 0.478521; 1.000000;;,
			37; 0.479000; 0.478521; 0.478521; 1.000000;;,
			38; 0.789000; 0.788211; 0.788211; 1.000000;;,
			39; 0.789000; 0.788211; 0.788211; 1.000000;;,
			40; 0.479000; 0.478521; 0.478521; 1.000000;;,
			41; 0.479000; 0.478521; 0.478521; 1.000000;;,
			42; 0.789000; 0.788211; 0.788211; 1.000000;;,
			43; 0.789000; 0.788211; 0.788211; 1.000000;;,
			44; 0.479000; 0.478521; 0.478521; 1.000000;;,
			45; 0.479000; 0.478521; 0.478521; 1.000000;;,
			46; 0.789000; 0.788211; 0.788211; 1.000000;;,
			47; 0.789000; 0.788211; 0.788211; 1.000000;;,
			48; 0.499000; 0.498501; 0.498501; 1.000000;;,
			49; 0.499000; 0.498501; 0.498501; 1.000000;;,
			50; 0.999000; 0.998001; 0.998001; 1.000000;;,
			51; 0.499000; 0.498501; 0.498501; 1.000000;;,
			52; 0.499000; 0.498501; 0.498501; 1.000000;;,
			53; 0.999000; 0.998001; 0.998001; 1.000000;;,
			54; 0.499000; 0.498501; 0.498501; 1.000000;;,
			55; 0.499000; 0.498501; 0.498501; 1.000000;;,
			56; 0.999000; 0.998001; 0.998001; 1.000000;;,
			57; 0.499000; 0.498501; 0.498501; 1.000000;;,
			58; 0.499000; 0.498501; 0.498501; 1.000000;;,
			59; 0.999000; 0.998001; 0.998001; 1.000000;;,
			60; 0.499000; 0.498501; 0.498501; 1.000000;;,
			61; 0.499000; 0.498501; 0.498501; 1.000000;;,
			62; 0.999000; 0.998001; 0.998001; 1.000000;;,
			63; 0.499000; 0.498501; 0.498501; 1.000000;;,
			64; 0.499000; 0.498501; 0.498501; 1.000000;;,
			65; 0.999000; 0.998001; 0.998001; 1.000000;;,
			66; 0.499000; 0.498501; 0.498501; 1.000000;;,
			67; 0.499000; 0.498501; 0.498501; 1.000000;;,
			68; 0.999000; 0.998001; 0.998001; 1.000000;;,
			69; 0.499000; 0.498501; 0.498501; 1.000000;;,
			70; 0.499000; 0.498501; 0.498501; 1.000000;;,
			71; 0.999000; 0.998001; 0.998001; 1.000000;;,
			72; 0.499000; 0.498501; 0.498501; 1.000000;;,
			73; 0.499000; 0.498501; 0.498501; 1.000000;;,
			74; 0.999000; 0.998001; 0.998001; 1.000000;;,
			75; 0.499000; 0.498501; 0.498501; 1.000000;;,
			76; 0.499000; 0.498501; 0.498501; 1.000000;;,
			77; 0.999000; 0.998001; 0.998001; 1.000000;;,
			78; 0.499000; 0.498501; 0.498501; 1.000000;;,
			79; 0.499000; 0.498501; 0.498501; 1.000000;;,
			80; 0.999000; 0.998001; 0.998001; 1.000000;;,
			81; 0.499000; 0.498501; 0.498501; 1.000000;;,
			82; 0.499000; 0.498501; 0.498501; 1.000000;;,
			83; 0.999000; 0.998001; 0.998001; 1.000000;;,
			84; 0.789000; 0.788211; 0.788211; 1.000000;;,
			85; 0.789000; 0.788211; 0.788211; 1.000000;;,
			86; 0.999000; 0.999000; 0.999000; 1.000000;;,
			87; 0.999000; 0.999000; 0.999000; 1.000000;;,
			88; 0.789000; 0.788211; 0.788211; 1.000000;;,
			89; 0.789000; 0.788211; 0.788211; 1.000000;;,
			90; 0.999000; 0.999000; 0.999000; 1.000000;;,
			91; 0.999000; 0.999000; 0.999000; 1.000000;;,
			92; 0.789000; 0.788211; 0.788211; 1.000000;;,
			93; 0.789000; 0.788211; 0.788211; 1.000000;;,
			94; 0.999000; 0.999000; 0.999000; 1.000000;;,
			95; 0.999000; 0.999000; 0.999000; 1.000000;;,
			96; 0.789000; 0.788211; 0.788211; 1.000000;;,
			97; 0.789000; 0.788211; 0.788211; 1.000000;;,
			98; 0.999000; 0.999000; 0.999000; 1.000000;;,
			99; 0.999000; 0.999000; 0.999000; 1.000000;;,
			100; 0.789000; 0.788211; 0.788211; 1.000000;;,
			101; 0.789000; 0.788211; 0.788211; 1.000000;;,
			102; 0.999000; 0.999000; 0.999000; 1.000000;;,
			103; 0.999000; 0.999000; 0.999000; 1.000000;;,
			104; 0.789000; 0.788211; 0.788211; 1.000000;;,
			105; 0.789000; 0.788211; 0.788211; 1.000000;;,
			106; 0.999000; 0.999000; 0.999000; 1.000000;;,
			107; 0.999000; 0.999000; 0.999000; 1.000000;;,
			108; 0.789000; 0.788211; 0.788211; 1.000000;;,
			109; 0.789000; 0.788211; 0.788211; 1.000000;;,
			110; 0.999000; 0.999000; 0.999000; 1.000000;;,
			111; 0.999000; 0.999000; 0.999000; 1.000000;;,
			112; 0.789000; 0.788211; 0.788211; 1.000000;;,
			113; 0.789000; 0.788211; 0.788211; 1.000000;;,
			114; 0.999000; 0.999000; 0.999000; 1.000000;;,
			115; 0.999000; 0.999000; 0.999000; 1.000000;;,
			116; 0.789000; 0.788211; 0.788211; 1.000000;;,
			117; 0.789000; 0.788211; 0.788211; 1.000000;;,
			118; 0.999000; 0.999000; 0.999000; 1.000000;;,
			119; 0.999000; 0.999000; 0.999000; 1.000000;;,
			120; 0.789000; 0.788211; 0.788211; 1.000000;;,
			121; 0.789000; 0.788211; 0.788211; 1.000000;;,
			122; 0.999000; 0.999000; 0.999000; 1.000000;;,
			123; 0.999000; 0.999000; 0.999000; 1.000000;;,
			124; 0.789000; 0.788211; 0.788211; 1.000000;;,
			125; 0.789000; 0.788211; 0.788211; 1.000000;;,
			126; 0.999000; 0.999000; 0.999000; 1.000000;;,
			127; 0.999000; 0.999000; 0.999000; 1.000000;;,
			128; 0.789000; 0.788211; 0.788211; 1.000000;;,
			129; 0.789000; 0.788211; 0.788211; 1.000000;;,
			130; 0.999000; 0.999000; 0.999000; 1.000000;;,
			131; 0.999000; 0.999000; 0.999000; 1.000000;;,
			132; 0.999000; 0.999000; 0.999000; 1.000000;;,
			133; 0.999000; 0.999000; 0.999000; 1.000000;;,
			134; 0.499000; 0.498501; 0.498501; 1.000000;;,
			135; 0.499000; 0.498501; 0.498501; 1.000000;;,
			136; 0.999000; 0.999000; 0.999000; 1.000000;;,
			137; 0.999000; 0.999000; 0.999000; 1.000000;;,
			138; 0.499000; 0.498501; 0.498501; 1.000000;;,
			139; 0.499000; 0.498501; 0.498501; 1.000000;;,
			140; 0.999000; 0.999000; 0.999000; 1.000000;;,
			141; 0.999000; 0.999000; 0.999000; 1.000000;;,
			142; 0.499000; 0.498501; 0.498501; 1.000000;;,
			143; 0.499000; 0.498501; 0.498501; 1.000000;;,
			144; 0.999000; 0.999000; 0.999000; 1.000000;;,
			145; 0.999000; 0.999000; 0.999000; 1.000000;;,
			146; 0.499000; 0.498501; 0.498501; 1.000000;;,
			147; 0.499000; 0.498501; 0.498501; 1.000000;;,
			148; 0.999000; 0.999000; 0.999000; 1.000000;;,
			149; 0.999000; 0.999000; 0.999000; 1.000000;;,
			150; 0.499000; 0.498501; 0.498501; 1.000000;;,
			151; 0.499000; 0.498501; 0.498501; 1.000000;;,
			152; 0.999000; 0.999000; 0.999000; 1.000000;;,
			153; 0.999000; 0.999000; 0.999000; 1.000000;;,
			154; 0.499000; 0.498501; 0.498501; 1.000000;;,
			155; 0.499000; 0.498501; 0.498501; 1.000000;;,
			156; 0.999000; 0.999000; 0.999000; 1.000000;;,
			157; 0.999000; 0.999000; 0.999000; 1.000000;;,
			158; 0.499000; 0.498501; 0.498501; 1.000000;;,
			159; 0.499000; 0.498501; 0.498501; 1.000000;;,
			160; 0.999000; 0.999000; 0.999000; 1.000000;;,
			161; 0.999000; 0.999000; 0.999000; 1.000000;;,
			162; 0.499000; 0.498501; 0.498501; 1.000000;;,
			163; 0.499000; 0.498501; 0.498501; 1.000000;;,
			164; 0.999000; 0.999000; 0.999000; 1.000000;;,
			165; 0.999000; 0.999000; 0.999000; 1.000000;;,
			166; 0.499000; 0.498501; 0.498501; 1.000000;;,
			167; 0.499000; 0.498501; 0.498501; 1.000000;;,
			168; 0.999000; 0.999000; 0.999000; 1.000000;;,
			169; 0.999000; 0.999000; 0.999000; 1.000000;;,
			170; 0.499000; 0.498501; 0.498501; 1.000000;;,
			171; 0.499000; 0.498501; 0.498501; 1.000000;;,
			172; 0.999000; 0.999000; 0.999000; 1.000000;;,
			173; 0.999000; 0.999000; 0.999000; 1.000000;;,
			174; 0.499000; 0.498501; 0.498501; 1.000000;;,
			175; 0.499000; 0.498501; 0.498501; 1.000000;;,
			176; 0.999000; 0.999000; 0.999000; 1.000000;;,
			177; 0.999000; 0.999000; 0.999000; 1.000000;;,
			178; 0.499000; 0.498501; 0.498501; 1.000000;;,
			179; 0.499000; 0.498501; 0.498501; 1.000000;;;
		}
		MeshMaterialList {
			1;
			48;
			0,
			0,
			0,
			0,
			0,
			0,
			0,
			0,
			0,
			0,
			0,
			0,
			0,
			0,
			0,
			0,
			0,
			0,
			0,
			0,
			0,
			0,
			0,
			0,
			0,
			0,
			0,
			0,
			0,
			0,
			0,
			0,
			0,
			0,
			0,
			0,
			0,
			0,
			0,
			0,
			0,
			0,
			0,
			0,
			0,
			0,
			0,
			0;
			{lambert2}
		}
		VertexDuplicationIndices {
			180;
			49;
			0,
			1,
			2,
			3,
			1,
			5,
			6,
			2,
			5,
			9,
			10,
			6,
			9,
			13,
			14,
			10,
			13,
			17,
			18,
			14,
			17,
			21,
			22,
			18,
			21,
			25,
			26,
			22,
			25,
			29,
			30,
			26,
			29,
			33,
			34,
			30,
			33,
			37,
			38,
			34,
			37,
			41,
			42,
			38,
			41,
			0,
			3,
			42,
			48,
			49,
			50,
			49,
			52,
			50,
			52,
			55,
			50,
			55,
			58,
			50,
			58,
			61,
			50,
			61,
			64,
			50,
			64,
			67,
			50,
			67,
			70,
			50,
			70,
			73,
			50,
			73,
			76,
			50,
			76,
			79,
			50,
			79,
			48,
			50,
			3,
			2,
			86,
			87,
			2,
			6,
			90,
			86,
			6,
			10,
			94,
			90,
			10,
			14,
			98,
			94,
			14,
			18,
			102,
			98,
			18,
			22,
			106,
			102,
			22,
			26,
			110,
			106,
			26,
			30,
			114,
			110,
			30,
			34,
			118,
			114,
			34,
			38,
			122,
			118,
			38,
			42,
			126,
			122,
			42,
			3,
			87,
			126,
			87,
			86,
			49,
			48,
			86,
			90,
			52,
			49,
			90,
			94,
			55,
			52,
			94,
			98,
			58,
			55,
			98,
			102,
			61,
			58,
			102,
			106,
			64,
			61,
			106,
			110,
			67,
			64,
			110,
			114,
			70,
			67,
			114,
			118,
			73,
			70,
			118,
			122,
			76,
			73,
			122,
			126,
			79,
			76,
			126,
			87,
			48,
			79;
		}
		DeclData {
			2;
			2;0;6;0;,
			2;0;7;0;;
			1080;
			1026098091,
			3208811773,
			1059456215,
			1055801226,
			1058457699,
			1059661082,
			3193113419,
			3198813284,
			1064018849,
			1046198668,
			1063716251,
			1052723418,
			3196559549,
			3191765955,
			1064449995,
			1058254951,
			1061253878,
			1050592065,
			3183823201,
			3204825128,
			1062789703,
			1060183573,
			1058252514,
			1054761938,
			3193113419,
			3198813284,
			1064018849,
			1046198668,
			1063716251,
			1052723418,
			3205179646,
			1044727350,
			1062281980,
			1051440268,
			1064381630,
			981561216,
			3202762060,
			1045277883,
			1063176852,
			1059318050,
			1061190006,
			1042359231,
			3196559549,
			3191765955,
			1064449995,
			1058254951,
			1061253878,
			1050592065,
			3205179646,
			1044727350,
			1062281980,
			1051440268,
			1064381630,
			981561216,
			3206405620,
			1059274503,
			1055676464,
			1060161289,
			1060651042,
			3180525179,
			3203315551,
			1057912352,
			1060113756,
			1062502450,
			1057702942,
			1039859758,
			3202762060,
			1045277883,
			1063176852,
			1059318050,
			1061190006,
			1042359231,
			3206405620,
			1059274503,
			1055676464,
			1060161289,
			1060651042,
			3180525179,
			3200046311,
			1063745010,
			1046270396,
			1064051229,
			1051172047,
			1045554713,
			3197499625,
			1061308267,
			1058333771,
			1064541517,
			1043362792,
			1048724221,
			3203315551,
			1057912352,
			1060113756,
			1062502450,
			1057702942,
			1039859758,
			3200046311,
			1063745010,
			1046270396,
			1064051229,
			1051172047,
			1045554713,
			3176199147,
			1064549894,
			1050302171,
			1062255242,
			3188315095,
			1058023436,
			3185309547,
			1060976974,
			1059731435,
			1063303797,
			3195621020,
			1054026850,
			3197499625,
			1061308267,
			1058333771,
			1064541517,
			1043362792,
			1048724221,
			3176199147,
			1064549894,
			1050302171,
			1062255242,
			3188315095,
			1058023436,
			1026098167,
			1061328120,
			1059456217,
			1055801227,
			3205941352,
			1059661077,
			3183823164,
			1057341480,
			1062789703,
			1060183573,
			3205736164,
			1054761932,
			3185309547,
			1060976974,
			1059731435,
			1063303797,
			3195621020,
			1054026850,
			1026098167,
			1061328120,
			1059456217,
			1055801227,
			3205941352,
			1059661077,
			3193113392,
			1051329624,
			1064018852,
			1046198642,
			3211199906,
			1052723401,
			3196559548,
			1044282322,
			1064449993,
			1058254946,
			3208737530,
			1050592070,
			3183823164,
			1057341480,
			1062789703,
			1060183573,
			3205736164,
			1054761932,
			3193113392,
			1051329624,
			1064018852,
			1046198642,
			3211199906,
			1052723401,
			3205179647,
			3192210990,
			1062281980,
			1051440267,
			3211865277,
			981562368,
			3202762063,
			3192761530,
			1063176850,
			1059318049,
			3208673656,
			1042359237,
			3196559548,
			1044282322,
			1064449993,
			1058254946,
			3208737530,
			1050592070,
			3205179647,
			3192210990,
			1062281980,
			1051440267,
			3211865277,
			981562368,
			3206405622,
			3206758147,
			1055676468,
			1060161287,
			3208134691,
			3180525143,
			3203315543,
			3205396001,
			1060113759,
			1062502451,
			3205186586,
			1039859736,
			3202762063,
			3192761530,
			1063176850,
			1059318049,
			3208673656,
			1042359237,
			3206405622,
			3206758147,
			1055676468,
			1060161287,
			3208134691,
			3180525143,
			3200046314,
			3211228660,
			1046270382,
			1064051229,
			3198655699,
			1045554713,
			3197499630,
			3208791915,
			1058333771,
			1064541517,
			3190846448,
			1048724224,
			3203315543,
			3205396001,
			1060113759,
			1062502451,
			3205186586,
			1039859736,
			3200046314,
			3211228660,
			1046270382,
			1064051229,
			3198655699,
			1045554713,
			3176198909,
			3212033542,
			1050302171,
			1062255241,
			1040831497,
			1058023435,
			3185309519,
			3208460622,
			1059731434,
			1063303796,
			1048137388,
			1054026850,
			3197499630,
			3208791915,
			1058333771,
			1064541517,
			3190846448,
			1048724224,
			3176198909,
			3212033542,
			1050302171,
			1062255241,
			1040831497,
			1058023435,
			1026098091,
			3208811773,
			1059456215,
			1055801226,
			1058457699,
			1059661082,
			3183823201,
			3204825128,
			1062789703,
			1060183573,
			1058252514,
			1054761938,
			3185309519,
			3208460622,
			1059731434,
			1063303796,
			1048137388,
			1054026850,
			3200038563,
			3188778795,
			1063990272,
			1063868384,
			1041131130,
			1053175799,
			3200149460,
			3176507301,
			1064125322,
			1063794216,
			1044666955,
			1052762213,
			3200162057,
			845128652,
			1064147405,
			1064147403,
			853324846,
			1052678408,
			3200149460,
			3176507301,
			1064125322,
			1063794216,
			1044666955,
			1052762213,
			3200144957,
			1029098810,
			1064125959,
			1063920283,
			1044672899,
			1052132106,
			3200162057,
			845128652,
			1064147405,
			1064147403,
			853324846,
			1052678408,
			3200144957,
			1029098810,
			1064125959,
			1063920283,
			1044672899,
			1052132106,
			3200032307,
			1041310414,
			1063990937,
			1064117738,
			1041146102,
			1051929383,
			3200162057,
			845128652,
			1064147405,
			1064147403,
			853324846,
			1052678408,
			3200032307,
			1041310414,
			1063990937,
			1064117738,
			1041146102,
			1051929383,
			3199927894,
			1044671813,
			1063858676,
			1064188925,
			1028620778,
			1052351140,
			3200162057,
			845128652,
			1064147405,
			1064147403,
			853324846,
			1052678408,
			3199927894,
			1044671813,
			1063858676,
			1064188925,
			1028620778,
			1052351140,
			3199929555,
			1044666177,
			1063858640,
			1064065614,
			3176021869,
			1052967566,
			3200162057,
			845128652,
			1064147405,
			1064147403,
			853324846,
			1052678408,
			3199929555,
			1044666177,
			1063858640,
			1064065614,
			3176021869,
			1052967566,
			3200038569,
			1041295151,
			1063990270,
			1063868383,
			3188614770,
			1053175805,
			3200162057,
			845128652,
			1064147405,
			1064147403,
			853324846,
			1052678408,
			3200038569,
			1041295151,
			1063990270,
			1063868383,
			3188614770,
			1053175805,
			3200149457,
			1029023649,
			1064125322,
			1063794217,
			3192150602,
			1052762212,
			3200162057,
			845128652,
			1064147405,
			1064147403,
			853324846,
			1052678408,
			3200149457,
			1029023649,
			1064125322,
			1063794217,
			3192150602,
			1052762212,
			3200144958,
			3176582460,
			1064125960,
			1063920284,
			3192156546,
			1052132107,
			3200162057,
			845128652,
			1064147405,
			1064147403,
			853324846,
			1052678408,
			3200144958,
			3176582460,
			1064125960,
			1063920284,
			3192156546,
			1052132107,
			3200032313,
			3188794058,
			1063990937,
			1064117737,
			3188629750,
			1051929389,
			3200162057,
			845128652,
			1064147405,
			1064147403,
			853324846,
			1052678408,
			3200032313,
			3188794058,
			1063990937,
			1064117737,
			3188629750,
			1051929389,
			3199927889,
			3192155462,
			1063858678,
			1064188924,
			3176104406,
			1052351134,
			3200162057,
			845128652,
			1064147405,
			1064147403,
			853324846,
			1052678408,
			3199927889,
			3192155462,
			1063858678,
			1064188924,
			3176104406,
			1052351134,
			3199929552,
			3192149827,
			1063858641,
			1064065615,
			1028538233,
			1052967563,
			3200162057,
			845128652,
			1064147405,
			1064147403,
			853324846,
			1052678408,
			3199929552,
			3192149827,
			1063858641,
			1064065615,
			1028538233,
			1052967563,
			3200038563,
			3188778795,
			1063990272,
			1063868384,
			1041131130,
			1053175799,
			3200162057,
			845128652,
			1064147405,
			1064147403,
			853324846,
			1052678408,
			3183823201,
			3204825128,
			1062789703,
			1060183573,
			1058252514,
			1054761938,
			3196559549,
			3191765955,
			1064449995,
			1058254951,
			1061253878,
			1050592065,
			3199440677,
			1003620116,
			1064286898,
			1064281080,
			3167894276,
			1051958564,
			3197870893,
			1016878641,
			1064556088,
			1064553068,
			3165830679,
			1050399987,
			3196559549,
			3191765955,
			1064449995,
			1058254951,
			1061253878,
			1050592065,
			3202762060,
			1045277883,
			1063176852,
			1059318050,
			1061190006,
			1042359231,
			3201313689,
			3149386949,
			1063903610,
			1063900168,
			3167303144,
			1053821917,
			3199440677,
			1003620116,
			1064286898,
			1064281080,
			3167894276,
			1051958564,
			3202762060,
			1045277883,
			1063176852,
			1059318050,
			1061190006,
			1042359231,
			3203315551,
			1057912352,
			1060113756,
			1062502450,
			1057702942,
			1039859758,
			3202196644,
			3163534522,
			1063696849,
			1063698734,
			3164745237,
			1054701877,
			3201313689,
			3149386949,
			1063903610,
			1063900168,
			3167303144,
			1053821917,
			3203315551,
			1057912352,
			1060113756,
			1062502450,
			1057702942,
			1039859758,
			3197499625,
			1061308267,
			1058333771,
			1064541517,
			1043362792,
			1048724221,
			3201259794,
			3169020897,
			1063908791,
			1063915745,
			3154685001,
			1053773806,
			3202196644,
			3163534522,
			1063696849,
			1063698734,
			3164745237,
			1054701877,
			3197499625,
			1061308267,
			1058333771,
			1064541517,
			1043362792,
			1048724221,
			3185309547,
			1060976974,
			1059731435,
			1063303797,
			3195621020,
			1054026850,
			3198778030,
			3169613592,
			1064400004,
			1064404484,
			1008020620,
			1051306876,
			3201259794,
			3169020897,
			1063908791,
			1063915745,
			3154685001,
			1053773806,
			3185309547,
			1060976974,
			1059731435,
			1063303797,
			3195621020,
			1054026850,
			3183823164,
			1057341480,
			1062789703,
			1060183573,
			3205736164,
			1054761932,
			3197870899,
			3164362280,
			1064556087,
			1064553067,
			1018346980,
			1050399993,
			3198778030,
			3169613592,
			1064400004,
			1064404484,
			1008020620,
			1051306876,
			3183823164,
			1057341480,
			1062789703,
			1060183573,
			3205736164,
			1054761932,
			3196559548,
			1044282322,
			1064449993,
			1058254946,
			3208737530,
			1050592070,
			3199440685,
			3151103624,
			1064286897,
			1064281077,
			1020410572,
			1051958571,
			3197870899,
			3164362280,
			1064556087,
			1064553067,
			1018346980,
			1050399993,
			3196559548,
			1044282322,
			1064449993,
			1058254946,
			3208737530,
			1050592070,
			3202762063,
			3192761530,
			1063176850,
			1059318049,
			3208673656,
			1042359237,
			3201313689,
			1001903360,
			1063903610,
			1063900169,
			1019819538,
			1053821918,
			3199440685,
			3151103624,
			1064286897,
			1064281077,
			1020410572,
			1051958571,
			3202762063,
			3192761530,
			1063176850,
			1059318049,
			3208673656,
			1042359237,
			3203315543,
			3205396001,
			1060113759,
			1062502451,
			3205186586,
			1039859736,
			3202196645,
			1016050892,
			1063696848,
			1063698734,
			1017261614,
			1054701879,
			3201313689,
			1001903360,
			1063903610,
			1063900169,
			1019819538,
			1053821918,
			3203315543,
			3205396001,
			1060113759,
			1062502451,
			3205186586,
			1039859736,
			3197499630,
			3208791915,
			1058333771,
			1064541517,
			3190846448,
			1048724224,
			3201259795,
			1021537208,
			1063908791,
			1063915744,
			1007201304,
			1053773806,
			3202196645,
			1016050892,
			1063696848,
			1063698734,
			1017261614,
			1054701879,
			3197499630,
			3208791915,
			1058333771,
			1064541517,
			3190846448,
			1048724224,
			3185309519,
			3208460622,
			1059731434,
			1063303796,
			1048137388,
			1054026850,
			3198778034,
			1022129869,
			1064400004,
			1064404484,
			3155504246,
			1051306880,
			3201259795,
			1021537208,
			1063908791,
			1063915744,
			1007201304,
			1053773806,
			3185309519,
			3208460622,
			1059731434,
			1063303796,
			1048137388,
			1054026850,
			3183823201,
			3204825128,
			1062789703,
			1060183573,
			1058252514,
			1054761938,
			3197870893,
			1016878641,
			1064556088,
			1064553068,
			3165830679,
			1050399987,
			3198778034,
			1022129869,
			1064400004,
			1064404484,
			3155504246,
			1051306880,
			3197870893,
			1016878641,
			1064556088,
			1064553068,
			3165830679,
			1050399987,
			3199440677,
			1003620116,
			1064286898,
			1064281080,
			3167894276,
			1051958564,
			3199370232,
			1041622231,
			1064107450,
			1061624150,
			3204549308,
			1052700819,
			3197573129,
			1053131567,
			1063241408,
			1062354444,
			3199923460,
			1054897798,
			3199440677,
			1003620116,
			1064286898,
			1064281080,
			3167894276,
			1051958564,
			3201313689,
			3149386949,
			1063903610,
			1063900168,
			3167303144,
			1053821917,
			3201061114,
			3188558820,
			1063783669,
			1062252860,
			3204549603,
			1049640261,
			3199370232,
			1041622231,
			1064107450,
			1061624150,
			3204549308,
			1052700819,
			3201313689,
			3149386949,
			1063903610,
			1063900168,
			3167303144,
			1053821917,
			3202196644,
			3163534522,
			1063696849,
			1063698734,
			3164745237,
			1054701877,
			3200767650,
			3200501691,
			1062627273,
			1063627724,
			3199828205,
			1048665939,
			3201061114,
			3188558820,
			1063783669,
			1062252860,
			3204549603,
			1049640261,
			3202196644,
			3163534522,
			1063696849,
			1063698734,
			3164745237,
			1054701877,
			3201259794,
			3169020897,
			1063908791,
			1063915745,
			3154685001,
			1053773806,
			3198654429,
			3204732044,
			1061846487,
			1064392948,
			3187304532,
			1050597233,
			3200767650,
			3200501691,
			1062627273,
			1063627724,
			3199828205,
			1048665939,
			3201259794,
			3169020897,
			1063908791,
			1063915745,
			3154685001,
			1053773806,
			3198778030,
			3169613592,
			1064400004,
			1064404484,
			1008020620,
			1051306876,
			3197082954,
			3204697391,
			1062167115,
			1063758947,
			1041156334,
			1053675222,
			3198654429,
			3204732044,
			1061846487,
			1064392948,
			3187304532,
			1050597233,
			3198778030,
			3169613592,
			1064400004,
			1064404484,
			1008020620,
			1051306876,
			3197870899,
			3164362280,
			1064556087,
			1064553067,
			1018346980,
			1050399993,
			3197573111,
			3200615214,
			1063241411,
			1062354448,
			1052439815,
			1054897782,
			3197082954,
			3204697391,
			1062167115,
			1063758947,
			1041156334,
			1053675222,
			3197870899,
			3164362280,
			1064556087,
			1064553067,
			1018346980,
			1050399993,
			3199440685,
			3151103624,
			1064286897,
			1064281077,
			1020410572,
			1051958571,
			3199370232,
			3189105866,
			1064107450,
			1061624153,
			1057065658,
			1052700817,
			3197573111,
			3200615214,
			1063241411,
			1062354448,
			1052439815,
			1054897782,
			3199440685,
			3151103624,
			1064286897,
			1064281077,
			1020410572,
			1051958571,
			3201313689,
			1001903360,
			1063903610,
			1063900169,
			1019819538,
			1053821918,
			3201061121,
			1041075170,
			1063783669,
			1062252858,
			1057065957,
			1049640266,
			3199370232,
			3189105866,
			1064107450,
			1061624153,
			1057065658,
			1052700817,
			3201313689,
			1001903360,
			1063903610,
			1063900169,
			1019819538,
			1053821918,
			3202196645,
			1016050892,
			1063696848,
			1063698734,
			1017261614,
			1054701879,
			3200767639,
			1053018049,
			1062627274,
			1063627726,
			1052344555,
			1048665927,
			3201061121,
			1041075170,
			1063783669,
			1062252858,
			1057065957,
			1049640266,
			3202196645,
			1016050892,
			1063696848,
			1063698734,
			1017261614,
			1054701879,
			3201259795,
			1021537208,
			1063908791,
			1063915744,
			1007201304,
			1053773806,
			3198654431,
			1057248394,
			1061846489,
			1064392946,
			1039820882,
			1050597233,
			3200767639,
			1053018049,
			1062627274,
			1063627726,
			1052344555,
			1048665927,
			3201259795,
			1021537208,
			1063908791,
			1063915744,
			1007201304,
			1053773806,
			3198778034,
			1022129869,
			1064400004,
			1064404484,
			3155504246,
			1051306880,
			3197082993,
			1057213737,
			1062167112,
			1063758941,
			3188639940,
			1053675249,
			3198654431,
			1057248394,
			1061846489,
			1064392946,
			1039820882,
			1050597233,
			3198778034,
			1022129869,
			1064400004,
			1064404484,
			3155504246,
			1051306880,
			3197870893,
			1016878641,
			1064556088,
			1064553068,
			3165830679,
			1050399987,
			3197573129,
			1053131567,
			1063241408,
			1062354444,
			3199923460,
			1054897798,
			3197082993,
			1057213737,
			1062167112,
			1063758941,
			3188639940,
			1053675249;
		}
	}
}
