xof 0303txt 0032

Material lambert1 {
	 0.400000; 0.400000; 0.400000; 1.000000;;
	 0.000000;
	 0.000000; 0.000000; 0.000000;;
	 0.000000; 0.000000; 0.000000;;
}
Material lambert7SG1 {
	 0.800000; 0.800000; 0.800000; 1.000000;;
	 0.000000;
	 0.000000; 0.000000; 0.000000;;
	 0.000000; 0.000000; 0.000000;;
	TextureFileName {"CORAL_DIF_01.tga";}
}
Frame CORAL1 {
	FrameTransformMatrix {
		1.000000,0.000000,-0.000000,0.000000,0.000000,1.000000,-0.000000,0.000000,-0.000000,-0.000000,1.000000,0.000000,0.000000,0.000000,-0.000000,1.000000;;
	}
	Mesh CORALShape8 {
		4;
		-18.926384; -1.708878; -78.886833;,
		-9.792445; -1.704274; -83.068924;,
		-9.192272;  3.105853; -81.752808;,
		-18.326210;  3.101249; -77.570717;;
		1;
		4;3,2,1,0;;
		MeshNormals {
			4;
			-0.398785, 0.287980,-0.870654;,
			-0.398785, 0.287980,-0.870654;,
			-0.398785, 0.287980,-0.870654;,
			-0.398785, 0.287980,-0.870654;;
			1;
			4;3,2,1,0;;
		}
		MeshTextureCoords {
			4;
			 0.000000;-0.000000;,
			 1.000000;-0.000000;,
			 1.000000;-1.000000;,
			 0.000000;-1.000000;;
		}
		MeshVertexColors {
			4;
			0; 1.000000; 1.000000; 1.000000; 1.000000;;,
			1; 1.000000; 1.000000; 1.000000; 1.000000;;,
			2; 1.000000; 1.000000; 1.000000; 1.000000;;,
			3; 1.000000; 1.000000; 1.000000; 1.000000;;;
		}
		MeshMaterialList {
			1;
			1;
			0;
			{lambert7SG1}
		}
		VertexDuplicationIndices {
			4;
			4;
			0,
			1,
			2,
			3;
		}
		DeclData {
			2;
			2;0;6;0;,
			2;0;7;0;;
			24;
			1063830296,
			972047298,
			3201639781,
			1039447492,
			1064642472,
			1048979386,
			1063830294,
			972046362,
			3201639780,
			1039447496,
			1064642472,
			1048979386,
			1063830294,
			972045429,
			3201639780,
			1039447499,
			1064642472,
			1048979385,
			1063830294,
			972046362,
			3201639780,
			1039447496,
			1064642472,
			1048979386;
		}
	}
}
Frame CORAL2 {
	FrameTransformMatrix {
		0.955835,0.009413,-0.293753,0.000000,-0.093689,0.957103,-0.274183,0.000000,0.278571,0.289596,0.915714,0.000000,4.526903,5.743921,6.938373,1.000000;;
	}
	Mesh CORALShape9 {
		4;
		 10.265932; -1.499951; -22.813688;,
		 22.917477;  1.803027; -25.427549;,
		 21.485123;  8.209797; -24.264555;,
		 8.833576;  4.906818; -21.650694;;
		1;
		4;3,2,1,0;;
		MeshNormals {
			4;
			-0.231579, 0.123391,-0.964959;,
			-0.231579, 0.123391,-0.964959;,
			-0.231579, 0.123391,-0.964959;,
			-0.231579, 0.123391,-0.964959;;
			1;
			4;3,2,1,0;;
		}
		MeshTextureCoords {
			4;
			 0.000000;-0.000000;,
			 1.000000;-0.000000;,
			 1.000000;-1.000000;,
			 0.000000;-1.000000;;
		}
		MeshVertexColors {
			4;
			0; 1.000000; 1.000000; 1.000000; 1.000000;;,
			1; 1.000000; 1.000000; 1.000000; 1.000000;;,
			2; 1.000000; 1.000000; 1.000000; 1.000000;;,
			3; 1.000000; 1.000000; 1.000000; 1.000000;;;
		}
		MeshMaterialList {
			1;
			1;
			0;
			{lambert7SG1}
		}
		VertexDuplicationIndices {
			4;
			4;
			0,
			1,
			2,
			3;
		}
		DeclData {
			2;
			2;0;6;0;,
			2;0;7;0;;
			24;
			1064494174,
			1048422017,
			3192437500,
			3193699953,
			1064697994,
			1043505012,
			1064494174,
			1048422016,
			3192437500,
			3193699952,
			1064697994,
			1043505012,
			1064494175,
			1048422018,
			3192437502,
			3193699954,
			1064697995,
			1043505013,
			1064494174,
			1048422016,
			3192437500,
			3193699952,
			1064697994,
			1043505012;
		}
	}
}
Frame CORAL3 {
	FrameTransformMatrix {
		0.989119,0.130651,-0.067627,0.000000,-0.134998,0.988758,-0.064281,0.000000,0.058469,0.072711,0.995638,0.000000,4.296502,16.551394,-8.953415,1.000000;;
	}
	Mesh CORALShape10 {
		4;
		-145.584595;  0.824772;  20.046110;,
		-130.586914; -0.546422;  19.964174;,
		-129.918350;  6.637148;  22.121422;,
		-144.916031;  8.008341;  22.203356;;
		1;
		4;3,2,1,0;;
		MeshNormals {
			4;
			 0.020893, 0.285767,-0.958071;,
			 0.020893, 0.285767,-0.958071;,
			 0.020893, 0.285767,-0.958071;,
			 0.020893, 0.285767,-0.958071;;
			1;
			4;3,2,1,0;;
		}
		MeshTextureCoords {
			4;
			 0.000000;-0.000000;,
			 1.000000;-0.000000;,
			 1.000000;-1.000000;,
			 0.000000;-1.000000;;
		}
		MeshVertexColors {
			4;
			0; 1.000000; 1.000000; 1.000000; 1.000000;;,
			1; 1.000000; 1.000000; 1.000000; 1.000000;;,
			2; 1.000000; 1.000000; 1.000000; 1.000000;;,
			3; 1.000000; 1.000000; 1.000000; 1.000000;;;
		}
		MeshMaterialList {
			1;
			1;
			0;
			{lambert7SG1}
		}
		VertexDuplicationIndices {
			4;
			4;
			0,
			1,
			2,
			3;
		}
		DeclData {
			2;
			2;0;6;0;,
			2;0;7;0;;
			24;
			1065283287,
			3183113815,
			3149021995,
			1035326455,
			1064580865,
			1049800005,
			1065283287,
			3183113812,
			3149021979,
			1035326452,
			1064580865,
			1049800005,
			1065283287,
			3183113809,
			3149021963,
			1035326449,
			1064580865,
			1049800005,
			1065283287,
			3183113812,
			3149021979,
			1035326452,
			1064580865,
			1049800005;
		}
	}
}
Frame CORAL4 {
	FrameTransformMatrix {
		1.000000,0.000000,-0.000000,0.000000,0.000000,1.000000,-0.000000,0.000000,-0.000000,-0.000000,1.000000,0.000000,0.000000,0.000000,-0.000000,1.000000;;
	}
	Mesh CORALShape11 {
		4;
		-133.618149; -0.021738; -101.632889;,
		-125.029984;  0.032204; -105.188660;,
		-124.476059;  4.427779; -103.784088;,
		-133.064224;  4.373836; -100.228317;;
		1;
		4;3,2,1,0;;
		MeshNormals {
			4;
			-0.363539, 0.324812,-0.873119;,
			-0.363539, 0.324812,-0.873119;,
			-0.363539, 0.324812,-0.873119;,
			-0.363539, 0.324812,-0.873119;;
			1;
			4;3,2,1,0;;
		}
		MeshTextureCoords {
			4;
			 0.000000;-0.000000;,
			 1.000000;-0.000000;,
			 1.000000;-1.000000;,
			 0.000000;-1.000000;;
		}
		MeshVertexColors {
			4;
			0; 1.000000; 1.000000; 1.000000; 1.000000;;,
			1; 1.000000; 1.000000; 1.000000; 1.000000;;,
			2; 1.000000; 1.000000; 1.000000; 1.000000;;,
			3; 1.000000; 1.000000; 1.000000; 1.000000;;;
		}
		MeshMaterialList {
			1;
			1;
			0;
			{lambert7SG1}
		}
		VertexDuplicationIndices {
			4;
			4;
			0,
			1,
			2,
			3;
		}
		DeclData {
			2;
			2;0;6;0;,
			2;0;7;0;;
			24;
			1064076863,
			1002317998,
			3200506734,
			1039406860,
			1064443234,
			1050327913,
			1064076863,
			1002318152,
			3200506734,
			1039406851,
			1064443234,
			1050327914,
			1064076863,
			1002318306,
			3200506733,
			1039406844,
			1064443235,
			1050327916,
			1064076863,
			1002318152,
			3200506734,
			1039406851,
			1064443234,
			1050327914;
		}
	}
}
Frame CORAL5 {
	FrameTransformMatrix {
		0.998428,0.005345,0.055790,0.000000,-0.025332,0.931001,0.364137,0.000000,-0.049994,-0.364978,0.929673,0.000000,1.080260,8.230020,3.307927,1.000000;;
	}
	Mesh CORALShape12 {
		4;
		-57.044399;  1.395510;  23.449965;,
		-38.708012;  1.514116;  19.387222;,
		-37.784126;  9.753139;  23.797518;,
		-56.120518;  9.634535;  27.860260;;
		1;
		4;3,2,1,0;;
		MeshNormals {
			4;
			-0.192753, 0.479796,-0.855945;,
			-0.192753, 0.479796,-0.855945;,
			-0.192753, 0.479796,-0.855945;,
			-0.192753, 0.479796,-0.855945;;
			1;
			4;3,2,1,0;;
		}
		MeshTextureCoords {
			4;
			 0.000000;-0.000000;,
			 1.000000;-0.000000;,
			 1.000000;-1.000000;,
			 0.000000;-1.000000;;
		}
		MeshVertexColors {
			4;
			0; 1.000000; 1.000000; 1.000000; 1.000000;;,
			1; 1.000000; 1.000000; 1.000000; 1.000000;;,
			2; 1.000000; 1.000000; 1.000000; 1.000000;;,
			3; 1.000000; 1.000000; 1.000000; 1.000000;;;
		}
		MeshMaterialList {
			1;
			1;
			0;
			{lambert7SG1}
		}
		VertexDuplicationIndices {
			4;
			4;
			0,
			1,
			2,
			3;
		}
		DeclData {
			2;
			2;0;6;0;,
			2;0;7;0;;
			24;
			1064955643,
			1003417317,
			3193799209,
			1036614864,
			1063295614,
			1055946013,
			1064955643,
			1003417272,
			3193799210,
			1036614868,
			1063295614,
			1055946013,
			1064955643,
			1003417228,
			3193799211,
			1036614871,
			1063295614,
			1055946013,
			1064955643,
			1003417272,
			3193799210,
			1036614868,
			1063295614,
			1055946013;
		}
	}
}
Frame CORAL6 {
	FrameTransformMatrix {
		0.998702,0.004830,-0.050706,0.000000,-0.004088,0.999883,0.014717,0.000000,0.050771,-0.014490,0.998605,0.000000,2.895474,-0.562620,1.832860,1.000000;;
	}
	Mesh CORALShape13 {
		4;
		 33.893581; -0.892189; -7.268108;,
		 39.198215;  0.078865; -32.149055;,
		 41.656631;  12.527643; -31.139072;,
		 36.351994;  11.556589; -6.258122;;
		1;
		4;3,2,1,0;;
		MeshNormals {
			4;
			-0.958794, 0.205279,-0.196404;,
			-0.958794, 0.205279,-0.196404;,
			-0.958794, 0.205279,-0.196404;,
			-0.958794, 0.205279,-0.196404;;
			1;
			4;3,2,1,0;;
		}
		MeshTextureCoords {
			4;
			 0.000000;-0.000000;,
			 1.000000;-0.000000;,
			 1.000000;-1.000000;,
			 0.000000;-1.000000;;
		}
		MeshVertexColors {
			4;
			0; 1.000000; 1.000000; 1.000000; 1.000000;;,
			1; 1.000000; 1.000000; 1.000000; 1.000000;;,
			2; 1.000000; 1.000000; 1.000000; 1.000000;;,
			3; 1.000000; 1.000000; 1.000000; 1.000000;;;
		}
		MeshMaterialList {
			1;
			1;
			0;
			{lambert7SG1}
		}
		VertexDuplicationIndices {
			4;
			4;
			0,
			1,
			2,
			3;
		}
		DeclData {
			2;
			2;0;6;0;,
			2;0;7;0;;
			24;
			1045781770,
			1025260330,
			3212456149,
			1044759481,
			1064983447,
			1034059435,
			1045781772,
			1025260332,
			3212456150,
			1044759479,
			1064983446,
			1034059436,
			1045781773,
			1025260333,
			3212456150,
			1044759479,
			1064983446,
			1034059437,
			1045781772,
			1025260332,
			3212456150,
			1044759479,
			1064983446,
			1034059436;
		}
	}
}
Frame CORAL7 {
	FrameTransformMatrix {
		1.000000,0.000000,-0.000000,0.000000,0.000000,1.000000,-0.000000,0.000000,-0.000000,-0.000000,1.000000,0.000000,0.000000,0.000000,-0.000000,1.000000;;
	}
	Mesh CORALShape14 {
		4;
		 15.751621; -1.210428; -101.271492;,
		 6.761588; -0.660208; -110.016144;,
		 6.950688;  5.610541; -109.815994;,
		 15.940721;  5.060321; -101.071335;;
		1;
		4;3,2,1,0;;
		MeshNormals {
			4;
			-0.697314,-0.001850, 0.716764;,
			-0.697314,-0.001850, 0.716764;,
			-0.697314,-0.001850, 0.716764;,
			-0.697314,-0.001850, 0.716764;;
			1;
			4;3,2,1,0;;
		}
		MeshTextureCoords {
			4;
			 0.000000;-0.000000;,
			 1.000000;-0.000000;,
			 1.000000;-1.000000;,
			 0.000000;-1.000000;;
		}
		MeshVertexColors {
			4;
			0; 1.000000; 1.000000; 1.000000; 1.000000;;,
			1; 1.000000; 1.000000; 1.000000; 1.000000;;,
			2; 1.000000; 1.000000; 1.000000; 1.000000;;,
			3; 1.000000; 1.000000; 1.000000; 1.000000;;;
		}
		MeshMaterialList {
			1;
			1;
			0;
			{lambert7SG1}
		}
		VertexDuplicationIndices {
			4;
			4;
			0,
			1,
			2,
			3;
		}
		DeclData {
			2;
			2;0;6;0;,
			2;0;7;0;;
			24;
			3208074360,
			1026787019,
			3207746433,
			1022807201,
			1065337066,
			1023581415,
			3208074360,
			1026787023,
			3207746434,
			1022807204,
			1065337066,
			1023581417,
			3208074360,
			1026787027,
			3207746434,
			1022807210,
			1065337066,
			1023581419,
			3208074360,
			1026787023,
			3207746434,
			1022807204,
			1065337066,
			1023581417;
		}
	}
}
Frame CORAL8 {
	FrameTransformMatrix {
		1.000000,0.000000,-0.000000,0.000000,0.000000,1.000000,-0.000000,0.000000,-0.000000,-0.000000,1.000000,0.000000,0.000000,0.000000,-0.000000,1.000000;;
	}
	Mesh CORALShape15 {
		4;
		-127.865410;  1.593638; -38.542339;,
		-126.087112; -0.084016; -42.977409;,
		-126.256569;  2.255791; -43.930435;,
		-128.034851;  3.933446; -39.495365;;
		1;
		4;3,2,1,0;;
		MeshNormals {
			4;
			-0.933927,-0.190766,-0.302307;,
			-0.933927,-0.190766,-0.302307;,
			-0.933927,-0.190766,-0.302307;,
			-0.933927,-0.190766,-0.302307;;
			1;
			4;3,2,1,0;;
		}
		MeshTextureCoords {
			4;
			 0.000000;-0.000000;,
			 1.000000;-0.000000;,
			 1.000000;-1.000000;,
			 0.000000;-1.000000;;
		}
		MeshVertexColors {
			4;
			0; 1.000000; 1.000000; 1.000000; 1.000000;;,
			1; 1.000000; 1.000000; 1.000000; 1.000000;;,
			2; 1.000000; 1.000000; 1.000000; 1.000000;;,
			3; 1.000000; 1.000000; 1.000000; 1.000000;;;
		}
		MeshMaterialList {
			1;
			1;
			0;
			{lambert7SG1}
		}
		VertexDuplicationIndices {
			4;
			4;
			0,
			1,
			2,
			3;
		}
		DeclData {
			2;
			2;0;6;0;,
			2;0;7;0;;
			24;
			1051969871,
			3198786743,
			3210752455,
			3179875506,
			1064078966,
			3200299986,
			1051969871,
			3198786741,
			3210752456,
			3179875510,
			1064078967,
			3200299984,
			1051969870,
			3198786737,
			3210752456,
			3179875515,
			1064078967,
			3200299982,
			1051969871,
			3198786741,
			3210752456,
			3179875510,
			1064078967,
			3200299984;
		}
	}
}
Frame CORAL9 {
	FrameTransformMatrix {
		1.000000,0.000000,-0.000000,0.000000,0.000000,1.000000,-0.000000,0.000000,-0.000000,-0.000000,1.000000,0.000000,0.000000,0.000000,-0.000000,1.000000;;
	}
	Mesh CORALShape16 {
		4;
		-145.266464;  0.440873; -91.619102;,
		-140.289612;  2.220953; -97.682076;,
		-141.537827;  6.042834; -97.584572;,
		-146.514664;  4.262753; -91.521606;;
		1;
		4;3,2,1,0;;
		MeshNormals {
			4;
			-0.721685,-0.218946,-0.656683;,
			-0.721685,-0.218946,-0.656683;,
			-0.721685,-0.218946,-0.656683;,
			-0.721685,-0.218946,-0.656683;;
			1;
			4;3,2,1,0;;
		}
		MeshTextureCoords {
			4;
			 0.000000;-0.000000;,
			 1.000000;-0.000000;,
			 1.000000;-1.000000;,
			 0.000000;-1.000000;;
		}
		MeshVertexColors {
			4;
			0; 1.000000; 1.000000; 1.000000; 1.000000;;,
			1; 1.000000; 1.000000; 1.000000; 1.000000;;,
			2; 1.000000; 1.000000; 1.000000; 1.000000;;,
			3; 1.000000; 1.000000; 1.000000; 1.000000;;;
		}
		MeshMaterialList {
			1;
			1;
			0;
			{lambert7SG1}
		}
		VertexDuplicationIndices {
			4;
			4;
			0,
			1,
			2,
			3;
		}
		DeclData {
			2;
			2;0;6;0;,
			2;0;7;0;;
			24;
			1058956798,
			1046650466,
			3208705923,
			3198085170,
			1064519526,
			1019648168,
			1058956796,
			1046650486,
			3208705923,
			3198085176,
			1064519525,
			1019648296,
			1058956794,
			1046650507,
			3208705923,
			3198085183,
			1064519524,
			1019648424,
			1058956796,
			1046650486,
			3208705923,
			3198085176,
			1064519525,
			1019648296;
		}
	}
}
Frame CORAL10 {
	FrameTransformMatrix {
		1.000000,0.000000,-0.000000,0.000000,0.000000,1.000000,-0.000000,0.000000,-0.000000,-0.000000,1.000000,0.000000,0.000000,0.000000,-0.000000,1.000000;;
	}
	Mesh CORALShape17 {
		4;
		-2.147470;  14.387540;  45.190243;,
		-11.449731;  13.831745;  44.190296;,
		-11.741668;  18.507351;  44.307304;,
		-2.439407;  19.063147;  45.307251;;
		1;
		4;3,2,1,0;;
		MeshNormals {
			4;
			-0.104970,-0.031429, 0.993979;,
			-0.104970,-0.031429, 0.993979;,
			-0.104970,-0.031429, 0.993979;,
			-0.104970,-0.031429, 0.993979;;
			1;
			4;3,2,1,0;;
		}
		MeshTextureCoords {
			4;
			 0.000000;-0.000000;,
			 1.000000;-0.000000;,
			 1.000000;-1.000000;,
			 0.000000;-1.000000;;
		}
		MeshVertexColors {
			4;
			0; 1.000000; 1.000000; 1.000000; 1.000000;;,
			1; 1.000000; 1.000000; 1.000000; 1.000000;;,
			2; 1.000000; 1.000000; 1.000000; 1.000000;;,
			3; 1.000000; 1.000000; 1.000000; 1.000000;;;
		}
		MeshMaterialList {
			1;
			1;
			0;
			{lambert7SG1}
		}
		VertexDuplicationIndices {
			4;
			4;
			0,
			1,
			2,
			3;
		}
		DeclData {
			2;
			2;0;6;0;,
			2;0;7;0;;
			24;
			3212711407,
			3178423858,
			3185213678,
			3179228124,
			1065315387,
			1020038138,
			3212711407,
			3178423872,
			3185213678,
			3179228138,
			1065315387,
			1020038134,
			3212711407,
			3178423885,
			3185213678,
			3179228151,
			1065315387,
			1020038132,
			3212711407,
			3178423872,
			3185213678,
			3179228138,
			1065315387,
			1020038134;
		}
	}
}
Frame CORAL11 {
	FrameTransformMatrix {
		1.000000,0.000000,-0.000000,0.000000,0.000000,1.000000,-0.000000,0.000000,-0.000000,-0.000000,1.000000,0.000000,0.000000,0.000000,-0.000000,1.000000;;
	}
	Mesh CORALShape18 {
		4;
		 34.105156; -0.331102; -80.133522;,
		 38.620533;  0.495473; -101.312523;,
		 40.713165;  11.092043; -100.452820;,
		 36.197788;  10.265469; -79.273811;;
		1;
		4;3,2,1,0;;
		MeshNormals {
			4;
			-0.958794, 0.205279,-0.196404;,
			-0.958794, 0.205279,-0.196404;,
			-0.958794, 0.205279,-0.196404;,
			-0.958794, 0.205279,-0.196404;;
			1;
			4;3,2,1,0;;
		}
		MeshTextureCoords {
			4;
			 0.000000;-0.000000;,
			 1.000000;-0.000000;,
			 1.000000;-1.000000;,
			 0.000000;-1.000000;;
		}
		MeshVertexColors {
			4;
			0; 1.000000; 1.000000; 1.000000; 1.000000;;,
			1; 1.000000; 1.000000; 1.000000; 1.000000;;,
			2; 1.000000; 1.000000; 1.000000; 1.000000;;,
			3; 1.000000; 1.000000; 1.000000; 1.000000;;;
		}
		MeshMaterialList {
			1;
			1;
			0;
			{lambert7SG1}
		}
		VertexDuplicationIndices {
			4;
			4;
			0,
			1,
			2,
			3;
		}
		DeclData {
			2;
			2;0;6;0;,
			2;0;7;0;;
			24;
			1045781771,
			1025260333,
			3212456149,
			1044759480,
			1064983447,
			1034059437,
			1045781772,
			1025260327,
			3212456150,
			1044759480,
			1064983446,
			1034059433,
			1045781771,
			1025260321,
			3212456150,
			1044759480,
			1064983446,
			1034059431,
			1045781772,
			1025260327,
			3212456150,
			1044759480,
			1064983446,
			1034059433;
		}
	}
}
Frame CORAL12 {
	FrameTransformMatrix {
		1.000000,0.000000,-0.000000,0.000000,0.000000,1.000000,-0.000000,0.000000,-0.000000,-0.000000,1.000000,0.000000,0.000000,0.000000,-0.000000,1.000000;;
	}
	Mesh CORALShape19 {
		4;
		-115.867325;  0.348749; -48.047222;,
		-112.086609;  1.338078; -53.081413;,
		-111.764488;  4.394271; -52.238892;,
		-115.545204;  3.404941; -47.204700;;
		1;
		4;3,2,1,0;;
		MeshNormals {
			4;
			-0.798656, 0.236705,-0.553280;,
			-0.798656, 0.236705,-0.553280;,
			-0.798656, 0.236705,-0.553280;,
			-0.798656, 0.236705,-0.553280;;
			1;
			4;3,2,1,0;;
		}
		MeshTextureCoords {
			4;
			 0.000000;-0.000000;,
			 1.000000;-0.000000;,
			 1.000000;-1.000000;,
			 0.000000;-1.000000;;
		}
		MeshVertexColors {
			4;
			0; 1.000000; 1.000000; 1.000000; 1.000000;;,
			1; 1.000000; 1.000000; 1.000000; 1.000000;;,
			2; 1.000000; 1.000000; 1.000000; 1.000000;;,
			3; 1.000000; 1.000000; 1.000000; 1.000000;;;
		}
		MeshMaterialList {
			1;
			1;
			0;
			{lambert7SG1}
		}
		VertexDuplicationIndices {
			4;
			4;
			0,
			1,
			2,
			3;
		}
		DeclData {
			2;
			2;0;6;0;,
			2;0;7;0;;
			24;
			1058528854,
			1042216528,
			3209312295,
			1036978065,
			1064667025,
			1049059272,
			1058528854,
			1042216527,
			3209312295,
			1036978066,
			1064667025,
			1049059272,
			1058528854,
			1042216527,
			3209312295,
			1036978066,
			1064667025,
			1049059272,
			1058528854,
			1042216527,
			3209312295,
			1036978066,
			1064667025,
			1049059272;
		}
	}
}
Frame CORAL13 {
	FrameTransformMatrix {
		1.000000,0.000000,-0.000000,0.000000,0.000000,1.000000,-0.000000,0.000000,-0.000000,-0.000000,1.000000,0.000000,-0.322888,-0.151498,0.272337,1.000000;;
	}
	Mesh CORALShape20 {
		4;
		-19.002110; -1.756475; -71.265274;,
		-16.992815; -0.517044; -81.029762;,
		-16.113344;  4.363072; -80.229347;,
		-18.122637;  3.123641; -70.464851;;
		1;
		4;3,2,1,0;;
		MeshNormals {
			4;
			-0.964022, 0.202061,-0.172724;,
			-0.964022, 0.202061,-0.172724;,
			-0.964022, 0.202061,-0.172724;,
			-0.964022, 0.202061,-0.172724;;
			1;
			4;3,2,1,0;;
		}
		MeshTextureCoords {
			4;
			 0.000000;-0.000000;,
			 1.000000;-0.000000;,
			 1.000000;-1.000000;,
			 0.000000;-1.000000;;
		}
		MeshVertexColors {
			4;
			0; 1.000000; 1.000000; 1.000000; 1.000000;;,
			1; 1.000000; 1.000000; 1.000000; 1.000000;;,
			2; 1.000000; 1.000000; 1.000000; 1.000000;;,
			3; 1.000000; 1.000000; 1.000000; 1.000000;;;
		}
		MeshMaterialList {
			1;
			1;
			0;
			{lambert7SG1}
		}
		VertexDuplicationIndices {
			4;
			4;
			0,
			1,
			2,
			3;
		}
		DeclData {
			2;
			2;0;6;0;,
			2;0;7;0;;
			24;
			1045221406,
			1039969657,
			3212367006,
			1043548994,
			1064876249,
			1042492821,
			1045221404,
			1039969647,
			3212367006,
			1043548995,
			1064876249,
			1042492816,
			1045221402,
			1039969637,
			3212367007,
			1043548997,
			1064876250,
			1042492810,
			1045221404,
			1039969647,
			3212367006,
			1043548995,
			1064876249,
			1042492816;
		}
	}
}
Frame CORAL14 {
	FrameTransformMatrix {
		0.999388,0.001750,-0.034935,0.000000,-0.001212,0.999880,0.015423,0.000000,0.034958,-0.015371,0.999271,0.000000,4.214915,-2.702798,-1.208918,1.000000;;
	}
	Mesh CORALShape21 {
		4;
		-39.721619; -2.629151; -113.728088;,
		-24.534494; -11.207345; -127.162384;,
		-19.752321; -1.333066; -128.061279;,
		-34.939442;  7.245128; -114.626991;;
		1;
		4;3,2,1,0;;
		MeshNormals {
			4;
			-0.579165, 0.208756,-0.788028;,
			-0.579165, 0.208756,-0.788028;,
			-0.579165, 0.208756,-0.788028;,
			-0.579165, 0.208756,-0.788028;;
			1;
			4;3,2,1,0;;
		}
		MeshTextureCoords {
			4;
			 0.000000;-0.000000;,
			 1.000000;-0.000000;,
			 1.000000;-1.000000;,
			 0.000000;-1.000000;;
		}
		MeshVertexColors {
			4;
			0; 1.000000; 1.000000; 1.000000; 1.000000;;,
			1; 1.000000; 1.000000; 1.000000; 1.000000;;,
			2; 1.000000; 1.000000; 1.000000; 1.000000;;,
			3; 1.000000; 1.000000; 1.000000; 1.000000;;;
		}
		MeshMaterialList {
			1;
			1;
			0;
			{lambert7SG1}
		}
		VertexDuplicationIndices {
			4;
			4;
			0,
			1,
			2,
			3;
		}
		DeclData {
			2;
			2;0;6;0;,
			2;0;7;0;;
			24;
			1060149174,
			3200744868,
			3206297098,
			1054764200,
			1063625164,
			3181853685,
			1060149174,
			3200744870,
			3206297098,
			1054764200,
			1063625164,
			3181853691,
			1060149173,
			3200744871,
			3206297098,
			1054764202,
			1063625164,
			3181853695,
			1060149174,
			3200744870,
			3206297098,
			1054764200,
			1063625164,
			3181853691;
		}
	}
}
Frame CORAL15 {
	FrameTransformMatrix {
		1.000000,0.000000,-0.000000,0.000000,0.000000,1.000000,-0.000000,0.000000,-0.000000,-0.000000,1.000000,0.000000,0.000000,0.000000,-0.000000,1.000000;;
	}
	Mesh CORALShape22 {
		4;
		-41.448307; -7.223006; -114.117271;,
		-32.858719; -6.704465; -121.627655;,
		-31.999596; -1.225066; -120.266762;,
		-40.589184; -1.743606; -112.756378;;
		1;
		4;3,2,1,0;;
		MeshNormals {
			4;
			-0.641720, 0.278130,-0.714730;,
			-0.641720, 0.278130,-0.714730;,
			-0.641720, 0.278130,-0.714730;,
			-0.641720, 0.278130,-0.714730;;
			1;
			4;3,2,1,0;;
		}
		MeshTextureCoords {
			4;
			 0.000000;-0.000000;,
			 1.000000;-0.000000;,
			 1.000000;-1.000000;,
			 0.000000;-1.000000;;
		}
		MeshVertexColors {
			4;
			0; 1.000000; 1.000000; 1.000000; 1.000000;;,
			1; 1.000000; 1.000000; 1.000000; 1.000000;;,
			2; 1.000000; 1.000000; 1.000000; 1.000000;;,
			3; 1.000000; 1.000000; 1.000000; 1.000000;;;
		}
		MeshMaterialList {
			1;
			1;
			0;
			{lambert7SG1}
		}
		VertexDuplicationIndices {
			4;
			4;
			0,
			1,
			2,
			3;
		}
		DeclData {
			2;
			2;0;6;0;,
			2;0;7;0;;
			24;
			1061193138,
			1027208360,
			3207091542,
			1041894421,
			1064673236,
			1047790731,
			1061193138,
			1027208348,
			3207091542,
			1041894424,
			1064673236,
			1047790729,
			1061193138,
			1027208335,
			3207091542,
			1041894426,
			1064673236,
			1047790727,
			1061193138,
			1027208348,
			3207091542,
			1041894424,
			1064673236,
			1047790729;
		}
	}
}
Frame CORAL16 {
	FrameTransformMatrix {
		0.998713,-0.008962,0.049914,0.000000,0.011293,0.998849,-0.046622,0.000000,-0.049438,0.047126,0.997665,0.000000,1.966318,-1.314413,6.370938,1.000000;;
	}
	Mesh CORALShape23 {
		4;
		-41.139740;  0.891917;  19.044516;,
		-28.884573;  1.862998;  20.271616;,
		-29.517401;  7.787158;  21.903585;,
		-41.772568;  6.816077;  20.676485;;
		1;
		4;3,2,1,0;;
		MeshNormals {
			4;
			 0.074487, 0.272234,-0.959344;,
			 0.074487, 0.272234,-0.959344;,
			 0.074487, 0.272234,-0.959344;,
			 0.074487, 0.272234,-0.959344;;
			1;
			4;3,2,1,0;;
		}
		MeshTextureCoords {
			4;
			 0.000000;-0.000000;,
			 1.000000;-0.000000;,
			 1.000000;-1.000000;,
			 0.000000;-1.000000;;
		}
		MeshVertexColors {
			4;
			0; 1.000000; 1.000000; 1.000000; 1.000000;;,
			1; 1.000000; 1.000000; 1.000000; 1.000000;;,
			2; 1.000000; 1.000000; 1.000000; 1.000000;;,
			3; 1.000000; 1.000000; 1.000000; 1.000000;;;
		}
		MeshMaterialList {
			1;
			1;
			0;
			{lambert7SG1}
		}
		VertexDuplicationIndices {
			4;
			4;
			0,
			1,
			2,
			3;
		}
		DeclData {
			2;
			2;0;6;0;,
			2;0;7;0;;
			24;
			1065218094,
			1033959727,
			1036741060,
			3184643588,
			1064665611,
			1049052025,
			1065218094,
			1033959730,
			1036741060,
			3184643590,
			1064665611,
			1049052025,
			1065218094,
			1033959733,
			1036741061,
			3184643594,
			1064665611,
			1049052025,
			1065218094,
			1033959730,
			1036741060,
			3184643590,
			1064665611,
			1049052025;
		}
	}
}
Frame CORAL17 {
	FrameTransformMatrix {
		0.783900,0.047698,0.619052,0.000000,0.099771,0.974411,-0.201418,0.000000,-0.612818,0.219655,0.759082,0.000000,-36.814433,18.042461,63.256559,1.000000;;
	}
	Mesh CORALShape17 {
		4;
		-19.002110; -1.756475; -71.265274;,
		-16.992815; -0.517044; -81.029762;,
		-16.113344;  4.363072; -80.229347;,
		-18.122637;  3.123641; -70.464851;;
		1;
		4;3,2,1,0;;
		MeshNormals {
			4;
			-0.964022, 0.202061,-0.172724;,
			-0.964022, 0.202061,-0.172724;,
			-0.964022, 0.202061,-0.172724;,
			-0.964022, 0.202061,-0.172724;;
			1;
			4;3,2,1,0;;
		}
		MeshTextureCoords {
			4;
			 0.000000;-0.000000;,
			 1.000000;-0.000000;,
			 1.000000;-1.000000;,
			 0.000000;-1.000000;;
		}
		MeshVertexColors {
			4;
			0; 1.000000; 1.000000; 1.000000; 1.000000;;,
			1; 1.000000; 1.000000; 1.000000; 1.000000;;,
			2; 1.000000; 1.000000; 1.000000; 1.000000;;,
			3; 1.000000; 1.000000; 1.000000; 1.000000;;;
		}
		MeshMaterialList {
			1;
			1;
			0;
			{lambert7SG1}
		}
		VertexDuplicationIndices {
			4;
			4;
			0,
			1,
			2,
			3;
		}
		DeclData {
			2;
			2;0;6;0;,
			2;0;7;0;;
			24;
			1045221406,
			1039969657,
			3212367006,
			1043548994,
			1064876249,
			1042492821,
			1045221404,
			1039969647,
			3212367006,
			1043548995,
			1064876249,
			1042492816,
			1045221402,
			1039969637,
			3212367007,
			1043548997,
			1064876250,
			1042492810,
			1045221404,
			1039969647,
			3212367006,
			1043548995,
			1064876249,
			1042492816;
		}
	}
}
Frame CORAL18 {
	FrameTransformMatrix {
		-0.122420,-0.095699,-1.188288,0.000000,-0.313831,1.154990,-0.060686,0.000000,1.150086,0.304983,-0.143046,0.000000,-87.167420,20.997911,-108.741448,1.000000;;
	}
	Mesh CORALShape18 {
		4;
		-19.002110; -1.756475; -71.265274;,
		-16.992815; -0.517044; -81.029762;,
		-16.113344;  4.363072; -80.229347;,
		-18.122637;  3.123641; -70.464851;;
		1;
		4;3,2,1,0;;
		MeshNormals {
			4;
			-0.964022, 0.202061,-0.172724;,
			-0.964022, 0.202061,-0.172724;,
			-0.964022, 0.202061,-0.172724;,
			-0.964022, 0.202061,-0.172724;;
			1;
			4;3,2,1,0;;
		}
		MeshTextureCoords {
			4;
			 0.000000;-0.000000;,
			 1.000000;-0.000000;,
			 1.000000;-1.000000;,
			 0.000000;-1.000000;;
		}
		MeshVertexColors {
			4;
			0; 1.000000; 1.000000; 1.000000; 1.000000;;,
			1; 1.000000; 1.000000; 1.000000; 1.000000;;,
			2; 1.000000; 1.000000; 1.000000; 1.000000;;,
			3; 1.000000; 1.000000; 1.000000; 1.000000;;;
		}
		MeshMaterialList {
			1;
			1;
			0;
			{lambert7SG1}
		}
		VertexDuplicationIndices {
			4;
			4;
			0,
			1,
			2,
			3;
		}
		DeclData {
			2;
			2;0;6;0;,
			2;0;7;0;;
			24;
			1045221406,
			1039969657,
			3212367006,
			1043548994,
			1064876249,
			1042492821,
			1045221404,
			1039969647,
			3212367006,
			1043548995,
			1064876249,
			1042492816,
			1045221402,
			1039969637,
			3212367007,
			1043548997,
			1064876250,
			1042492810,
			1045221404,
			1039969647,
			3212367006,
			1043548995,
			1064876249,
			1042492816;
		}
	}
}
Frame CORAL19 {
	FrameTransformMatrix {
		0.679251,-0.045188,2.590135,0.000000,-1.173380,2.381893,0.349268,0.000000,-2.309550,-1.223424,0.584324,0.000000,-126.475192,-57.758083,261.651847,1.000000;;
	}
	Mesh CORALShape19 {
		4;
		-127.865410;  1.593638; -38.542339;,
		-126.087112; -0.084016; -42.977409;,
		-126.256569;  2.255791; -43.930435;,
		-128.034851;  3.933446; -39.495365;;
		1;
		4;3,2,1,0;;
		MeshNormals {
			4;
			-0.933927,-0.190766,-0.302307;,
			-0.933927,-0.190766,-0.302307;,
			-0.933927,-0.190766,-0.302307;,
			-0.933927,-0.190766,-0.302307;;
			1;
			4;3,2,1,0;;
		}
		MeshTextureCoords {
			4;
			 0.000000;-0.000000;,
			 1.000000;-0.000000;,
			 1.000000;-1.000000;,
			 0.000000;-1.000000;;
		}
		MeshVertexColors {
			4;
			0; 1.000000; 1.000000; 1.000000; 1.000000;;,
			1; 1.000000; 1.000000; 1.000000; 1.000000;;,
			2; 1.000000; 1.000000; 1.000000; 1.000000;;,
			3; 1.000000; 1.000000; 1.000000; 1.000000;;;
		}
		MeshMaterialList {
			1;
			1;
			0;
			{lambert7SG1}
		}
		VertexDuplicationIndices {
			4;
			4;
			0,
			1,
			2,
			3;
		}
		DeclData {
			2;
			2;0;6;0;,
			2;0;7;0;;
			24;
			1051969871,
			3198786743,
			3210752455,
			3179875506,
			1064078966,
			3200299986,
			1051969871,
			3198786741,
			3210752456,
			3179875510,
			1064078967,
			3200299984,
			1051969870,
			3198786737,
			3210752456,
			3179875515,
			1064078967,
			3200299982,
			1051969871,
			3198786741,
			3210752456,
			3179875510,
			1064078967,
			3200299984;
		}
	}
}
Frame CORAL20 {
	FrameTransformMatrix {
		0.166271,0.213723,1.977299,0.000000,-0.638545,1.884883,-0.150039,0.000000,-1.883521,-0.620141,0.225415,0.000000,-56.911326,0.665064,210.623960,1.000000;;
	}
	Mesh CORALShape20 {
		4;
		-127.865410;  1.593638; -38.542339;,
		-126.087112; -0.084016; -42.977409;,
		-126.256569;  2.255791; -43.930435;,
		-128.034851;  3.933446; -39.495365;;
		1;
		4;3,2,1,0;;
		MeshNormals {
			4;
			-0.933927,-0.190766,-0.302307;,
			-0.933927,-0.190766,-0.302307;,
			-0.933927,-0.190766,-0.302307;,
			-0.933927,-0.190766,-0.302307;;
			1;
			4;3,2,1,0;;
		}
		MeshTextureCoords {
			4;
			 0.000000;-0.000000;,
			 1.000000;-0.000000;,
			 1.000000;-1.000000;,
			 0.000000;-1.000000;;
		}
		MeshVertexColors {
			4;
			0; 1.000000; 1.000000; 1.000000; 1.000000;;,
			1; 1.000000; 1.000000; 1.000000; 1.000000;;,
			2; 1.000000; 1.000000; 1.000000; 1.000000;;,
			3; 1.000000; 1.000000; 1.000000; 1.000000;;;
		}
		MeshMaterialList {
			1;
			1;
			0;
			{lambert7SG1}
		}
		VertexDuplicationIndices {
			4;
			4;
			0,
			1,
			2,
			3;
		}
		DeclData {
			2;
			2;0;6;0;,
			2;0;7;0;;
			24;
			1051969871,
			3198786743,
			3210752455,
			3179875506,
			1064078966,
			3200299986,
			1051969871,
			3198786741,
			3210752456,
			3179875510,
			1064078967,
			3200299984,
			1051969870,
			3198786737,
			3210752456,
			3179875515,
			1064078967,
			3200299982,
			1051969871,
			3198786741,
			3210752456,
			3179875510,
			1064078967,
			3200299984;
		}
	}
}
Frame CORAL21 {
	FrameTransformMatrix {
		0.572226,-0.017777,1.250835,0.000000,0.161188,1.365069,-0.054339,0.000000,-1.240533,0.169169,0.569918,0.000000,-100.106284,26.381365,46.970569,1.000000;;
	}
	Mesh CORALShape21 {
		4;
		 34.105156; -0.331102; -80.133522;,
		 38.620533;  0.495473; -101.312523;,
		 40.713165;  11.092043; -100.452820;,
		 36.197788;  10.265469; -79.273811;;
		1;
		4;3,2,1,0;;
		MeshNormals {
			4;
			-0.958794, 0.205279,-0.196404;,
			-0.958794, 0.205279,-0.196404;,
			-0.958794, 0.205279,-0.196404;,
			-0.958794, 0.205279,-0.196404;;
			1;
			4;3,2,1,0;;
		}
		MeshTextureCoords {
			4;
			 0.000000;-0.000000;,
			 1.000000;-0.000000;,
			 1.000000;-1.000000;,
			 0.000000;-1.000000;;
		}
		MeshVertexColors {
			4;
			0; 1.000000; 1.000000; 1.000000; 1.000000;;,
			1; 1.000000; 1.000000; 1.000000; 1.000000;;,
			2; 1.000000; 1.000000; 1.000000; 1.000000;;,
			3; 1.000000; 1.000000; 1.000000; 1.000000;;;
		}
		MeshMaterialList {
			1;
			1;
			0;
			{lambert7SG1}
		}
		VertexDuplicationIndices {
			4;
			4;
			0,
			1,
			2,
			3;
		}
		DeclData {
			2;
			2;0;6;0;,
			2;0;7;0;;
			24;
			1045781771,
			1025260333,
			3212456149,
			1044759480,
			1064983447,
			1034059437,
			1045781772,
			1025260327,
			3212456150,
			1044759480,
			1064983446,
			1034059433,
			1045781771,
			1025260321,
			3212456150,
			1044759480,
			1064983446,
			1034059431,
			1045781772,
			1025260327,
			3212456150,
			1044759480,
			1064983446,
			1034059433;
		}
	}
}
