xof 0303txt 0032

Material lambert1 {
	 0.800000; 0.800000; 0.800000; 1.000000;;
	 0.000000;
	 0.000000; 0.000000; 0.000000;;
	 0.000000; 0.000000; 0.000000;;
	TextureFileName {".\\Checkered.tga";}
}
Material lambert2 {
	 0.400000; 0.400000; 0.400000; 1.000000;;
	 0.000000;
	 0.000000; 0.000000; 0.000000;;
	 0.000000; 0.000000; 0.000000;;
}
Material lambert3 {
	1.0;1.0;1.0; 1.000000;;
	 0.000000;
	 0.000000; 0.000000; 0.000000;;
	1.0;1.0;1.0;;
	TextureFileName {".\\initialShadingGroup-polySurface19.tga";}
}
Material lambert4 {
	 0.000000; 0.000000; 0.000000; 1.000000;;
	 0.000000;
	 0.000000; 0.000000; 0.000000;;
	 0.000000; 0.000000; 0.000000;;
}
Material lambert5 {
	 0.800000; 0.800000; 0.800000; 1.000000;;
	 0.000000;
	 0.000000; 0.000000; 0.000000;;
	 0.000000; 0.000000; 0.000000;;
	TextureFileName {".\\HARPOON_GUN_DIF_01.tga";}
}
Frame Harpoon_Gun {
	FrameTransformMatrix {
		1.000000,0.000000,-0.000000,0.000000,0.000000,1.000000,-0.000000,0.000000,-0.000000,-0.000000,1.000000,0.000000,0.000000,0.000000,-0.000000,1.000000;;
	}
	Frame MESH_HARPOON_BOLT {
		FrameTransformMatrix {
			1.000000,0.000000,-0.000000,0.000000,0.000000,1.000000,-0.000000,0.000000,-0.000000,-0.000000,1.000000,0.000000,0.000000,0.000000,-0.000000,1.000000;;
		}
		Mesh MESH_HARPOON_BOLTShape {
			274;
			 0.014224; -0.099366; -0.243641;,
			-0.012127; -0.099366; -0.243641;,
			-0.025902; -0.031500; -0.278357;,
			 0.027999; -0.031500; -0.278357;,
			-0.012127;  0.098327; -0.243640;,
			 0.014224;  0.098327; -0.243640;,
			 0.028000;  0.030460; -0.278357;,
			-0.025902;  0.030460; -0.278357;,
			 0.028000;  0.030460; -0.278357;,
			 0.001049; -0.000520; -0.528989;,
			 0.027999; -0.031500; -0.278357;,
			 0.014224; -0.099366; -0.243641;,
			 0.001049; -0.000520; -0.528989;,
			 0.001049; -0.113659; -0.233510;,
			 0.001049; -0.000520; -0.528989;,
			-0.012127; -0.099366; -0.243641;,
			 0.001049; -0.113659; -0.233510;,
			-0.025902; -0.031500; -0.278357;,
			-0.012127; -0.099366; -0.243641;,
			 0.001049; -0.000520; -0.528989;,
			-0.025902; -0.031500; -0.278357;,
			 0.001049; -0.000520; -0.528989;,
			-0.025902;  0.030460; -0.278357;,
			 0.028000;  0.030460; -0.278357;,
			 0.014224;  0.098327; -0.243640;,
			 0.001049; -0.000520; -0.528989;,
			 0.001049; -0.000520; -0.528989;,
			 0.001049;  0.112619; -0.233510;,
			-0.012127;  0.098327; -0.243640;,
			 0.014224;  0.098327; -0.243640;,
			 0.001049;  0.112619; -0.233510;,
			 0.001049; -0.000520; -0.528989;,
			 0.001049;  0.112619; -0.233510;,
			 0.014224;  0.098327; -0.243640;,
			-0.012127;  0.098327; -0.243640;,
			 0.001049; -0.113659; -0.233510;,
			-0.012127; -0.099366; -0.243641;,
			 0.014224; -0.099366; -0.243641;,
			 0.027999; -0.031500; -0.278357;,
			-0.025902; -0.031500; -0.278357;,
			-0.009323; -0.025289; -0.199736;,
			 0.011421; -0.025289; -0.199736;,
			-0.009323;  0.024249; -0.199736;,
			-0.009323; -0.025289; -0.199736;,
			-0.025902; -0.031500; -0.278357;,
			-0.025902;  0.030460; -0.278357;,
			 0.011421;  0.024249; -0.199736;,
			-0.009323;  0.024249; -0.199736;,
			-0.025902;  0.030460; -0.278357;,
			 0.028000;  0.030460; -0.278357;,
			 0.011421; -0.025289; -0.199736;,
			 0.011421;  0.024249; -0.199736;,
			 0.028000;  0.030460; -0.278357;,
			 0.027999; -0.031500; -0.278357;,
			-0.003636; -0.013725; -0.169529;,
			 0.011421; -0.025289; -0.199736;,
			-0.009323; -0.025289; -0.199736;,
			-0.014111;  0.000693; -0.169529;,
			-0.009323; -0.025289; -0.199736;,
			-0.009323;  0.024249; -0.199736;,
			-0.003636;  0.015110; -0.169529;,
			-0.009323;  0.024249; -0.199736;,
			 0.011421;  0.024249; -0.199736;,
			 0.013313;  0.000693; -0.169529;,
			 0.011421;  0.024249; -0.199736;,
			 0.011421; -0.025289; -0.199736;,
			 0.011421; -0.025289; -0.199736;,
			-0.003636; -0.013725; -0.169529;,
			 0.013313;  0.000693; -0.169529;,
			-0.009323; -0.025289; -0.199736;,
			-0.014111;  0.000693; -0.169529;,
			-0.003636; -0.013725; -0.169529;,
			-0.009323;  0.024249; -0.199736;,
			-0.003636;  0.015110; -0.169529;,
			-0.014111;  0.000693; -0.169529;,
			 0.011421;  0.024249; -0.199736;,
			 0.013313;  0.000693; -0.169529;,
			-0.003636;  0.015110; -0.169529;,
			-0.003636;  0.015110; -0.169529;,
			 0.013313;  0.000693; -0.169529;,
			 0.010353;  0.000693;  0.361011;,
			-0.002505;  0.011630;  0.361011;,
			-0.014111;  0.000693; -0.169529;,
			-0.003636;  0.015110; -0.169529;,
			-0.002505;  0.011630;  0.361011;,
			-0.010452;  0.000693;  0.361011;,
			-0.003636; -0.013725; -0.169529;,
			-0.014111;  0.000693; -0.169529;,
			-0.010452;  0.000693;  0.361011;,
			-0.002505; -0.010245;  0.361011;,
			 0.013313;  0.000693; -0.169529;,
			-0.003636; -0.013725; -0.169529;,
			-0.002505; -0.010245;  0.361011;,
			 0.010353;  0.000693;  0.361011;,
			-0.002505;  0.011630;  0.361011;,
			 0.010353;  0.000693;  0.361011;,
			-0.002505; -0.010245;  0.361011;,
			-0.010452;  0.000693;  0.361011;,
			-0.005059;  0.054290; -0.264920;,
			 0.007157;  0.054290; -0.264920;,
			 0.007157;  0.055416; -0.261127;,
			-0.005059;  0.055416; -0.261127;,
			-0.003838;  0.129895; -0.094423;,
			-0.005059;  0.042665; -0.217032;,
			-0.005059;  0.049050; -0.220296;,
			 0.001049;  0.093902; -0.231361;,
			 0.001049;  0.153612; -0.081339;,
			 0.007157;  0.042665; -0.217032;,
			-0.005059;  0.042665; -0.217032;,
			-0.003838;  0.129895; -0.094423;,
			 0.005936;  0.129895; -0.094423;,
			-0.005059;  0.042754; -0.241976;,
			-0.005059;  0.049050; -0.220296;,
			-0.005059;  0.042665; -0.217032;,
			-0.005059;  0.035590; -0.242284;,
			 0.007157;  0.042665; -0.217032;,
			 0.007157;  0.035590; -0.242284;,
			-0.005059;  0.035590; -0.242284;,
			-0.005059;  0.042665; -0.217032;,
			 0.007157;  0.049050; -0.220296;,
			 0.007157;  0.042754; -0.241976;,
			 0.007157;  0.035590; -0.242284;,
			 0.007157;  0.042665; -0.217032;,
			-0.005059;  0.055416; -0.261127;,
			-0.005059;  0.042754; -0.241976;,
			-0.005059;  0.035590; -0.242284;,
			-0.005059;  0.054290; -0.264920;,
			 0.007157;  0.035590; -0.242284;,
			 0.007157;  0.054290; -0.264920;,
			-0.005059;  0.054290; -0.264920;,
			-0.005059;  0.035590; -0.242284;,
			 0.007157;  0.042754; -0.241976;,
			 0.007157;  0.055416; -0.261127;,
			 0.007157;  0.054290; -0.264920;,
			 0.007157;  0.035590; -0.242284;,
			 0.001049;  0.153612; -0.081339;,
			 0.001049;  0.093902; -0.231361;,
			 0.007157;  0.049050; -0.220296;,
			 0.007157;  0.042665; -0.217032;,
			 0.005936;  0.129895; -0.094423;,
			 0.005936;  0.129895; -0.094423;,
			-0.003838;  0.129895; -0.094423;,
			 0.001049;  0.091201; -0.084669;,
			 0.001049;  0.091201; -0.084669;,
			-0.003838;  0.129895; -0.094423;,
			 0.001049;  0.153612; -0.081339;,
			 0.001049;  0.091201; -0.084669;,
			 0.001049;  0.153612; -0.081339;,
			 0.005936;  0.129895; -0.094423;,
			 0.007157; -0.062925; -0.264920;,
			-0.005059; -0.062925; -0.264920;,
			-0.005059; -0.064050; -0.261127;,
			 0.007157; -0.064050; -0.261127;,
			 0.005936; -0.138530; -0.094423;,
			 0.007157; -0.051300; -0.217032;,
			 0.007157; -0.057684; -0.220296;,
			 0.001049; -0.102537; -0.231361;,
			 0.001049; -0.162247; -0.081339;,
			-0.005059; -0.051300; -0.217032;,
			 0.007157; -0.051300; -0.217032;,
			 0.005936; -0.138530; -0.094423;,
			-0.003838; -0.138530; -0.094423;,
			 0.007157; -0.051389; -0.241976;,
			 0.007157; -0.057684; -0.220296;,
			 0.007157; -0.051300; -0.217032;,
			 0.007157; -0.044224; -0.242284;,
			-0.005059; -0.051300; -0.217032;,
			-0.005059; -0.044224; -0.242284;,
			 0.007157; -0.044224; -0.242284;,
			 0.007157; -0.051300; -0.217032;,
			-0.005059; -0.057684; -0.220296;,
			-0.005059; -0.051389; -0.241976;,
			-0.005059; -0.044224; -0.242284;,
			-0.005059; -0.051300; -0.217032;,
			 0.007157; -0.064050; -0.261127;,
			 0.007157; -0.051389; -0.241976;,
			 0.007157; -0.044224; -0.242284;,
			 0.007157; -0.062925; -0.264920;,
			-0.005059; -0.044224; -0.242284;,
			-0.005059; -0.062925; -0.264920;,
			 0.007157; -0.062925; -0.264920;,
			 0.007157; -0.044224; -0.242284;,
			-0.005059; -0.051389; -0.241976;,
			-0.005059; -0.064050; -0.261127;,
			-0.005059; -0.062925; -0.264920;,
			-0.005059; -0.044224; -0.242284;,
			 0.001049; -0.162247; -0.081339;,
			 0.001049; -0.102537; -0.231361;,
			-0.005059; -0.057684; -0.220296;,
			-0.005059; -0.051300; -0.217032;,
			-0.003838; -0.138530; -0.094423;,
			-0.003838; -0.138530; -0.094423;,
			 0.005936; -0.138530; -0.094423;,
			 0.001049; -0.099836; -0.084669;,
			 0.001049; -0.099836; -0.084669;,
			 0.005936; -0.138530; -0.094423;,
			 0.001049; -0.162247; -0.081339;,
			 0.001049; -0.099836; -0.084669;,
			 0.001049; -0.162247; -0.081339;,
			-0.003838; -0.138530; -0.094423;,
			 0.009397;  0.068913; -0.263975;,
			 0.009397;  0.084353; -0.216455;,
			 0.009397;  0.093895; -0.245824;,
			-0.007299;  0.084353; -0.216455;,
			 0.009397;  0.084353; -0.216455;,
			 0.009397;  0.053472; -0.216455;,
			-0.007299;  0.053472; -0.216455;,
			-0.007299;  0.053472; -0.216455;,
			 0.009397;  0.053472; -0.216455;,
			 0.009397;  0.043930; -0.245824;,
			-0.007299;  0.043930; -0.245824;,
			-0.007299;  0.043930; -0.245824;,
			 0.009397;  0.043930; -0.245824;,
			 0.009397;  0.068913; -0.263975;,
			-0.007299;  0.068913; -0.263975;,
			-0.007299;  0.068913; -0.263975;,
			 0.009397;  0.068913; -0.263975;,
			 0.009397;  0.093895; -0.245824;,
			-0.007299;  0.093895; -0.245824;,
			-0.007299;  0.093895; -0.245824;,
			 0.009397;  0.093895; -0.245824;,
			 0.009397;  0.084353; -0.216455;,
			-0.007299;  0.084353; -0.216455;,
			-0.007299;  0.093895; -0.245824;,
			-0.007299;  0.084353; -0.216455;,
			-0.007299;  0.068913; -0.263975;,
			 0.009397; -0.061642; -0.258958;,
			 0.009397; -0.077082; -0.211438;,
			 0.009397; -0.052099; -0.229589;,
			-0.007299; -0.052099; -0.229589;,
			 0.009397; -0.052099; -0.229589;,
			 0.009397; -0.077082; -0.211438;,
			-0.007299; -0.077082; -0.211438;,
			-0.007299; -0.077082; -0.211438;,
			 0.009397; -0.077082; -0.211438;,
			 0.009397; -0.102065; -0.229589;,
			-0.007299; -0.102065; -0.229589;,
			-0.007299; -0.102065; -0.229589;,
			 0.009397; -0.102065; -0.229589;,
			 0.009397; -0.092522; -0.258958;,
			-0.007299; -0.092522; -0.258958;,
			-0.007299; -0.092522; -0.258958;,
			 0.009397; -0.092522; -0.258958;,
			 0.009397; -0.061642; -0.258958;,
			-0.007299; -0.061642; -0.258958;,
			-0.007299; -0.061642; -0.258958;,
			 0.009397; -0.061642; -0.258958;,
			 0.009397; -0.052099; -0.229589;,
			-0.007299; -0.052099; -0.229589;,
			-0.007299; -0.061642; -0.258958;,
			-0.007299; -0.052099; -0.229589;,
			-0.007299; -0.077082; -0.211438;,
			-0.012127;  0.098327; -0.243640;,
			-0.025902;  0.030460; -0.278357;,
			 0.001049; -0.000520; -0.528989;,
			 0.014224; -0.099366; -0.243641;,
			 0.027999; -0.031500; -0.278357;,
			 0.001049; -0.000520; -0.528989;,
			 0.009397; -0.092522; -0.258958;,
			 0.009397; -0.102065; -0.229589;,
			 0.009397; -0.077082; -0.211438;,
			 0.009397; -0.061642; -0.258958;,
			 0.009397;  0.068913; -0.263975;,
			 0.009397;  0.043930; -0.245824;,
			 0.009397;  0.053472; -0.216455;,
			 0.009397;  0.084353; -0.216455;,
			-0.007299;  0.068913; -0.263975;,
			-0.007299;  0.084353; -0.216455;,
			-0.007299;  0.053472; -0.216455;,
			-0.007299;  0.043930; -0.245824;,
			-0.007299; -0.061642; -0.258958;,
			-0.007299; -0.077082; -0.211438;,
			-0.007299; -0.102065; -0.229589;,
			-0.007299; -0.092522; -0.258958;;
			75;
			4;3,2,1,0;,
			4;7,6,5,4;,
			3;10,9,8;,
			3;13,12,11;,
			3;16,15,14;,
			3;19,18,17;,
			3;22,21,20;,
			3;25,24,23;,
			3;28,27,26;,
			3;31,30,29;,
			3;34,33,32;,
			3;37,36,35;,
			4;41,40,39,38;,
			4;45,44,43,42;,
			4;49,48,47,46;,
			4;53,52,51,50;,
			3;56,55,54;,
			3;59,58,57;,
			3;62,61,60;,
			3;65,64,63;,
			3;68,67,66;,
			3;71,70,69;,
			3;74,73,72;,
			3;77,76,75;,
			4;81,80,79,78;,
			4;85,84,83,82;,
			4;89,88,87,86;,
			4;93,92,91,90;,
			4;97,96,95,94;,
			4;101,100,99,98;,
			5;106,105,104,103,102;,
			4;110,109,108,107;,
			4;114,113,112,111;,
			4;118,117,116,115;,
			4;122,121,120,119;,
			4;126,125,124,123;,
			4;130,129,128,127;,
			4;134,133,132,131;,
			5;139,138,137,136,135;,
			3;142,141,140;,
			3;145,144,143;,
			3;148,147,146;,
			4;152,151,150,149;,
			5;157,156,155,154,153;,
			4;161,160,159,158;,
			4;165,164,163,162;,
			4;169,168,167,166;,
			4;173,172,171,170;,
			4;177,176,175,174;,
			4;181,180,179,178;,
			4;185,184,183,182;,
			5;190,189,188,187,186;,
			3;193,192,191;,
			3;196,195,194;,
			3;199,198,197;,
			3;202,201,200;,
			4;206,205,204,203;,
			4;210,209,208,207;,
			4;214,213,212,211;,
			4;218,217,216,215;,
			4;222,221,220,219;,
			3;225,224,223;,
			3;228,227,226;,
			4;232,231,230,229;,
			4;236,235,234,233;,
			4;240,239,238,237;,
			4;244,243,242,241;,
			4;248,247,246,245;,
			3;251,250,249;,
			3;254,253,252;,
			3;257,256,255;,
			4;261,260,259,258;,
			4;265,264,263,262;,
			4;269,268,267,266;,
			4;273,272,271,270;;
			MeshNormals {
				202;
				 0.000000, 0.455409, 0.890282;,
				 0.000000, 0.455409, 0.890282;,
				 0.000000, 0.455409, 0.890282;,
				 0.000000, 0.455409, 0.890282;,
				 0.000000,-0.455410, 0.890282;,
				 0.000000,-0.455410, 0.890282;,
				 0.000000,-0.455410, 0.890282;,
				 0.000000,-0.455410, 0.890282;,
				 0.983594, 0.132726,-0.122172;,
				 0.973953, 0.000001,-0.226748;,
				 0.983594,-0.132726,-0.122172;,
				 0.815584,-0.534081,-0.222667;,
				 0.593869,-0.751365,-0.287698;,
				-0.973953, 0.000000,-0.226748;,
				-0.815584,-0.534081,-0.222667;,
				-0.593868,-0.751366,-0.287699;,
				-0.983594,-0.132726,-0.122172;,
				-0.983594, 0.132726,-0.122172;,
				 0.815582, 0.534083,-0.222668;,
				-0.593866, 0.751368,-0.287699;,
				-0.815583, 0.534082,-0.222667;,
				 0.593863, 0.751369,-0.287699;,
				 0.000000,-0.578278, 0.815840;,
				 0.000000,-0.578278, 0.815840;,
				 0.000000,-0.578278, 0.815840;,
				 0.000000, 0.578278, 0.815840;,
				 0.000000, 0.578278, 0.815840;,
				 0.000000, 0.578278, 0.815840;,
				 0.000000,-0.996894, 0.078755;,
				 0.000000,-0.996894, 0.078755;,
				 0.000000,-0.996894, 0.078755;,
				 0.000000,-0.996894, 0.078755;,
				-0.978481, 0.000000, 0.206334;,
				-0.978481, 0.000000, 0.206334;,
				-0.978481, 0.000000, 0.206334;,
				-0.978481, 0.000000, 0.206334;,
				 0.000000, 0.996894, 0.078754;,
				 0.000000, 0.996894, 0.078754;,
				 0.000000, 0.996894, 0.078754;,
				 0.000000, 0.996894, 0.078754;,
				 0.978482,-0.000000, 0.206334;,
				 0.978482,-0.000000, 0.206334;,
				 0.978482,-0.000000, 0.206334;,
				 0.978482,-0.000000, 0.206334;,
				 0.000000,-0.933910, 0.357509;,
				 0.000000,-0.933910, 0.357509;,
				 0.000000,-0.933910, 0.357509;,
				-0.987671,-0.000000,-0.156543;,
				-0.987671,-0.000000,-0.156543;,
				-0.987671,-0.000000,-0.156543;,
				 0.000000, 0.957157, 0.289569;,
				 0.000000, 0.957157, 0.289569;,
				 0.000000, 0.957157, 0.289569;,
				 0.998043,-0.000000,-0.062530;,
				 0.998043,-0.000000,-0.062530;,
				 0.998043,-0.000000,-0.062530;,
				 0.552030,-0.648948, 0.523573;,
				 0.552030,-0.648948, 0.523573;,
				 0.552030,-0.648948, 0.523573;,
				-0.756926,-0.549938, 0.353030;,
				-0.756926,-0.549938, 0.353030;,
				-0.756926,-0.549938, 0.353030;,
				-0.768234, 0.558154, 0.313497;,
				-0.768234, 0.558154, 0.313497;,
				-0.768234, 0.558154, 0.313497;,
				 0.566919, 0.666452, 0.484194;,
				 0.566919, 0.666452, 0.484194;,
				 0.566919, 0.666452, 0.484194;,
				-0.118516, 0.992929, 0.006766;,
				 0.999984,-0.000001, 0.005580;,
				 0.999984,-0.000001, 0.005580;,
				-0.118516, 0.992929, 0.006766;,
				-0.999976,-0.000001, 0.006897;,
				-0.999976,-0.000001, 0.006897;,
				-0.118516,-0.992929, 0.006766;,
				-0.118516,-0.992929, 0.006766;,
				 0.000000, 0.000000, 1.000000;,
				 0.000000, 0.000000, 1.000000;,
				 0.000000, 0.000000, 1.000000;,
				 0.000000, 0.000000, 1.000000;,
				 0.000000, 0.958703,-0.284410;,
				 0.000000, 0.958703,-0.284410;,
				 0.000000, 0.958703,-0.284410;,
				 0.000000, 0.958703,-0.284410;,
				-0.987126, 0.144428,-0.068725;,
				-0.987126, 0.144428,-0.068725;,
				-0.987126, 0.144428,-0.068725;,
				-0.987126, 0.144428,-0.068725;,
				-0.987126, 0.144428,-0.068725;,
				 0.000000,-0.814827, 0.579704;,
				 0.000000,-0.814827, 0.579704;,
				 0.000000,-0.938425,-0.345482;,
				 0.000000,-0.938425,-0.345482;,
				-1.000000, 0.000000,-0.000000;,
				-1.000000, 0.000000,-0.000000;,
				-1.000000, 0.000000,-0.000000;,
				-1.000000, 0.000000,-0.000000;,
				 0.000000,-0.962916, 0.269803;,
				 0.000000,-0.978312,-0.207137;,
				 0.000000,-0.978312,-0.207137;,
				 0.000000,-0.962916, 0.269803;,
				 1.000000, 0.000000,-0.000000;,
				 1.000000, 0.000000,-0.000000;,
				 1.000000, 0.000000,-0.000000;,
				 1.000000, 0.000000,-0.000000;,
				-1.000000, 0.000000,-0.000000;,
				-1.000000, 0.000000,-0.000000;,
				 0.000000,-0.770938,-0.636910;,
				 0.000000,-0.770938,-0.636910;,
				 1.000000, 0.000000,-0.000000;,
				 1.000000, 0.000000,-0.000000;,
				 0.984807, 0.063922, 0.161457;,
				 0.987126, 0.144428,-0.068725;,
				 0.987126, 0.144428,-0.068725;,
				 0.987126, 0.144428,-0.068725;,
				 0.984807, 0.063922, 0.161457;,
				 0.000000,-0.244424,-0.969669;,
				-0.923922,-0.020386, 0.382037;,
				-0.923922,-0.020386, 0.382037;,
				-0.923922,-0.020386, 0.382037;,
				 0.923922,-0.020386, 0.382037;,
				 0.000000,-0.958686,-0.284465;,
				 0.000000,-0.958686,-0.284465;,
				 0.000000,-0.958686,-0.284465;,
				 0.000000,-0.958686,-0.284465;,
				 0.987126,-0.144428,-0.068725;,
				 0.987126,-0.144428,-0.068725;,
				 0.987126,-0.144428,-0.068725;,
				 0.987126,-0.144428,-0.068725;,
				 0.987126,-0.144428,-0.068725;,
				 0.000000, 0.814827, 0.579705;,
				 0.000000, 0.814827, 0.579705;,
				 0.000000, 0.938425,-0.345482;,
				 0.000000, 0.938425,-0.345482;,
				 1.000000, 0.000000,-0.000000;,
				 1.000000, 0.000000,-0.000000;,
				 1.000000, 0.000000,-0.000000;,
				 1.000000, 0.000000,-0.000000;,
				 0.000000, 0.962916, 0.269803;,
				 0.000000, 0.978312,-0.207137;,
				 0.000000, 0.978312,-0.207137;,
				 0.000000, 0.962916, 0.269803;,
				-1.000000, 0.000000,-0.000000;,
				-1.000000,-0.000000,-0.000000;,
				-1.000000,-0.000000,-0.000000;,
				-1.000000, 0.000000,-0.000000;,
				 1.000000, 0.000000,-0.000000;,
				 1.000000, 0.000000,-0.000000;,
				 0.000000, 0.770939,-0.636910;,
				 0.000000, 0.770939,-0.636910;,
				-1.000000,-0.000000,-0.000000;,
				-1.000000,-0.000000,-0.000000;,
				-0.984807,-0.063922, 0.161457;,
				-0.987126,-0.144428,-0.068725;,
				-0.987126,-0.144428,-0.068725;,
				-0.987126,-0.144428,-0.068725;,
				-0.984807,-0.063922, 0.161457;,
				 0.000000, 0.244424,-0.969668;,
				 0.923922, 0.020386, 0.382037;,
				 0.923922, 0.020386, 0.382037;,
				 0.923922, 0.020386, 0.382037;,
				-0.923922, 0.020386, 0.382037;,
				 1.000000,-0.000000,-0.000000;,
				 1.000000,-0.000000,-0.000000;,
				 1.000000,-0.000000,-0.000000;,
				 0.000000, 0.587785, 0.809018;,
				 0.000000, 0.587785, 0.809018;,
				 0.000000,-0.587785, 0.809018;,
				 0.000000,-0.587785, 0.809018;,
				 0.000000,-0.951057,-0.309017;,
				 0.000000,-0.951057,-0.309017;,
				 0.000000, 0.000001,-1.000000;,
				 0.000000, 0.000001,-1.000000;,
				 0.000000, 0.951057,-0.309015;,
				 0.000000, 0.951057,-0.309015;,
				-1.000000, 0.000000,-0.000000;,
				-1.000000, 0.000000,-0.000000;,
				-1.000000, 0.000000,-0.000000;,
				 1.000000, 0.000000,-0.000000;,
				 1.000000, 0.000000,-0.000000;,
				 1.000000, 0.000000,-0.000000;,
				 0.000007, 0.951055, 0.309021;,
				 0.000007, 0.951055, 0.309021;,
				 0.000002,-0.000002, 1.000000;,
				 0.000002,-0.000002, 1.000000;,
				-0.000001,-0.951055, 0.309023;,
				-0.000001,-0.951055, 0.309023;,
				 0.000000,-0.587789,-0.809015;,
				 0.000000,-0.587789,-0.809015;,
				 0.000004, 0.587785,-0.809017;,
				 0.000004, 0.587785,-0.809017;,
				-1.000000, 0.000001, 0.000001;,
				-1.000000, 0.000003, 0.000002;,
				-1.000000, 0.000001, 0.000001;,
				 1.000000, 0.000001,-0.000000;,
				 1.000000, 0.000001,-0.000000;,
				 1.000000, 0.000000,-0.000000;,
				 1.000000, 0.000000,-0.000000;,
				-1.000000,-0.000000,-0.000000;,
				-1.000000,-0.000000,-0.000000;,
				-1.000000,-0.000001, 0.000000;,
				-1.000000,-0.000001, 0.000000;;
				75;
				4;3,2,1,0;,
				4;7,6,5,4;,
				3;10,9,8;,
				3;12,9,11;,
				3;15,14,13;,
				3;13,14,16;,
				3;17,13,16;,
				3;9,18,8;,
				3;20,19,13;,
				3;9,21,18;,
				3;24,23,22;,
				3;27,26,25;,
				4;31,30,29,28;,
				4;35,34,33,32;,
				4;39,38,37,36;,
				4;43,42,41,40;,
				3;46,45,44;,
				3;49,48,47;,
				3;52,51,50;,
				3;55,54,53;,
				3;58,57,56;,
				3;61,60,59;,
				3;64,63,62;,
				3;67,66,65;,
				4;71,70,69,68;,
				4;73,71,68,72;,
				4;75,73,72,74;,
				4;70,75,74,69;,
				4;79,78,77,76;,
				4;83,82,81,80;,
				5;88,87,86,85,84;,
				4;92,91,90,89;,
				4;96,95,94,93;,
				4;100,99,98,97;,
				4;104,103,102,101;,
				4;106,96,93,105;,
				4;99,108,107,98;,
				4;103,110,109,102;,
				5;115,114,113,112,111;,
				3;116,91,92;,
				3;119,118,117;,
				3;115,111,120;,
				4;124,123,122,121;,
				5;129,128,127,126,125;,
				4;133,132,131,130;,
				4;137,136,135,134;,
				4;141,140,139,138;,
				4;145,144,143,142;,
				4;147,137,134,146;,
				4;140,149,148,139;,
				4;144,151,150,143;,
				5;156,155,154,153,152;,
				3;157,132,133;,
				3;160,159,158;,
				3;156,152,161;,
				3;164,163,162;,
				4;168,167,166,165;,
				4;170,169,167,168;,
				4;172,171,169,170;,
				4;174,173,171,172;,
				4;165,166,173,174;,
				3;177,176,175;,
				3;180,179,178;,
				4;184,183,182,181;,
				4;186,185,183,184;,
				4;188,187,185,186;,
				4;190,189,187,188;,
				4;181,182,189,190;,
				3;193,192,191;,
				3;13,17,20;,
				3;9,10,11;,
				4;178,179,195,194;,
				4;163,197,196,162;,
				4;199,198,176,177;,
				4;201,200,193,191;;
			}
			MeshTextureCoords {
				274;
				 0.642641;-0.945613;,
				 0.655996;-0.945612;,
				 0.678118;-0.970139;,
				 0.622525;-0.970114;,
				 0.785530;-0.945621;,
				 0.798883;-0.945622;,
				 0.821002;-0.970143;,
				 0.765431;-0.970115;,
				 0.915389;-0.538880;,
				 0.594469;-0.499212;,
				 0.915389;-0.459544;,
				 0.959841;-0.372645;,
				 0.594469;-0.499212;,
				 0.972813;-0.354343;,
				 0.679544;-0.619939;,
				 0.314089;-0.493356;,
				 0.301200;-0.475071;,
				 0.358624;-0.580271;,
				 0.314089;-0.493356;,
				 0.679544;-0.619939;,
				 0.358624;-0.580271;,
				 0.679544;-0.619939;,
				 0.358624;-0.659607;,
				 0.915389;-0.538880;,
				 0.959841;-0.625779;,
				 0.594469;-0.499212;,
				 0.679544;-0.619939;,
				 0.301200;-0.764807;,
				 0.314173;-0.746525;,
				 0.959841;-0.625779;,
				 0.972813;-0.644080;,
				 0.594469;-0.499212;,
				 0.972813;-0.644080;,
				 0.959841;-0.625779;,
				 0.974757;-0.631896;,
				 0.972813;-0.354343;,
				 0.974757;-0.366528;,
				 0.959841;-0.372645;,
				 0.400718;-0.926186;,
				 0.388799;-0.926244;,
				 0.390502;-0.866216;,
				 0.400049;-0.866215;,
				 0.363064;-0.866216;,
				 0.390502;-0.866216;,
				 0.388799;-0.926244;,
				 0.363725;-0.926187;,
				 0.427492;-0.866215;,
				 0.435329;-0.866315;,
				 0.436037;-0.927017;,
				 0.425781;-0.926243;,
				 0.400049;-0.866215;,
				 0.427492;-0.866215;,
				 0.425781;-0.926243;,
				 0.400718;-0.926186;,
				 0.395273;-0.856389;,
				 0.400049;-0.866215;,
				 0.390502;-0.866216;,
				 0.376783;-0.855936;,
				 0.390502;-0.866216;,
				 0.363064;-0.866216;,
				 0.432267;-0.856389;,
				 0.435329;-0.866315;,
				 0.427492;-0.866215;,
				 0.413770;-0.855935;,
				 0.427492;-0.866215;,
				 0.400049;-0.866215;,
				 0.400049;-0.866215;,
				 0.395273;-0.856389;,
				 0.413770;-0.855935;,
				 0.390502;-0.866216;,
				 0.376783;-0.855936;,
				 0.395273;-0.856389;,
				 0.363064;-0.866216;,
				 0.359798;-0.856389;,
				 0.376783;-0.855936;,
				 0.427492;-0.866215;,
				 0.413770;-0.855935;,
				 0.432267;-0.856389;,
				 0.292357;-0.771205;,
				 0.219565;-0.771204;,
				 0.219565;-0.656730;,
				 0.292417;-0.656731;,
				 0.098026;-0.771206;,
				 0.049278;-0.771205;,
				 0.049338;-0.656731;,
				 0.098026;-0.656732;,
				 0.146773;-0.771205;,
				 0.098026;-0.771206;,
				 0.098026;-0.656732;,
				 0.146714;-0.656731;,
				 0.219565;-0.771204;,
				 0.146773;-0.771205;,
				 0.146714;-0.656731;,
				 0.219565;-0.656730;,
				 0.292417;-0.656731;,
				 0.219565;-0.656730;,
				 0.146714;-0.656731;,
				 0.098026;-0.656732;,
				 0.422560;-0.776945;,
				 0.422560;-0.763807;,
				 0.418036;-0.778287;,
				 0.418036;-0.778287;,
				 0.219177;-0.867131;,
				 0.365435;-0.763077;,
				 0.369330;-0.770693;,
				 0.382529;-0.824197;,
				 0.203570;-0.895423;,
				 0.365435;-0.752545;,
				 0.365435;-0.763077;,
				 0.219177;-0.867131;,
				 0.225655;-0.850434;,
				 0.395191;-0.763183;,
				 0.369330;-0.770693;,
				 0.365435;-0.763077;,
				 0.395557;-0.754637;,
				 0.365435;-0.752545;,
				 0.395557;-0.745691;,
				 0.395557;-0.754637;,
				 0.365435;-0.763077;,
				 0.090487;-0.835271;,
				 0.064625;-0.827761;,
				 0.064259;-0.819214;,
				 0.094381;-0.827654;,
				 0.418036;-0.778287;,
				 0.395191;-0.763183;,
				 0.395557;-0.754637;,
				 0.422560;-0.776945;,
				 0.395557;-0.745691;,
				 0.422560;-0.763807;,
				 0.422560;-0.776945;,
				 0.395557;-0.754637;,
				 0.064625;-0.827761;,
				 0.041781;-0.842865;,
				 0.037257;-0.841522;,
				 0.064259;-0.819214;,
				 0.256247;-0.960001;,
				 0.077288;-0.888774;,
				 0.090487;-0.835271;,
				 0.094381;-0.827654;,
				 0.240639;-0.931709;,
				 0.225655;-0.850434;,
				 0.219177;-0.867131;,
				 0.208796;-0.820880;,
				 0.208796;-0.820880;,
				 0.219177;-0.867131;,
				 0.203570;-0.895423;,
				 0.252274;-0.885552;,
				 0.256247;-0.960001;,
				 0.240639;-0.931709;,
				 0.675653;-0.826577;,
				 0.675653;-0.839715;,
				 0.680177;-0.841057;,
				 0.680177;-0.841057;,
				 0.495938;-0.959423;,
				 0.642196;-0.855368;,
				 0.646090;-0.862984;,
				 0.659289;-0.916488;,
				 0.480331;-0.987715;,
				 0.732777;-0.825847;,
				 0.732777;-0.815315;,
				 0.872593;-0.913175;,
				 0.879035;-0.929902;,
				 0.671952;-0.855474;,
				 0.646090;-0.862984;,
				 0.642196;-0.855368;,
				 0.672318;-0.846928;,
				 0.732777;-0.825847;,
				 0.702655;-0.817407;,
				 0.702655;-0.808461;,
				 0.732777;-0.815315;,
				 0.728883;-0.833463;,
				 0.703022;-0.825953;,
				 0.702655;-0.817407;,
				 0.732777;-0.825847;,
				 0.694796;-0.870578;,
				 0.671952;-0.855474;,
				 0.672318;-0.846928;,
				 0.699320;-0.869236;,
				 0.702655;-0.817407;,
				 0.675653;-0.839715;,
				 0.675653;-0.826577;,
				 0.702655;-0.808461;,
				 0.703022;-0.825953;,
				 0.680177;-0.841057;,
				 0.675653;-0.839715;,
				 0.702655;-0.817407;,
				 0.894643;-0.958194;,
				 0.715684;-0.886967;,
				 0.728883;-0.833463;,
				 0.732777;-0.825847;,
				 0.879035;-0.929902;,
				 0.879035;-0.929902;,
				 0.872593;-0.913175;,
				 0.889440;-0.883593;,
				 0.484303;-0.913266;,
				 0.495938;-0.959423;,
				 0.480331;-0.987715;,
				 0.889440;-0.883593;,
				 0.894643;-0.958194;,
				 0.879035;-0.929902;,
				 0.930072;-0.956909;,
				 0.946221;-0.907209;,
				 0.956202;-0.937926;,
				 0.906995;-0.897547;,
				 0.906995;-0.831445;,
				 0.915786;-0.831445;,
				 0.915786;-0.897547;,
				 0.915786;-0.897547;,
				 0.915786;-0.831445;,
				 0.924578;-0.831445;,
				 0.924578;-0.897547;,
				 0.924578;-0.897547;,
				 0.924578;-0.831445;,
				 0.933369;-0.831445;,
				 0.933369;-0.897547;,
				 0.933369;-0.897547;,
				 0.933369;-0.831445;,
				 0.942161;-0.831445;,
				 0.942161;-0.897547;,
				 0.942161;-0.897547;,
				 0.942161;-0.831445;,
				 0.906995;-0.831445;,
				 0.906995;-0.897547;,
				 0.720030;-0.903450;,
				 0.710050;-0.934166;,
				 0.693901;-0.884466;,
				 0.765402;-0.957198;,
				 0.749254;-0.907497;,
				 0.775383;-0.926481;,
				 0.310327;-0.927068;,
				 0.310327;-0.860966;,
				 0.319118;-0.860966;,
				 0.319118;-0.927068;,
				 0.319118;-0.927068;,
				 0.319118;-0.860966;,
				 0.327910;-0.860966;,
				 0.327910;-0.927068;,
				 0.327910;-0.927068;,
				 0.327910;-0.860966;,
				 0.336701;-0.860966;,
				 0.336701;-0.927068;,
				 0.336701;-0.927068;,
				 0.336701;-0.860966;,
				 0.345493;-0.860966;,
				 0.345493;-0.927068;,
				 0.345493;-0.927068;,
				 0.345493;-0.860966;,
				 0.354284;-0.860966;,
				 0.354284;-0.927068;,
				 0.080879;-0.897093;,
				 0.090859;-0.927810;,
				 0.064730;-0.946794;,
				 0.314173;-0.746525;,
				 0.358624;-0.659607;,
				 0.679544;-0.619939;,
				 0.959841;-0.372645;,
				 0.915389;-0.459544;,
				 0.594469;-0.499212;,
				 0.733105;-0.957198;,
				 0.723125;-0.926481;,
				 0.749254;-0.907497;,
				 0.765402;-0.957198;,
				 0.930072;-0.956909;,
				 0.903943;-0.937926;,
				 0.913924;-0.907209;,
				 0.946221;-0.907209;,
				 0.693901;-0.884466;,
				 0.710050;-0.934166;,
				 0.677753;-0.934166;,
				 0.667772;-0.903450;,
				 0.080879;-0.897093;,
				 0.064730;-0.946794;,
				 0.038601;-0.927810;,
				 0.048582;-0.897093;;
			}
			MeshVertexColors {
				274;
				0; 1.000000; 1.000000; 1.000000; 1.000000;;,
				1; 1.000000; 1.000000; 1.000000; 1.000000;;,
				2; 1.000000; 1.000000; 1.000000; 1.000000;;,
				3; 1.000000; 1.000000; 1.000000; 1.000000;;,
				4; 1.000000; 1.000000; 1.000000; 1.000000;;,
				5; 1.000000; 1.000000; 1.000000; 1.000000;;,
				6; 1.000000; 1.000000; 1.000000; 1.000000;;,
				7; 1.000000; 1.000000; 1.000000; 1.000000;;,
				8; 1.000000; 1.000000; 1.000000; 1.000000;;,
				9; 1.000000; 1.000000; 1.000000; 1.000000;;,
				10; 1.000000; 1.000000; 1.000000; 1.000000;;,
				11; 1.000000; 1.000000; 1.000000; 1.000000;;,
				12; 1.000000; 1.000000; 1.000000; 1.000000;;,
				13; 1.000000; 1.000000; 1.000000; 1.000000;;,
				14; 1.000000; 1.000000; 1.000000; 1.000000;;,
				15; 1.000000; 1.000000; 1.000000; 1.000000;;,
				16; 1.000000; 1.000000; 1.000000; 1.000000;;,
				17; 1.000000; 1.000000; 1.000000; 1.000000;;,
				18; 1.000000; 1.000000; 1.000000; 1.000000;;,
				19; 1.000000; 1.000000; 1.000000; 1.000000;;,
				20; 1.000000; 1.000000; 1.000000; 1.000000;;,
				21; 1.000000; 1.000000; 1.000000; 1.000000;;,
				22; 1.000000; 1.000000; 1.000000; 1.000000;;,
				23; 1.000000; 1.000000; 1.000000; 1.000000;;,
				24; 1.000000; 1.000000; 1.000000; 1.000000;;,
				25; 1.000000; 1.000000; 1.000000; 1.000000;;,
				26; 1.000000; 1.000000; 1.000000; 1.000000;;,
				27; 1.000000; 1.000000; 1.000000; 1.000000;;,
				28; 1.000000; 1.000000; 1.000000; 1.000000;;,
				29; 1.000000; 1.000000; 1.000000; 1.000000;;,
				30; 1.000000; 1.000000; 1.000000; 1.000000;;,
				31; 1.000000; 1.000000; 1.000000; 1.000000;;,
				32; 1.000000; 1.000000; 1.000000; 1.000000;;,
				33; 1.000000; 1.000000; 1.000000; 1.000000;;,
				34; 1.000000; 1.000000; 1.000000; 1.000000;;,
				35; 1.000000; 1.000000; 1.000000; 1.000000;;,
				36; 1.000000; 1.000000; 1.000000; 1.000000;;,
				37; 1.000000; 1.000000; 1.000000; 1.000000;;,
				38; 1.000000; 1.000000; 1.000000; 1.000000;;,
				39; 1.000000; 1.000000; 1.000000; 1.000000;;,
				40; 1.000000; 1.000000; 1.000000; 1.000000;;,
				41; 1.000000; 1.000000; 1.000000; 1.000000;;,
				42; 1.000000; 1.000000; 1.000000; 1.000000;;,
				43; 1.000000; 1.000000; 1.000000; 1.000000;;,
				44; 1.000000; 1.000000; 1.000000; 1.000000;;,
				45; 1.000000; 1.000000; 1.000000; 1.000000;;,
				46; 1.000000; 1.000000; 1.000000; 1.000000;;,
				47; 1.000000; 1.000000; 1.000000; 1.000000;;,
				48; 1.000000; 1.000000; 1.000000; 1.000000;;,
				49; 1.000000; 1.000000; 1.000000; 1.000000;;,
				50; 1.000000; 1.000000; 1.000000; 1.000000;;,
				51; 1.000000; 1.000000; 1.000000; 1.000000;;,
				52; 1.000000; 1.000000; 1.000000; 1.000000;;,
				53; 1.000000; 1.000000; 1.000000; 1.000000;;,
				54; 1.000000; 1.000000; 1.000000; 1.000000;;,
				55; 1.000000; 1.000000; 1.000000; 1.000000;;,
				56; 1.000000; 1.000000; 1.000000; 1.000000;;,
				57; 1.000000; 1.000000; 1.000000; 1.000000;;,
				58; 1.000000; 1.000000; 1.000000; 1.000000;;,
				59; 1.000000; 1.000000; 1.000000; 1.000000;;,
				60; 1.000000; 1.000000; 1.000000; 1.000000;;,
				61; 1.000000; 1.000000; 1.000000; 1.000000;;,
				62; 1.000000; 1.000000; 1.000000; 1.000000;;,
				63; 1.000000; 1.000000; 1.000000; 1.000000;;,
				64; 1.000000; 1.000000; 1.000000; 1.000000;;,
				65; 1.000000; 1.000000; 1.000000; 1.000000;;,
				66; 1.000000; 1.000000; 1.000000; 1.000000;;,
				67; 1.000000; 1.000000; 1.000000; 1.000000;;,
				68; 1.000000; 1.000000; 1.000000; 1.000000;;,
				69; 1.000000; 1.000000; 1.000000; 1.000000;;,
				70; 1.000000; 1.000000; 1.000000; 1.000000;;,
				71; 1.000000; 1.000000; 1.000000; 1.000000;;,
				72; 1.000000; 1.000000; 1.000000; 1.000000;;,
				73; 1.000000; 1.000000; 1.000000; 1.000000;;,
				74; 1.000000; 1.000000; 1.000000; 1.000000;;,
				75; 1.000000; 1.000000; 1.000000; 1.000000;;,
				76; 1.000000; 1.000000; 1.000000; 1.000000;;,
				77; 1.000000; 1.000000; 1.000000; 1.000000;;,
				78; 1.000000; 1.000000; 1.000000; 1.000000;;,
				79; 1.000000; 1.000000; 1.000000; 1.000000;;,
				80; 1.000000; 1.000000; 1.000000; 1.000000;;,
				81; 1.000000; 1.000000; 1.000000; 1.000000;;,
				82; 1.000000; 1.000000; 1.000000; 1.000000;;,
				83; 1.000000; 1.000000; 1.000000; 1.000000;;,
				84; 1.000000; 1.000000; 1.000000; 1.000000;;,
				85; 1.000000; 1.000000; 1.000000; 1.000000;;,
				86; 1.000000; 1.000000; 1.000000; 1.000000;;,
				87; 1.000000; 1.000000; 1.000000; 1.000000;;,
				88; 1.000000; 1.000000; 1.000000; 1.000000;;,
				89; 1.000000; 1.000000; 1.000000; 1.000000;;,
				90; 1.000000; 1.000000; 1.000000; 1.000000;;,
				91; 1.000000; 1.000000; 1.000000; 1.000000;;,
				92; 1.000000; 1.000000; 1.000000; 1.000000;;,
				93; 1.000000; 1.000000; 1.000000; 1.000000;;,
				94; 1.000000; 1.000000; 1.000000; 1.000000;;,
				95; 1.000000; 1.000000; 1.000000; 1.000000;;,
				96; 1.000000; 1.000000; 1.000000; 1.000000;;,
				97; 1.000000; 1.000000; 1.000000; 1.000000;;,
				98; 1.000000; 1.000000; 1.000000; 1.000000;;,
				99; 1.000000; 1.000000; 1.000000; 1.000000;;,
				100; 1.000000; 1.000000; 1.000000; 1.000000;;,
				101; 1.000000; 1.000000; 1.000000; 1.000000;;,
				102; 1.000000; 1.000000; 1.000000; 1.000000;;,
				103; 1.000000; 1.000000; 1.000000; 1.000000;;,
				104; 1.000000; 1.000000; 1.000000; 1.000000;;,
				105; 1.000000; 1.000000; 1.000000; 1.000000;;,
				106; 1.000000; 1.000000; 1.000000; 1.000000;;,
				107; 1.000000; 1.000000; 1.000000; 1.000000;;,
				108; 1.000000; 1.000000; 1.000000; 1.000000;;,
				109; 1.000000; 1.000000; 1.000000; 1.000000;;,
				110; 1.000000; 1.000000; 1.000000; 1.000000;;,
				111; 1.000000; 1.000000; 1.000000; 1.000000;;,
				112; 1.000000; 1.000000; 1.000000; 1.000000;;,
				113; 1.000000; 1.000000; 1.000000; 1.000000;;,
				114; 1.000000; 1.000000; 1.000000; 1.000000;;,
				115; 1.000000; 1.000000; 1.000000; 1.000000;;,
				116; 1.000000; 1.000000; 1.000000; 1.000000;;,
				117; 1.000000; 1.000000; 1.000000; 1.000000;;,
				118; 1.000000; 1.000000; 1.000000; 1.000000;;,
				119; 1.000000; 1.000000; 1.000000; 1.000000;;,
				120; 1.000000; 1.000000; 1.000000; 1.000000;;,
				121; 1.000000; 1.000000; 1.000000; 1.000000;;,
				122; 1.000000; 1.000000; 1.000000; 1.000000;;,
				123; 1.000000; 1.000000; 1.000000; 1.000000;;,
				124; 1.000000; 1.000000; 1.000000; 1.000000;;,
				125; 1.000000; 1.000000; 1.000000; 1.000000;;,
				126; 1.000000; 1.000000; 1.000000; 1.000000;;,
				127; 1.000000; 1.000000; 1.000000; 1.000000;;,
				128; 1.000000; 1.000000; 1.000000; 1.000000;;,
				129; 1.000000; 1.000000; 1.000000; 1.000000;;,
				130; 1.000000; 1.000000; 1.000000; 1.000000;;,
				131; 1.000000; 1.000000; 1.000000; 1.000000;;,
				132; 1.000000; 1.000000; 1.000000; 1.000000;;,
				133; 1.000000; 1.000000; 1.000000; 1.000000;;,
				134; 1.000000; 1.000000; 1.000000; 1.000000;;,
				135; 1.000000; 1.000000; 1.000000; 1.000000;;,
				136; 1.000000; 1.000000; 1.000000; 1.000000;;,
				137; 1.000000; 1.000000; 1.000000; 1.000000;;,
				138; 1.000000; 1.000000; 1.000000; 1.000000;;,
				139; 1.000000; 1.000000; 1.000000; 1.000000;;,
				140; 1.000000; 1.000000; 1.000000; 1.000000;;,
				141; 1.000000; 1.000000; 1.000000; 1.000000;;,
				142; 1.000000; 1.000000; 1.000000; 1.000000;;,
				143; 1.000000; 1.000000; 1.000000; 1.000000;;,
				144; 1.000000; 1.000000; 1.000000; 1.000000;;,
				145; 1.000000; 1.000000; 1.000000; 1.000000;;,
				146; 1.000000; 1.000000; 1.000000; 1.000000;;,
				147; 1.000000; 1.000000; 1.000000; 1.000000;;,
				148; 1.000000; 1.000000; 1.000000; 1.000000;;,
				149; 1.000000; 1.000000; 1.000000; 1.000000;;,
				150; 1.000000; 1.000000; 1.000000; 1.000000;;,
				151; 1.000000; 1.000000; 1.000000; 1.000000;;,
				152; 1.000000; 1.000000; 1.000000; 1.000000;;,
				153; 1.000000; 1.000000; 1.000000; 1.000000;;,
				154; 1.000000; 1.000000; 1.000000; 1.000000;;,
				155; 1.000000; 1.000000; 1.000000; 1.000000;;,
				156; 1.000000; 1.000000; 1.000000; 1.000000;;,
				157; 1.000000; 1.000000; 1.000000; 1.000000;;,
				158; 1.000000; 1.000000; 1.000000; 1.000000;;,
				159; 1.000000; 1.000000; 1.000000; 1.000000;;,
				160; 1.000000; 1.000000; 1.000000; 1.000000;;,
				161; 1.000000; 1.000000; 1.000000; 1.000000;;,
				162; 1.000000; 1.000000; 1.000000; 1.000000;;,
				163; 1.000000; 1.000000; 1.000000; 1.000000;;,
				164; 1.000000; 1.000000; 1.000000; 1.000000;;,
				165; 1.000000; 1.000000; 1.000000; 1.000000;;,
				166; 1.000000; 1.000000; 1.000000; 1.000000;;,
				167; 1.000000; 1.000000; 1.000000; 1.000000;;,
				168; 1.000000; 1.000000; 1.000000; 1.000000;;,
				169; 1.000000; 1.000000; 1.000000; 1.000000;;,
				170; 1.000000; 1.000000; 1.000000; 1.000000;;,
				171; 1.000000; 1.000000; 1.000000; 1.000000;;,
				172; 1.000000; 1.000000; 1.000000; 1.000000;;,
				173; 1.000000; 1.000000; 1.000000; 1.000000;;,
				174; 1.000000; 1.000000; 1.000000; 1.000000;;,
				175; 1.000000; 1.000000; 1.000000; 1.000000;;,
				176; 1.000000; 1.000000; 1.000000; 1.000000;;,
				177; 1.000000; 1.000000; 1.000000; 1.000000;;,
				178; 1.000000; 1.000000; 1.000000; 1.000000;;,
				179; 1.000000; 1.000000; 1.000000; 1.000000;;,
				180; 1.000000; 1.000000; 1.000000; 1.000000;;,
				181; 1.000000; 1.000000; 1.000000; 1.000000;;,
				182; 1.000000; 1.000000; 1.000000; 1.000000;;,
				183; 1.000000; 1.000000; 1.000000; 1.000000;;,
				184; 1.000000; 1.000000; 1.000000; 1.000000;;,
				185; 1.000000; 1.000000; 1.000000; 1.000000;;,
				186; 1.000000; 1.000000; 1.000000; 1.000000;;,
				187; 1.000000; 1.000000; 1.000000; 1.000000;;,
				188; 1.000000; 1.000000; 1.000000; 1.000000;;,
				189; 1.000000; 1.000000; 1.000000; 1.000000;;,
				190; 1.000000; 1.000000; 1.000000; 1.000000;;,
				191; 1.000000; 1.000000; 1.000000; 1.000000;;,
				192; 1.000000; 1.000000; 1.000000; 1.000000;;,
				193; 1.000000; 1.000000; 1.000000; 1.000000;;,
				194; 1.000000; 1.000000; 1.000000; 1.000000;;,
				195; 1.000000; 1.000000; 1.000000; 1.000000;;,
				196; 1.000000; 1.000000; 1.000000; 1.000000;;,
				197; 1.000000; 1.000000; 1.000000; 1.000000;;,
				198; 1.000000; 1.000000; 1.000000; 1.000000;;,
				199; 1.000000; 1.000000; 1.000000; 1.000000;;,
				200; 1.000000; 1.000000; 1.000000; 1.000000;;,
				201; 1.000000; 1.000000; 1.000000; 1.000000;;,
				202; 1.000000; 1.000000; 1.000000; 1.000000;;,
				203; 1.000000; 1.000000; 1.000000; 1.000000;;,
				204; 1.000000; 1.000000; 1.000000; 1.000000;;,
				205; 1.000000; 1.000000; 1.000000; 1.000000;;,
				206; 1.000000; 1.000000; 1.000000; 1.000000;;,
				207; 1.000000; 1.000000; 1.000000; 1.000000;;,
				208; 1.000000; 1.000000; 1.000000; 1.000000;;,
				209; 1.000000; 1.000000; 1.000000; 1.000000;;,
				210; 1.000000; 1.000000; 1.000000; 1.000000;;,
				211; 1.000000; 1.000000; 1.000000; 1.000000;;,
				212; 1.000000; 1.000000; 1.000000; 1.000000;;,
				213; 1.000000; 1.000000; 1.000000; 1.000000;;,
				214; 1.000000; 1.000000; 1.000000; 1.000000;;,
				215; 1.000000; 1.000000; 1.000000; 1.000000;;,
				216; 1.000000; 1.000000; 1.000000; 1.000000;;,
				217; 1.000000; 1.000000; 1.000000; 1.000000;;,
				218; 1.000000; 1.000000; 1.000000; 1.000000;;,
				219; 1.000000; 1.000000; 1.000000; 1.000000;;,
				220; 1.000000; 1.000000; 1.000000; 1.000000;;,
				221; 1.000000; 1.000000; 1.000000; 1.000000;;,
				222; 1.000000; 1.000000; 1.000000; 1.000000;;,
				223; 1.000000; 1.000000; 1.000000; 1.000000;;,
				224; 1.000000; 1.000000; 1.000000; 1.000000;;,
				225; 1.000000; 1.000000; 1.000000; 1.000000;;,
				226; 1.000000; 1.000000; 1.000000; 1.000000;;,
				227; 1.000000; 1.000000; 1.000000; 1.000000;;,
				228; 1.000000; 1.000000; 1.000000; 1.000000;;,
				229; 1.000000; 1.000000; 1.000000; 1.000000;;,
				230; 1.000000; 1.000000; 1.000000; 1.000000;;,
				231; 1.000000; 1.000000; 1.000000; 1.000000;;,
				232; 1.000000; 1.000000; 1.000000; 1.000000;;,
				233; 1.000000; 1.000000; 1.000000; 1.000000;;,
				234; 1.000000; 1.000000; 1.000000; 1.000000;;,
				235; 1.000000; 1.000000; 1.000000; 1.000000;;,
				236; 1.000000; 1.000000; 1.000000; 1.000000;;,
				237; 1.000000; 1.000000; 1.000000; 1.000000;;,
				238; 1.000000; 1.000000; 1.000000; 1.000000;;,
				239; 1.000000; 1.000000; 1.000000; 1.000000;;,
				240; 1.000000; 1.000000; 1.000000; 1.000000;;,
				241; 1.000000; 1.000000; 1.000000; 1.000000;;,
				242; 1.000000; 1.000000; 1.000000; 1.000000;;,
				243; 1.000000; 1.000000; 1.000000; 1.000000;;,
				244; 1.000000; 1.000000; 1.000000; 1.000000;;,
				245; 1.000000; 1.000000; 1.000000; 1.000000;;,
				246; 1.000000; 1.000000; 1.000000; 1.000000;;,
				247; 1.000000; 1.000000; 1.000000; 1.000000;;,
				248; 1.000000; 1.000000; 1.000000; 1.000000;;,
				249; 1.000000; 1.000000; 1.000000; 1.000000;;,
				250; 1.000000; 1.000000; 1.000000; 1.000000;;,
				251; 1.000000; 1.000000; 1.000000; 1.000000;;,
				252; 1.000000; 1.000000; 1.000000; 1.000000;;,
				253; 1.000000; 1.000000; 1.000000; 1.000000;;,
				254; 1.000000; 1.000000; 1.000000; 1.000000;;,
				255; 1.000000; 1.000000; 1.000000; 1.000000;;,
				256; 1.000000; 1.000000; 1.000000; 1.000000;;,
				257; 1.000000; 1.000000; 1.000000; 1.000000;;,
				258; 1.000000; 1.000000; 1.000000; 1.000000;;,
				259; 1.000000; 1.000000; 1.000000; 1.000000;;,
				260; 1.000000; 1.000000; 1.000000; 1.000000;;,
				261; 1.000000; 1.000000; 1.000000; 1.000000;;,
				262; 1.000000; 1.000000; 1.000000; 1.000000;;,
				263; 1.000000; 1.000000; 1.000000; 1.000000;;,
				264; 1.000000; 1.000000; 1.000000; 1.000000;;,
				265; 1.000000; 1.000000; 1.000000; 1.000000;;,
				266; 1.000000; 1.000000; 1.000000; 1.000000;;,
				267; 1.000000; 1.000000; 1.000000; 1.000000;;,
				268; 1.000000; 1.000000; 1.000000; 1.000000;;,
				269; 1.000000; 1.000000; 1.000000; 1.000000;;,
				270; 1.000000; 1.000000; 1.000000; 1.000000;;,
				271; 1.000000; 1.000000; 1.000000; 1.000000;;,
				272; 1.000000; 1.000000; 1.000000; 1.000000;;,
				273; 1.000000; 1.000000; 1.000000; 1.000000;;;
			}
			MeshMaterialList {
				1;
				75;
				0,
				0,
				0,
				0,
				0,
				0,
				0,
				0,
				0,
				0,
				0,
				0,
				0,
				0,
				0,
				0,
				0,
				0,
				0,
				0,
				0,
				0,
				0,
				0,
				0,
				0,
				0,
				0,
				0,
				0,
				0,
				0,
				0,
				0,
				0,
				0,
				0,
				0,
				0,
				0,
				0,
				0,
				0,
				0,
				0,
				0,
				0,
				0,
				0,
				0,
				0,
				0,
				0,
				0,
				0,
				0,
				0,
				0,
				0,
				0,
				0,
				0,
				0,
				0,
				0,
				0,
				0,
				0,
				0,
				0,
				0,
				0,
				0,
				0,
				0;
				{lambert5}
			}
			VertexDuplicationIndices {
				274;
				77;
				0,
				1,
				2,
				3,
				4,
				5,
				6,
				7,
				6,
				9,
				3,
				0,
				9,
				13,
				9,
				1,
				13,
				2,
				1,
				9,
				2,
				9,
				7,
				6,
				5,
				9,
				9,
				27,
				4,
				5,
				27,
				9,
				27,
				5,
				4,
				13,
				1,
				0,
				3,
				2,
				40,
				41,
				42,
				40,
				2,
				7,
				46,
				42,
				7,
				6,
				41,
				46,
				6,
				3,
				54,
				41,
				40,
				57,
				40,
				42,
				60,
				42,
				46,
				63,
				46,
				41,
				41,
				54,
				63,
				40,
				57,
				54,
				42,
				60,
				57,
				46,
				63,
				60,
				60,
				63,
				80,
				81,
				57,
				60,
				81,
				85,
				54,
				57,
				85,
				89,
				63,
				54,
				89,
				80,
				81,
				80,
				89,
				85,
				98,
				99,
				100,
				101,
				102,
				103,
				104,
				105,
				106,
				107,
				103,
				102,
				110,
				111,
				104,
				103,
				114,
				107,
				116,
				114,
				103,
				119,
				120,
				116,
				107,
				101,
				111,
				114,
				98,
				116,
				99,
				98,
				114,
				120,
				100,
				99,
				116,
				106,
				105,
				119,
				107,
				110,
				110,
				102,
				142,
				142,
				102,
				106,
				142,
				106,
				110,
				149,
				150,
				151,
				152,
				153,
				154,
				155,
				156,
				157,
				158,
				154,
				153,
				161,
				162,
				155,
				154,
				165,
				158,
				167,
				165,
				154,
				170,
				171,
				167,
				158,
				152,
				162,
				165,
				149,
				167,
				150,
				149,
				165,
				171,
				151,
				150,
				167,
				157,
				156,
				170,
				158,
				161,
				161,
				153,
				193,
				193,
				153,
				157,
				193,
				157,
				161,
				200,
				201,
				202,
				203,
				201,
				205,
				206,
				206,
				205,
				209,
				210,
				210,
				209,
				200,
				214,
				214,
				200,
				202,
				218,
				218,
				202,
				201,
				203,
				218,
				203,
				214,
				226,
				227,
				228,
				229,
				228,
				227,
				232,
				232,
				227,
				235,
				236,
				236,
				235,
				239,
				240,
				240,
				239,
				226,
				244,
				244,
				226,
				228,
				229,
				244,
				229,
				232,
				4,
				7,
				9,
				0,
				3,
				9,
				239,
				235,
				227,
				226,
				200,
				209,
				205,
				201,
				214,
				203,
				206,
				210,
				244,
				232,
				236,
				240;
			}
			DeclData {
				2;
				2;0;6;0;,
				2;0;7;0;;
				1644;
				3212836864,
				957385382,
				3096698921,
				958552787,
				1063512461,
				3202952030,
				3212836861,
				3122031376,
				966386504,
				3123246244,
				1063512458,
				3202952027,
				3212836847,
				3131604065,
				975986505,
				3132964858,
				1063512444,
				3202952013,
				3212836861,
				3122031376,
				966386504,
				3123246244,
				1063512458,
				3202952027,
				1065353216,
				956956743,
				948776784,
				958071331,
				3210996097,
				3202952077,
				1065353211,
				978364283,
				970291146,
				980049512,
				3210996091,
				3202952070,
				1065353194,
				985622381,
				977523163,
				987168288,
				3210996077,
				3202952057,
				1065353211,
				978364283,
				970291146,
				980049512,
				3210996091,
				3202952070,
				1039954913,
				3089606972,
				1065225264,
				3188121265,
				1065204784,
				1015437736,
				1047015565,
				3030215026,
				1064916229,
				3043766509,
				1065353216,
				889703551,
				1039954905,
				941918651,
				1065225264,
				1040637626,
				1065204784,
				3162920989,
				1049299543,
				1012728305,
				1064721151,
				1057148419,
				1062758218,
				3189753982,
				1047015565,
				3030215026,
				1064916229,
				3043766509,
				1065353216,
				889703551,
				1054816434,
				3054259034,
				1063674767,
				1059920697,
				1059647062,
				3198662750,
				1047015554,
				931595522,
				3212399877,
				3059809601,
				1065353216,
				931403064,
				1049304655,
				3160482290,
				3212204018,
				3204630713,
				1062758146,
				3189773227,
				1054830904,
				3118155054,
				3211154906,
				3207399687,
				1059647050,
				3198682005,
				1039954677,
				3084844773,
				3212708917,
				3188121368,
				1065204785,
				3162914179,
				1049304655,
				3160482290,
				3212204018,
				3204630713,
				1062758146,
				3189773227,
				1047015554,
				931595522,
				3212399877,
				3059809601,
				1065353216,
				931403064,
				1039954677,
				3084844773,
				3212708917,
				3188121368,
				1065204785,
				3162914179,
				1047015554,
				931595522,
				3212399877,
				3059809601,
				1065353216,
				931403064,
				1039954643,
				936779425,
				3212708916,
				1040637709,
				1065204786,
				1015429934,
				1039954913,
				3089606972,
				1065225264,
				3188121265,
				1065204784,
				1015437736,
				1049299606,
				3160213039,
				1064721143,
				3204632104,
				1062758188,
				1042270507,
				1047015565,
				3030215026,
				1064916229,
				3043766509,
				1065353216,
				889703551,
				1047015554,
				931595522,
				3212399877,
				3059809601,
				1065353216,
				931403064,
				1054833758,
				973272596,
				3211154214,
				1059915156,
				1059647013,
				1051202151,
				1049305672,
				1013051814,
				3212203863,
				1057146814,
				1062758122,
				1042293394,
				1049299606,
				3160213039,
				1064721143,
				3204632104,
				1062758188,
				1042270507,
				1054816578,
				904991026,
				1063674732,
				3207404378,
				1059646985,
				1051179275,
				1047015565,
				3030215026,
				1064916229,
				3043766509,
				1065353216,
				889703551,
				3212269861,
				3193395862,
				3189286208,
				3196320670,
				1061800939,
				1057950003,
				3212269861,
				3193395862,
				3189286208,
				3196320670,
				1061800939,
				1057950003,
				3212269861,
				3193395862,
				3189286208,
				3196320670,
				1061800939,
				1057950003,
				3212269839,
				1045912455,
				3189286389,
				1048837174,
				1061800920,
				3205433646,
				3212269839,
				1045912455,
				3189286389,
				1048837174,
				1061800920,
				3205433646,
				3212269839,
				1045912455,
				3189286389,
				1048837174,
				1061800920,
				3205433646,
				1065353199,
				3102475726,
				3132799518,
				3132837646,
				3181464069,
				3212784739,
				1065353212,
				3094986077,
				3125122113,
				3125162456,
				3181464076,
				3212784750,
				1065353216,
				3067836594,
				3098386936,
				3098422390,
				3181464080,
				3212784756,
				1065353212,
				3094986077,
				3125122113,
				3125162456,
				3181464076,
				3212784750,
				3048365221,
				3212836864,
				3067311423,
				3193129269,
				920132538,
				3212475847,
				956631578,
				3212836862,
				975026632,
				3193129266,
				3122737600,
				3212475843,
				965065845,
				3212836851,
				983469371,
				3193129258,
				3131181531,
				3212475834,
				956631578,
				3212836862,
				975026632,
				3193129266,
				3122737600,
				3212475843,
				3212836523,
				3120813999,
				1003527462,
				3151053704,
				1033980113,
				3212784415,
				3212835540,
				3129064111,
				1011696929,
				3159222489,
				1033979494,
				3212783435,
				3212833916,
				3133245508,
				1016667351,
				3164182262,
				1033978471,
				3212781816,
				3212835540,
				3129064111,
				1011696929,
				3159222489,
				1033979494,
				3212783435,
				899123450,
				1065353216,
				3063842157,
				1045645623,
				3064130883,
				3212475847,
				3104080958,
				1065353214,
				974996824,
				1045645619,
				975223018,
				3212475843,
				3112508358,
				1065353205,
				983426012,
				1045645612,
				983653334,
				3212475834,
				3104080958,
				1065353214,
				974996824,
				1045645619,
				975223018,
				3212475843,
				1065353216,
				3097231452,
				3108749909,
				3109694902,
				3199667037,
				3211728055,
				1065353216,
				3097231452,
				3108749909,
				3109694902,
				3199667037,
				3211728055,
				1065353216,
				3097231452,
				3108749909,
				3109694902,
				3199667037,
				3211728055,
				907776944,
				3212836864,
				3077384398,
				1042304196,
				930108154,
				3212630022,
				907776944,
				3212836864,
				3077384398,
				1042304196,
				930108154,
				3212630022,
				907776944,
				3212836864,
				3077384398,
				1042304196,
				930108154,
				3212630022,
				3212834845,
				3146988269,
				1014191315,
				3162388758,
				1049902546,
				3212116147,
				3212834845,
				3146988269,
				1014191315,
				3162388758,
				1049902546,
				3212116147,
				3212834845,
				3146988269,
				1014191315,
				3162388758,
				1049902546,
				3212116147,
				3038608764,
				1065353216,
				3073503379,
				3179286418,
				3073520896,
				3212804034,
				3038608764,
				1065353216,
				3073503379,
				3179286418,
				3073520896,
				3212804034,
				3038608764,
				1065353216,
				3073503379,
				3179286418,
				3073520896,
				3212804034,
				1061735666,
				1058930448,
				3179160683,
				1049678953,
				3202600433,
				3210315556,
				1061735666,
				1058930448,
				3179160683,
				1049678953,
				3202600433,
				3210315556,
				1061735666,
				1058930448,
				3179160683,
				1049678953,
				3202600433,
				3210315556,
				1058807124,
				3209289865,
				1034024672,
				3195046454,
				3196903435,
				3211700435,
				1058807124,
				3209289865,
				1034024672,
				3195046454,
				3196903435,
				3211700435,
				1058807124,
				3209289865,
				1034024672,
				3195046454,
				3196903435,
				3211700435,
				3206239723,
				3209329851,
				3181455103,
				3192975688,
				1048598618,
				3211936320,
				3206239723,
				3209329851,
				3181455103,
				3192975688,
				1048598618,
				3211936320,
				3206239723,
				3209329851,
				3181455103,
				3192975688,
				1048598618,
				3211936320,
				3209178889,
				1058981938,
				1031626161,
				1048881106,
				1054068591,
				3210702322,
				3209178889,
				1058981938,
				1031626161,
				1048881106,
				1054068591,
				3210702322,
				3209178889,
				1058981938,
				1031626161,
				1048881106,
				1054068591,
				3210702322,
				3212718300,
				3186794454,
				3152396834,
				1003085493,
				1006066524,
				3212836069,
				3075073385,
				1065353169,
				991580721,
				1001837934,
				991580852,
				3212836558,
				929817422,
				1065353172,
				3138780148,
				1001837923,
				3138780332,
				3212836559,
				3212718309,
				3186794552,
				3152193605,
				1002883690,
				1006042446,
				3212836079,
				927447399,
				3212836842,
				986557788,
				3152150057,
				3134041823,
				3212836446,
				3212718020,
				3186807590,
				1006369439,
				3154787786,
				1002324593,
				3212835984,
				3212718024,
				3186807568,
				1006316042,
				3154761276,
				1002330925,
				3212835987,
				3072395708,
				3212836844,
				3133921712,
				3152150064,
				986438316,
				3212836446,
				1065234959,
				3186799279,
				990228263,
				983589803,
				3152285260,
				3212836446,
				927447399,
				3212836842,
				986557788,
				3152150057,
				3134041823,
				3212836446,
				3072395708,
				3212836844,
				3133921712,
				3152150064,
				986438316,
				3212836446,
				1065234861,
				3186803657,
				3141202162,
				3144560022,
				3151040013,
				3212836412,
				3075073385,
				1065353169,
				991580721,
				1001837934,
				991580852,
				3212836558,
				1065234959,
				3186799279,
				990228263,
				983589803,
				3152285260,
				3212836446,
				1065234861,
				3186803657,
				3141202162,
				3144560022,
				3151040013,
				3212836412,
				929817422,
				1065353172,
				3138780148,
				1001837923,
				3138780332,
				3212836559,
				1012470415,
				1065351744,
				2147483648,
				3212835392,
				1012470415,
				2147483648,
				1060519598,
				1060358421,
				2147483648,
				1060358421,
				3208003246,
				2147483648,
				1065353215,
				3115358430,
				2147483648,
				3115358430,
				3212836863,
				0,
				1060519598,
				1060358421,
				2147483648,
				1060358421,
				3208003246,
				2147483648,
				3197767128,
				3196772008,
				3211398662,
				3212059406,
				1034895871,
				1049866540,
				3189497557,
				3197103035,
				3211956584,
				1065157713,
				3174126332,
				3189075701,
				3212836864,
				0,
				2147483648,
				0,
				3197214242,
				3212144015,
				1055562804,
				3196153393,
				3210356032,
				1063488216,
				1040544612,
				1054927844,
				1032690837,
				3138002951,
				3212796671,
				1041477694,
				1065177275,
				1006733556,
				1032516524,
				3157537800,
				3212797187,
				1041518999,
				1065176287,
				3129650609,
				1032620949,
				3149530630,
				3212797040,
				1041494370,
				1065177039,
				999106178,
				1032777714,
				991508828,
				3212795906,
				1041456749,
				1065177266,
				1011545946,
				1032830250,
				1000659924,
				3212795278,
				1041443965,
				1065177098,
				1014461087,
				3206095227,
				3203259032,
				3207014819,
				3209504429,
				1051822726,
				1056541913,
				3204238152,
				3204517325,
				3207947682,
				3210649292,
				1049791417,
				1053686724,
				1033219016,
				1051748855,
				3211761710,
				3212792002,
				1020188086,
				3180098688,
				3197994204,
				1051217600,
				3211040191,
				3212023139,
				3185159708,
				1049874910,
				706173185,
				923749015,
				3212836864,
				847721044,
				1065353216,
				923749015,
				2850767856,
				3067671636,
				3212836864,
				847957409,
				1065353216,
				3067671637,
				2850707892,
				3067616339,
				3212836864,
				847957409,
				1065353216,
				3067616340,
				688735492,
				906346480,
				3212836864,
				847721044,
				1065353216,
				906346480,
				3197405453,
				3196334785,
				3211519926,
				3212115342,
				1033915666,
				1049560810,
				3170621308,
				1045692930,
				3212465242,
				3212828934,
				3151014314,
				1022779705,
				1051589662,
				1044872302,
				3211496285,
				3211838496,
				1032857494,
				3198826017,
				3199309105,
				3196162141,
				3211211845,
				3211795398,
				1035970110,
				1051393867,
				2853927988,
				920064834,
				1065353216,
				2998473268,
				1065353216,
				3067548483,
				700253395,
				3066094363,
				1065353216,
				2994396598,
				1065353216,
				918610716,
				678682432,
				3044596972,
				1065353216,
				2994396598,
				1065353216,
				897113325,
				2853932528,
				920071114,
				1065353216,
				2998473268,
				1065353216,
				3067554763,
				723386530,
				941207844,
				3212836864,
				847484681,
				1065353216,
				941207844,
				706173185,
				923749015,
				3212836864,
				847721044,
				1065353216,
				923749015,
				688735492,
				906346480,
				3212836864,
				847721044,
				1065353216,
				906346480,
				717937256,
				935678380,
				3212836864,
				847484681,
				1065353216,
				935678381,
				3170621308,
				1045692930,
				3212465242,
				3212828934,
				3151014314,
				1022779705,
				1058830131,
				1057033424,
				3206296821,
				3209338495,
				1053249303,
				3203481651,
				1058256011,
				1057303576,
				3206623823,
				3209762654,
				1052517976,
				3202596426,
				1051589662,
				1044872302,
				3211496285,
				3211838496,
				1032857494,
				3198826017,
				700253395,
				3066094363,
				1065353216,
				2994396598,
				1065353216,
				918610716,
				711824731,
				3085376029,
				1065353216,
				2986579714,
				1065353216,
				937892382,
				706376486,
				3080076416,
				1065353216,
				2986579714,
				1065353216,
				932592768,
				678682432,
				3044596972,
				1065353216,
				2994396598,
				1065353216,
				897113325,
				3190134406,
				3131483621,
				1065132395,
				3179387912,
				1065318893,
				3155482428,
				1032777738,
				3138997534,
				1065312258,
				3188940391,
				1065177266,
				1011547222,
				1032620884,
				1002054311,
				1065313394,
				3188978033,
				1065177039,
				999098792,
				1032516378,
				1010062137,
				1065313540,
				3189002681,
				1065176285,
				3129715016,
				3190110472,
				3152060606,
				1065132988,
				3179509215,
				1065318511,
				3144253218,
				3197994204,
				1051217600,
				3211040191,
				3212023139,
				3185159708,
				1049874910,
				1033219016,
				1051748855,
				3211761710,
				3212792002,
				1020188086,
				3180098688,
				1056491950,
				1062794641,
				3193618755,
				3210723050,
				1055997408,
				3186834693,
				3200491202,
				3139054318,
				3211563980,
				3164713250,
				1065349683,
				1001914606,
				3200491202,
				3139054318,
				3211563980,
				3164713250,
				1065349683,
				1001914606,
				3200491202,
				3139054318,
				3211563980,
				3164713250,
				1065349683,
				1001914606,
				3200492719,
				928692947,
				1064080069,
				1016749613,
				1065349730,
				1006558155,
				3190134406,
				3131483621,
				1065132395,
				3179387912,
				1065318893,
				3155482428,
				3190110472,
				3152060606,
				1065132988,
				3179509215,
				1065318511,
				3144253218,
				1064672758,
				3181657139,
				1049255853,
				3197130297,
				3196828972,
				1064007742,
				1058628984,
				3194565913,
				1061452857,
				1062007773,
				1043237678,
				3205697307,
				1065353216,
				0,
				2147483648,
				2147483648,
				1049732458,
				3212143738,
				1064606436,
				3182158101,
				1049677931,
				1050086915,
				1049307591,
				3211427808,
				3180174552,
				990510804,
				3212796671,
				3188961355,
				3212660922,
				1006735754,
				3180000307,
				1010048269,
				3212797188,
				3189002644,
				3212659934,
				3129602695,
				3180104681,
				1002040875,
				3212797041,
				3188978028,
				3212660687,
				999112449,
				3180261393,
				3138993460,
				3212795906,
				3188940418,
				3212660913,
				1011546249,
				3180313929,
				3148144105,
				3212795278,
				3188927635,
				3212660746,
				1014461411,
				1059137400,
				3202784855,
				1059197909,
				3209095438,
				3199916026,
				1057181711,
				1056815535,
				3204507264,
				1060449879,
				3210631923,
				3197310452,
				1053736445,
				3183956834,
				1051724803,
				1064245419,
				3212757214,
				3171531283,
				3183152486,
				1050291214,
				1051241799,
				1063589432,
				3212058185,
				1037372927,
				1049669076,
				695972924,
				3058711682,
				3212836864,
				849000465,
				3212836864,
				911228035,
				652287160,
				3030102584,
				3212836864,
				834212195,
				3212836864,
				882618936,
				652699791,
				3030387975,
				3212836864,
				834212195,
				3212836864,
				882904327,
				2811081782,
				879392532,
				3212836864,
				849000465,
				3212836864,
				3026876181,
				1051922168,
				3196152443,
				1063710900,
				3211777432,
				3183558122,
				1051486991,
				974462151,
				1045699499,
				1064989349,
				3212836861,
				955717603,
				974250211,
				3199725395,
				1044771515,
				1063893632,
				3211716854,
				3180881426,
				3199463961,
				1051694356,
				3196175135,
				1063751393,
				3211819485,
				3183312265,
				1051267627,
				698819774,
				907682580,
				1065353216,
				3003829520,
				3212836864,
				907682580,
				2823966752,
				890724928,
				1065353216,
				850514842,
				3212836864,
				890724928,
				687571890,
				3048540783,
				1065353216,
				850514842,
				3212836864,
				3048540783,
				698848977,
				907709510,
				1065353216,
				3003829520,
				3212836864,
				907709510,
				718838162,
				3075650217,
				3212836864,
				855872997,
				3212836864,
				928166570,
				695972924,
				3058711682,
				3212836864,
				849000465,
				3212836864,
				911228035,
				2811081782,
				879392532,
				3212836864,
				849000465,
				3212836864,
				3026876181,
				709609784,
				3066444722,
				3212836864,
				855872997,
				3212836864,
				918961075,
				974462151,
				1045699499,
				1064989349,
				3212836861,
				955717603,
				974250211,
				3206376589,
				1057002381,
				1058775598,
				3209289754,
				3200812956,
				3203578496,
				3204367688,
				1057844740,
				1059795221,
				3210612327,
				3198305294,
				3200543130,
				3199725395,
				1044771515,
				1063893632,
				3211716854,
				3180881426,
				3199463961,
				2823966752,
				890724928,
				1065353216,
				850514842,
				3212836864,
				890724928,
				2858189504,
				909265309,
				1065353216,
				866013269,
				3212836864,
				909265309,
				700649468,
				3047011915,
				1065353216,
				866013269,
				3212836864,
				3047011915,
				687571890,
				3048540783,
				1065353216,
				850514842,
				3212836864,
				3048540783,
				1042658964,
				3123543170,
				1065132067,
				1031862197,
				3212802551,
				3157535058,
				3180261395,
				991514002,
				1065312258,
				1041456749,
				3212660913,
				1011547268,
				3180104668,
				3149523841,
				1065313393,
				1041494362,
				3212660687,
				999113059,
				3180000281,
				3157532188,
				1065313539,
				1041518982,
				3212659936,
				3129605226,
				1042630977,
				1002508834,
				1065132923,
				1032004658,
				3212802262,
				3147035791,
				1050291214,
				1051241799,
				1063589432,
				3212058185,
				1037372927,
				1049669076,
				3183956834,
				1051724803,
				1064245419,
				3212757214,
				3171531283,
				3183152486,
				3203968055,
				1062796671,
				1046137198,
				3210725147,
				3203473740,
				3186827366,
				1053009090,
				899979579,
				3211563712,
				1016747193,
				3212833378,
				1006581623,
				1053009090,
				899979579,
				3211563712,
				1016747193,
				3212833378,
				1006581623,
				1053009090,
				899979579,
				3211563712,
				1016747193,
				3212833378,
				1006581623,
				1053006586,
				3145268199,
				1064080451,
				3165010165,
				3212833258,
				999042931,
				1042658964,
				3123543170,
				1065132067,
				1031862197,
				3212802551,
				3157535058,
				1042630977,
				1002508834,
				1065132923,
				1032004658,
				3212802262,
				3147035791,
				847893560,
				1065353216,
				887201580,
				670233201,
				887201581,
				3212836864,
				847893560,
				1065353216,
				882272798,
				664925943,
				882272798,
				3212836864,
				856282167,
				1065353216,
				907258807,
				698286751,
				907258807,
				3212836864,
				0,
				3209632708,
				1058437390,
				3212836864,
				0,
				0,
				0,
				3209632708,
				1058437390,
				3212836864,
				0,
				0,
				0,
				3209632710,
				3205921036,
				3212836864,
				2147483648,
				2147483648,
				0,
				3209632709,
				3205921037,
				3212836864,
				2147483648,
				2147483648,
				0,
				3209632709,
				3205921037,
				3212836864,
				2147483648,
				2147483648,
				0,
				3209632710,
				3205921036,
				3212836864,
				2147483648,
				2147483648,
				0,
				1050556267,
				3212015733,
				3212836864,
				0,
				2147483648,
				0,
				1050556267,
				3212015731,
				3212836864,
				0,
				2147483648,
				0,
				1050556267,
				3212015731,
				3212836864,
				0,
				2147483648,
				0,
				1050556267,
				3212015733,
				3212836864,
				0,
				2147483648,
				0,
				1065353216,
				898786400,
				3212836864,
				0,
				2147483648,
				0,
				1065353216,
				898786412,
				3212836864,
				0,
				2147483648,
				0,
				1065353216,
				898786412,
				3212836864,
				0,
				2147483648,
				0,
				1065353216,
				898786400,
				3212836864,
				0,
				2147483648,
				2147483648,
				1050556225,
				1064532090,
				3212836864,
				0,
				2147483648,
				0,
				1050556225,
				1064532090,
				3212836864,
				0,
				2147483648,
				2147483648,
				3198039881,
				3212015738,
				3212836864,
				0,
				2147483648,
				0,
				3198039881,
				3212015738,
				3212836864,
				0,
				2147483648,
				0,
				1062149062,
				3205921036,
				3212836864,
				0,
				2147483648,
				0,
				1062149062,
				3205921036,
				3212836864,
				0,
				2147483648,
				856282167,
				1065353216,
				902347441,
				2841126047,
				3049831090,
				1065353216,
				841637316,
				1065353216,
				877426054,
				2802323696,
				3024909703,
				1065353216,
				841637316,
				1065353216,
				882464804,
				2806782312,
				3029948452,
				1065353216,
				3034828763,
				1065353216,
				898163830,
				3025612484,
				898163829,
				3212836864,
				3034828760,
				1065353216,
				902649520,
				3025612500,
				902649520,
				3212836864,
				3012154301,
				1065353216,
				923166165,
				3008524437,
				923166165,
				3212836864,
				913153868,
				3198040055,
				1064532061,
				3212836864,
				918155603,
				918116291,
				915600552,
				3198040055,
				1064532061,
				3212836864,
				917585621,
				919870496,
				896900899,
				3212836864,
				3050698154,
				3212836864,
				3044384595,
				903921741,
				3044165883,
				3212836864,
				3049960163,
				3212836864,
				896682192,
				903921767,
				3044165883,
				3212836864,
				3049960163,
				3212836864,
				896682192,
				903921767,
				896900899,
				3212836864,
				3050698154,
				3212836864,
				3044384595,
				903921741,
				3031159984,
				3198040117,
				3212015699,
				3212836864,
				899401399,
				3006156847,
				893648458,
				3198040116,
				3212015699,
				3212836864,
				895512497,
				3045818537,
				893648458,
				3198040116,
				3212015699,
				3212836864,
				895512497,
				3045818537,
				3031159984,
				3198040117,
				3212015699,
				3212836864,
				899401399,
				3006156847,
				3046403970,
				1062149014,
				3205921103,
				3212836864,
				3044027472,
				892239704,
				3046403970,
				1062149014,
				3205921102,
				3212836864,
				3044027472,
				892239704,
				3046403970,
				1062149014,
				3205921102,
				3212836864,
				3044027472,
				892239704,
				3046403970,
				1062149014,
				3205921103,
				3212836864,
				3044027472,
				892239704,
				906903912,
				1062149050,
				1058437406,
				3212836864,
				915151866,
				3054480136,
				3036333206,
				1062149050,
				1058437406,
				3212836864,
				906741157,
				3061167458,
				3036333206,
				1062149050,
				1058437406,
				3212836864,
				906741157,
				3061167458,
				906903912,
				1062149050,
				1058437406,
				3212836864,
				915151866,
				3054480136,
				3064600772,
				3198040048,
				1064532063,
				3212836864,
				923376719,
				3056785766,
				3060063724,
				3198040048,
				1064532063,
				3212836864,
				922813073,
				3046240610,
				898108344,
				1065353216,
				916031636,
				898875185,
				3063515286,
				1065353216,
				910001082,
				1065353216,
				924420245,
				905742134,
				3071903899,
				1065353216,
				898108299,
				1065353216,
				2918012246,
				898875226,
				769885389,
				1065353216,
				1049305672,
				1013051814,
				3212203863,
				1057146814,
				1062758122,
				1042293394,
				1039954643,
				936779425,
				3212708916,
				1040637709,
				1065204786,
				1015429934,
				1047015554,
				931595522,
				3212399877,
				3059809601,
				1065353216,
				931403064,
				1049299543,
				1012728305,
				1064721151,
				1057148419,
				1062758218,
				3189753982,
				1039954905,
				941918651,
				1065225264,
				1040637626,
				1065204784,
				3162920989,
				1047015565,
				3030215026,
				1064916229,
				3043766509,
				1065353216,
				889703551,
				3042088289,
				1065353216,
				714825340,
				3032277156,
				2667577345,
				3212836864,
				3042088305,
				1065353216,
				3055951953,
				3032277088,
				3055951954,
				3212836864,
				3034828760,
				1065353216,
				902649520,
				3025612500,
				902649520,
				3212836864,
				3034828763,
				1065353216,
				898163830,
				3025612484,
				898163829,
				3212836864,
				847893560,
				1065353216,
				887201580,
				670233201,
				887201581,
				3212836864,
				2147483648,
				1065353216,
				3040249816,
				0,
				3040249816,
				3212836864,
				2147483648,
				1065353216,
				0,
				2147483648,
				0,
				3212836864,
				847893560,
				1065353216,
				882272798,
				664925943,
				882272798,
				3212836864,
				841637316,
				1065353216,
				882464804,
				2806782312,
				3029948452,
				1065353216,
				841637316,
				1065353216,
				877426054,
				2802323696,
				3024909703,
				1065353216,
				2991756629,
				1065353216,
				2147483648,
				2147483648,
				0,
				1065353216,
				2991756628,
				1065353216,
				3036159294,
				2815170747,
				888675647,
				1065353216,
				898108344,
				1065353216,
				916031636,
				898875185,
				3063515286,
				1065353216,
				898108299,
				1065353216,
				2918012246,
				898875226,
				769885389,
				1065353216,
				3042303928,
				1065353216,
				3071903981,
				883677554,
				924420333,
				1065353216,
				3042303902,
				1065353216,
				3063515372,
				883677683,
				916031725,
				1065353216;
			}
		}
	}
}

